band-mt, 4, 0, 0, 0.063, 0.121
band-mt, 52, 0, 0, 0.063, 1.569
band-mt, 104, 0, 0, 0.059, 3.342
band-mt, 156, 0, 0, 0.064, 4.666
band-mt, 208, 0, 0, 0.060, 6.664
band-mt, 256, 0, 0, 0.059, 8.227
band-mt, 308, 0, 0, 0.064, 9.211
band-mt, 360, 0, 0, 0.060, 11.392
band-mt, 412, 0, 0, 0.064, 12.216
band-mt, 460, 0, 0, 0.064, 13.718
band-mt, 512, 1, 0, 0.067, 14.476
band-mt, 564, 1, 0, 0.071, 15.199
band-mt, 616, 1, 0, 0.069, 17.135
band-mt, 664, 1, 0, 0.068, 18.621
band-mt, 716, 1, 0, 0.071, 19.295
band-mt, 768, 1, 0, 0.068, 21.596
band-mt, 820, 1, 0, 0.071, 22.097
band-mt, 868, 1, 0, 0.072, 23.150
band-mt, 920, 1, 0, 0.069, 25.523
band-mt, 972, 1, 0, 0.071, 26.125
band-mt, 1024, 1, 0, 0.068, 28.716
band-mt, 53400, 52, 0, 0.252, 404.524
band-mt, 105776, 103, 0, 0.477, 423.101
band-mt, 158152, 154, 0, 0.787, 383.177
band-mt, 210532, 206, 0, 1.025, 391.759
band-mt, 262908, 257, 0, 1.333, 376.183
band-mt, 315284, 308, 0, 1.559, 385.689
band-mt, 367660, 359, 0, 1.799, 389.768
band-mt, 420040, 410, 0, 2.091, 383.158
band-mt, 472416, 461, 0, 2.327, 387.210
band-mt, 524792, 512, 1, 2.640, 379.147
band-mt, 577168, 564, 1, 2.851, 386.095
band-mt, 629548, 615, 1, 3.081, 389.765
band-mt, 681924, 666, 1, 3.369, 386.045
band-mt, 734300, 717, 1, 3.606, 388.411
band-mt, 786676, 768, 1, 3.915, 383.298
band-mt, 839056, 819, 1, 4.134, 387.093
band-mt, 891432, 871, 1, 4.367, 389.334
band-mt, 943808, 922, 1, 4.658, 386.500
band-mt, 996184, 973, 1, 4.895, 388.163
band-mt, 1048576, 1024, 1, 5.223, 382.913
