1 B,  2.4 ms 6.2 ms 14.6 ms 4.7 ms
2 B,  2.5 ms 3.2 ms 5.8 ms 1.0 ms
4 B,  2.6 ms 3.3 ms 5.9 ms 999 us
8 B,  2.8 ms 3.2 ms 5.2 ms 767 us
16 B,  2.0 ms 7.7 ms 40.1 ms 12.3 ms
32 B,  2.8 ms 3.3 ms 5.8 ms 980 us
64 B,  2.6 ms 3.2 ms 5.9 ms 1.0 ms
128 B,  2.4 ms 3.9 ms 6.4 ms 1.4 ms
256 B,  2.9 ms 3.3 ms 5.6 ms 864 us
512 B,  2.3 ms 3.2 ms 6.2 ms 1.2 ms
1 KB,  2.8 ms 3.4 ms 6.2 ms 1.1 ms
2 KB,  2.9 ms 3.3 ms 5.7 ms 895 us
4 KB,  2.3 ms 2.7 ms 4.9 ms 838 us
8 KB,  2.5 ms 3.0 ms 5.3 ms 873 us
16 KB,  8.5 ms 312.4 ms 389.5 ms 128.9 ms
32 KB,  177.1 ms 358.0 ms 389.2 ms 68.4 ms
64 KB,  10.9 ms 276.2 ms 406.1 ms 162.5 ms
128 KB,  382.5 ms 389.5 ms 401.5 ms 6.8 ms
256 KB,  381.2 ms 391.7 ms 399.0 ms 6.0 ms
512 KB,  43.6 ms 387.0 ms 759.0 ms 182.4 ms
1 MB,  415.0 ms 565.7 ms 704.6 ms 136.6 ms
2 MB,  484.4 ms 540.5 ms 680.2 ms 81.1 ms
4 MB,  668.1 ms 716.6 ms 812.3 ms 56.2 ms
8 MB,  875.3 ms 942.7 ms 1.0 s 66.4 ms
16 MB,  1.3 s 1.6 s 2.0 s 363.4 ms
32 MB,  2.8 s 2.8 s 2.9 s 5.2 ms
64 MB,  6.7 s 8.0 s 9.9 s 1.2 s
128 MB,  9.4 s 9.6 s 9.8 s 151.9 ms

