{ignore 499611}, 4, 1000000, 1000000, 0, 0.00%, 0, 0, 0.006934, 0.006389, 0.013213, 0.013312, 0.017885
{ignore 499846}, 4, 1000000, 2000000, 0, 0.00%, 0, 0, 0.007498, 0.012682, 0.020111, 0.020186, 0.023999
{ignore 500528}, 4, 1000000, 4000000, 0, 0.00%, 0, 0, 0.009197, 0.029671, 0.037977, 0.038863, 0.041902
{ignore 499630}, 4, 1000000, 8000000, 0, 0.00%, 0, 0, 0.012100, 0.077658, 0.089686, 0.089767, 0.097016
{ignore 499698}, 4, 1000000, 16000000, 0, 0.00%, 0, 0, 0.020286, 0.198786, 0.218977, 0.219067, 0.224037
{ignore 499265}, 4, 1000000, 24000000, 0, 0.00%, 0, 0, 0.028482, 0.334053, 0.362400, 0.362512, 0.370295
{ignore 500323}, 4, 1000000, 32000000, 0, 0.00%, 0, 0, 0.036698, 0.479929, 0.516404, 0.516599, 0.520858
{ignore 3999891}, 4, 8000000, 1000000, 0, 0.00%, 0, 0, 0.041120, 0.008644, 0.049617, 0.049762, 0.052653
{ignore 4000395}, 4, 8000000, 2000000, 0, 0.00%, 0, 0, 0.043591, 0.013819, 0.057157, 0.057387, 0.062888
{ignore 4000702}, 4, 8000000, 4000000, 0, 0.00%, 0, 0, 0.048799, 0.029884, 0.078538, 0.078677, 0.081571
{ignore 3997384}, 4, 8000000, 8000000, 0, 0.00%, 0, 0, 0.053709, 0.078009, 0.131609, 0.131769, 0.138677
{ignore 4002091}, 4, 8000000, 16000000, 0, 0.00%, 0, 0, 0.058890, 0.200289, 0.258925, 0.259167, 0.268112
{ignore 4000976}, 4, 8000000, 24000000, 0, 0.00%, 0, 0, 0.062180, 0.338851, 0.400880, 0.401052, 0.408274
{ignore 3999439}, 4, 8000000, 32000000, 0, 0.00%, 0, 0, 0.065425, 0.485641, 0.550907, 0.551070, 0.555091
{ignore 8000519}, 4, 16000000, 1000000, 0, 0.00%, 0, 0, 0.079561, 0.010205, 0.089550, 0.089765, 0.093633
{ignore 8002178}, 4, 16000000, 2000000, 0, 0.00%, 0, 0, 0.082688, 0.017152, 0.099069, 0.099868, 0.102419
{ignore 8000514}, 4, 16000000, 4000000, 0, 0.00%, 0, 0, 0.086950, 0.031244, 0.118046, 0.118197, 0.119326
{ignore 8000846}, 4, 16000000, 8000000, 0, 0.00%, 0, 0, 0.097760, 0.078592, 0.176133, 0.176363, 0.186923
{ignore 7997693}, 4, 16000000, 16000000, 0, 0.00%, 0, 0, 0.107658, 0.201161, 0.308512, 0.308837, 0.315856
{ignore 7996212}, 4, 16000000, 24000000, 0, 0.00%, 0, 0, 0.113139, 0.336536, 0.449459, 0.449663, 0.460341
{ignore 7999544}, 4, 16000000, 32000000, 0, 0.00%, 0, 0, 0.117345, 0.483300, 0.600522, 0.600737, 0.605309
{ignore 16003112}, 4, 32000000, 1000000, 0, 0.00%, 0, 0, 0.156154, 0.010097, 0.165926, 0.166258, 0.173422
{ignore 16000253}, 4, 32000000, 2000000, 0, 0.00%, 0, 0, 0.158807, 0.021509, 0.179999, 0.180326, 0.190315
{ignore 15996358}, 4, 32000000, 4000000, 0, 0.00%, 0, 0, 0.164143, 0.036134, 0.199755, 0.200338, 0.204006
{ignore 15996287}, 4, 32000000, 8000000, 0, 0.00%, 0, 0, 0.173865, 0.080606, 0.254167, 0.254478, 0.257026
{ignore 15999350}, 4, 32000000, 16000000, 0, 0.00%, 0, 0, 0.195159, 0.201651, 0.396486, 0.396791, 0.406819
{ignore 15995303}, 4, 32000000, 24000000, 0, 0.00%, 0, 0, 0.209368, 0.338806, 0.547761, 0.548196, 0.554884
{ignore 15998813}, 4, 32000000, 32000000, 0, 0.00%, 0, 0, 0.214859, 0.485590, 0.699985, 0.700424, 0.701682
