{ignore 499473}, 6, 1000000, 1000000, 0, 0.00%, 0.003188, 0.004854, 0, 0, 0.008002, 0.008043, 0.017872
{ignore 499737}, 6, 1000000, 2000000, 0, 0.00%, 0.003492, 0.009878, 0, 0, 0.013330, 0.013370, 0.021606
{ignore 500943}, 6, 1000000, 4000000, 0, 0.00%, 0.003891, 0.022107, 0, 0, 0.025937, 0.026139, 0.034497
{ignore 499594}, 6, 1000000, 8000000, 0, 0.00%, 0.005605, 0.055547, 0, 0, 0.061081, 0.061146, 0.071090
{ignore 499366}, 6, 1000000, 12000000, 0, 0.00%, 0.007470, 0.096047, 0, 0, 0.103175, 0.103532, 0.112561
{ignore 500917}, 6, 1000000, 16000000, 0, 0.00%, 0.009371, 0.141113, 0, 0, 0.150366, 0.150583, 0.163567
{ignore 501429}, 6, 1000000, 24000000, 0, 0.00%, 0.013128, 0.247162, 0, 0, 0.259020, 0.260329, 0.282244
{ignore 499479}, 6, 1000000, 32000000, 0, 0.00%, 0.016889, 0.352201, 0, 0, 0.368858, 0.369107, 0.373025
{ignore 999901}, 6, 2000000, 1000000, 0, 0.00%, 0.005695, 0.004933, 0, 0, 0.010587, 0.010625, 0.014063
{ignore 999859}, 6, 2000000, 2000000, 0, 0.00%, 0.006294, 0.009917, 0, 0, 0.016165, 0.016217, 0.032493
{ignore 1000598}, 6, 2000000, 4000000, 0, 0.00%, 0.006875, 0.021997, 0, 0, 0.028782, 0.028931, 0.046312
{ignore 1001382}, 6, 2000000, 8000000, 0, 0.00%, 0.007691, 0.055396, 0, 0, 0.062940, 0.063140, 0.076820
{ignore 1000849}, 6, 2000000, 12000000, 0, 0.00%, 0.009240, 0.095813, 0, 0, 0.104968, 0.105129, 0.119428
{ignore 998688}, 6, 2000000, 16000000, 0, 0.00%, 0.011094, 0.143033, 0, 0, 0.153993, 0.154130, 0.164639
{ignore 999914}, 6, 2000000, 24000000, 0, 0.00%, 0.014856, 0.244275, 0, 0, 0.236788, 0.259243, 0.275779
{ignore 999620}, 6, 2000000, 32000000, 0, 0.00%, 0.018607, 0.351486, 0, 0, 0.369918, 0.370120, 0.379123
{ignore 2000038}, 6, 4000000, 1000000, 0, 0.00%, 0.015087, 0.005397, 0, 0, 0.015461, 0.020456, 0.036002
{ignore 2000589}, 6, 4000000, 2000000, 0, 0.00%, 0.011356, 0.010201, 0, 0, 0.021497, 0.021568, 0.026961
{ignore 2001429}, 6, 4000000, 4000000, 0, 0.00%, 0.012530, 0.022150, 0, 0, 0.034592, 0.034700, 0.044376
{ignore 2000970}, 6, 4000000, 8000000, 0, 0.00%, 0.013687, 0.055603, 0, 0, 0.069206, 0.069297, 0.084833
{ignore 2000164}, 6, 4000000, 12000000, 0, 0.00%, 0.014534, 0.096422, 0, 0, 0.110736, 0.111010, 0.140216
{ignore 1999218}, 6, 4000000, 16000000, 0, 0.00%, 0.015324, 0.143061, 0, 0, 0.157896, 0.158478, 0.171842
{ignore 1999484}, 6, 4000000, 24000000, 0, 0.00%, 0.018357, 0.247527, 0, 0, 0.237296, 0.265937, 0.282875
{ignore 1999806}, 6, 4000000, 32000000, 0, 0.00%, 0.022131, 0.354518, 0, 0, 0.376382, 0.377193, 0.385588
{ignore 4001616}, 6, 8000000, 1000000, 0, 0.00%, 0.019137, 0.007479, 0, 0, 0.026390, 0.026603, 0.041583
{ignore 3997475}, 6, 8000000, 2000000, 0, 0.00%, 0.020160, 0.011127, 0, 0, 0.031149, 0.031281, 0.045155
{ignore 4000134}, 6, 8000000, 4000000, 0, 0.00%, 0.022611, 0.022482, 0, 0, 0.044970, 0.045093, 0.070366
{ignore 4000655}, 6, 8000000, 8000000, 0, 0.00%, 0.024975, 0.055477, 0, 0, 0.080222, 0.080442, 0.095836
{ignore 3998944}, 6, 8000000, 12000000, 0, 0.00%, 0.026212, 0.095741, 0, 0, 0.121567, 0.121962, 0.141941
{ignore 4000437}, 6, 8000000, 16000000, 0, 0.00%, 0.027316, 0.141895, 0, 0, 0.168905, 0.169265, 0.185216
{ignore 3998508}, 6, 8000000, 24000000, 0, 0.00%, 0.028813, 0.243612, 0, 0, 0.272213, 0.272535, 0.297268
{ignore 3999031}, 6, 8000000, 32000000, 0, 0.00%, 0.030375, 0.363152, 0, 0, 0.393236, 0.393606, 0.407929
{ignore 5999449}, 6, 12000000, 1000000, 0, 0.00%, 0.027739, 0.009133, 0, 0, 0.036695, 0.036870, 0.044171
{ignore 5999764}, 6, 12000000, 2000000, 0, 0.00%, 0.029030, 0.012943, 0, 0, 0.041799, 0.041985, 0.064393
{ignore 6001315}, 6, 12000000, 4000000, 0, 0.00%, 0.031222, 0.023100, 0, 0, 0.054097, 0.054327, 0.065685
{ignore 5998793}, 6, 12000000, 8000000, 0, 0.00%, 0.035737, 0.055607, 0, 0, 0.091090, 0.091382, 0.101122
{ignore 6000310}, 6, 12000000, 12000000, 0, 0.00%, 0.037290, 0.096208, 0, 0, 0.133249, 0.133526, 0.145567
{ignore 5997715}, 6, 12000000, 16000000, 0, 0.00%, 0.038635, 0.144006, 0, 0, 0.161077, 0.182687, 0.208525
{ignore 6000552}, 6, 12000000, 24000000, 0, 0.00%, 0.040728, 0.243967, 0, 0, 0.284328, 0.284863, 0.308859
{ignore 5999814}, 6, 12000000, 32000000, 0, 0.00%, 0.042316, 0.353301, 0, 0, 0.351851, 0.395600, 0.415425
{ignore 8001629}, 6, 16000000, 1000000, 0, 0.00%, 0.036556, 0.009137, 0, 0, 0.045486, 0.045689, 0.054712
{ignore 7998678}, 6, 16000000, 2000000, 0, 0.00%, 0.037729, 0.015162, 0, 0, 0.052681, 0.052888, 0.084607
{ignore 7997769}, 6, 16000000, 4000000, 0, 0.00%, 0.039947, 0.024264, 0, 0, 0.064027, 0.064159, 0.085795
{ignore 8001124}, 6, 16000000, 8000000, 0, 0.00%, 0.044897, 0.055866, 0, 0, 0.100518, 0.100794, 0.129828
{ignore 7999352}, 6, 16000000, 12000000, 0, 0.00%, 0.048253, 0.096965, 0, 0, 0.145093, 0.145261, 0.164358
{ignore 8000264}, 6, 16000000, 16000000, 0, 0.00%, 0.049681, 0.145194, 0, 0, 0.171567, 0.194880, 0.209292
{ignore 7999245}, 6, 16000000, 24000000, 0, 0.00%, 0.052217, 0.246821, 0, 0, 0.265709, 0.299092, 0.320496
{ignore 7998187}, 6, 16000000, 32000000, 0, 0.00%, 0.054187, 0.353364, 0, 0, 0.361151, 0.407601, 0.421351
{ignore 11996687}, 6, 24000000, 1000000, 0, 0.00%, 0.056236, 0.008980, 0, 0, 0.065089, 0.065230, 0.093807
{ignore 12001628}, 6, 24000000, 2000000, 0, 0.00%, 0.055432, 0.018942, 0, 0, 0.074147, 0.074374, 0.096819
{ignore 11999038}, 6, 24000000, 4000000, 0, 0.00%, 0.057617, 0.027236, 0, 0, 0.084680, 0.084841, 0.103679
{ignore 12002059}, 6, 24000000, 8000000, 0, 0.00%, 0.062420, 0.056279, 0, 0, 0.118315, 0.118683, 0.133793
{ignore 11993450}, 6, 24000000, 12000000, 0, 0.00%, 0.061895, 0.084278, 0, 0, 0.145207, 0.146153, 0.169754
{ignore 12000460}, 6, 24000000, 16000000, 0, 0.00%, 0.071451, 0.145272, 0, 0, 0.215934, 0.216794, 0.232125
{ignore 12003671}, 6, 24000000, 24000000, 0, 0.00%, 0.074482, 0.244648, 0, 0, 0.318154, 0.319822, 0.357278
{ignore 12002086}, 6, 24000000, 32000000, 0, 0.00%, 0.077178, 0.356211, 0, 0, 0.432731, 0.433556, 0.448774
{ignore 15998099}, 6, 32000000, 1000000, 0, 0.00%, 0.071705, 0.008511, 0, 0, 0.080009, 0.080233, 0.110360
{ignore 16000540}, 6, 32000000, 2000000, 0, 0.00%, 0.072979, 0.019674, 0, 0, 0.092388, 0.092649, 0.143782
{ignore 15998047}, 6, 32000000, 4000000, 0, 0.00%, 0.069004, 0.025795, 0, 0, 0.094465, 0.094998, 0.147609
{ignore 16002185}, 6, 32000000, 8000000, 0, 0.00%, 0.079710, 0.057790, 0, 0, 0.122856, 0.137513, 0.162054
{ignore 16001646}, 6, 32000000, 12000000, 0, 0.00%, 0.084939, 0.097890, 0, 0, 0.182346, 0.182839, 0.207514
{ignore 15999714}, 6, 32000000, 16000000, 0, 0.00%, 0.089782, 0.143692, 0, 0, 0.206716, 0.233534, 0.265458
{ignore 15998016}, 6, 32000000, 24000000, 0, 0.00%, 0.088405, 0.221434, 0, 0, 0.306525, 0.310274, 0.377791
{ignore 15998092}, 6, 32000000, 32000000, 0, 0.00%, 0.099152, 0.354466, 0, 0, 0.403527, 0.453764, 0.471388
