GFORTRAN module version '6' created from src/binding/f90/mpi_constants.f90 on Fri May 23 15:44:02 2014
MD5:9c51debe79949b4fe5e3a9d296250ce0 -- If you edit this, you'll get what you deserve.

(() () () () () () () () () () () () () () () () () () (2 3 4 5 6 7 8 9
10 11) (12 13 14 15 16 17 18 19 20 21) () () () () () () ())

()

()

(('mpifcmb5' 22 1 0 'mpifcmb5') ('mpifcmb9' 23 1 0 'mpifcmb9') (
'mpipriv1' 24 1 0 'mpipriv1') ('mpipriv2' 25 1 0 'mpipriv2') ('mpiprivc'
26 1 0 'mpiprivc'))

()

()

(27 '__convert_i4_i8' '(intrinsic)' '__convert_i4_i8' 1 ((PROCEDURE
UNKNOWN-INTENT UNKNOWN-PROC UNKNOWN UNKNOWN 0 0 FUNCTION ELEMENTAL PURE)
(INTEGER 8 0 0 INTEGER ()) 0 0 () () 27 () () () 0 0)
9 'commeq' 'mpi_constants' 'commeq' 1 ((PROCEDURE UNKNOWN-INTENT
MODULE-PROC DECL UNKNOWN 0 0 FUNCTION IMPLICIT_PURE) (LOGICAL 4 0 0
LOGICAL ()) 28 0 (29 30) () 9 () () () 0 0)
19 'commneq' 'mpi_constants' 'commneq' 1 ((PROCEDURE UNKNOWN-INTENT
MODULE-PROC DECL UNKNOWN 0 0 FUNCTION IMPLICIT_PURE) (LOGICAL 4 0 0
LOGICAL ()) 31 0 (32 33) () 19 () () () 0 0)
3 'datatypeeq' 'mpi_constants' 'datatypeeq' 1 ((PROCEDURE UNKNOWN-INTENT
MODULE-PROC DECL UNKNOWN 0 0 FUNCTION IMPLICIT_PURE) (LOGICAL 4 0 0
LOGICAL ()) 34 0 (35 36) () 3 () () () 0 0)
13 'datatypeneq' 'mpi_constants' 'datatypeneq' 1 ((PROCEDURE
UNKNOWN-INTENT MODULE-PROC DECL UNKNOWN 0 0 FUNCTION IMPLICIT_PURE) (
LOGICAL 4 0 0 LOGICAL ()) 37 0 (38 39) () 13 () () () 0 0)
5 'errhandlereq' 'mpi_constants' 'errhandlereq' 1 ((PROCEDURE
UNKNOWN-INTENT MODULE-PROC DECL UNKNOWN 0 0 FUNCTION IMPLICIT_PURE) (
LOGICAL 4 0 0 LOGICAL ()) 40 0 (41 42) () 5 () () () 0 0)
15 'errhandlerneq' 'mpi_constants' 'errhandlerneq' 1 ((PROCEDURE
UNKNOWN-INTENT MODULE-PROC DECL UNKNOWN 0 0 FUNCTION IMPLICIT_PURE) (
LOGICAL 4 0 0 LOGICAL ()) 43 0 (44 45) () 15 () () () 0 0)
7 'fileeq' 'mpi_constants' 'fileeq' 1 ((PROCEDURE UNKNOWN-INTENT
MODULE-PROC DECL UNKNOWN 0 0 FUNCTION IMPLICIT_PURE) (LOGICAL 4 0 0
LOGICAL ()) 46 0 (47 48) () 7 () () () 0 0)
17 'fileneq' 'mpi_constants' 'fileneq' 1 ((PROCEDURE UNKNOWN-INTENT
MODULE-PROC DECL UNKNOWN 0 0 FUNCTION IMPLICIT_PURE) (LOGICAL 4 0 0
LOGICAL ()) 49 0 (50 51) () 17 () () () 0 0)
4 'groupeq' 'mpi_constants' 'groupeq' 1 ((PROCEDURE UNKNOWN-INTENT
MODULE-PROC DECL UNKNOWN 0 0 FUNCTION IMPLICIT_PURE) (LOGICAL 4 0 0
LOGICAL ()) 52 0 (53 54) () 4 () () () 0 0)
14 'groupneq' 'mpi_constants' 'groupneq' 1 ((PROCEDURE UNKNOWN-INTENT
MODULE-PROC DECL UNKNOWN 0 0 FUNCTION IMPLICIT_PURE) (LOGICAL 4 0 0
LOGICAL ()) 55 0 (56 57) () 14 () () () 0 0)
11 'infoeq' 'mpi_constants' 'infoeq' 1 ((PROCEDURE UNKNOWN-INTENT
MODULE-PROC DECL UNKNOWN 0 0 FUNCTION IMPLICIT_PURE) (LOGICAL 4 0 0
LOGICAL ()) 58 0 (59 60) () 11 () () () 0 0)
21 'infoneq' 'mpi_constants' 'infoneq' 1 ((PROCEDURE UNKNOWN-INTENT
MODULE-PROC DECL UNKNOWN 0 0 FUNCTION IMPLICIT_PURE) (LOGICAL 4 0 0
LOGICAL ()) 61 0 (62 63) () 21 () () () 0 0)
6 'messageeq' 'mpi_constants' 'messageeq' 1 ((PROCEDURE UNKNOWN-INTENT
MODULE-PROC DECL UNKNOWN 0 0 FUNCTION IMPLICIT_PURE) (LOGICAL 4 0 0
LOGICAL ()) 64 0 (65 66) () 6 () () () 0 0)
16 'messageneq' 'mpi_constants' 'messageneq' 1 ((PROCEDURE
UNKNOWN-INTENT MODULE-PROC DECL UNKNOWN 0 0 FUNCTION IMPLICIT_PURE) (
LOGICAL 4 0 0 LOGICAL ()) 67 0 (68 69) () 16 () () () 0 0)
70 'mpi_2double_precision' 'mpi_constants' 'mpi_2double_precision' 1 ((
PARAMETER UNKNOWN-INTENT UNKNOWN-PROC UNKNOWN IMPLICIT-SAVE 0 0) (
INTEGER 4 0 0 INTEGER ()) 0 0 () (CONSTANT (INTEGER 4 0 0 INTEGER ()) 0
'1275072547') () 0 () () () 0 0)
71 'mpi_2int' 'mpi_constants' 'mpi_2int' 1 ((PARAMETER UNKNOWN-INTENT
UNKNOWN-PROC UNKNOWN IMPLICIT-SAVE 0 0) (INTEGER 4 0 0 INTEGER ()) 0 0 ()
(CONSTANT (INTEGER 4 0 0 INTEGER ()) 0 '1275070486') () 0 () () () 0 0)
72 'mpi_2integer' 'mpi_constants' 'mpi_2integer' 1 ((PARAMETER
UNKNOWN-INTENT UNKNOWN-PROC UNKNOWN IMPLICIT-SAVE 0 0) (INTEGER 4 0 0
INTEGER ()) 0 0 () (CONSTANT (INTEGER 4 0 0 INTEGER ()) 0 '1275070496')
() 0 () () () 0 0)
73 'mpi_2real' 'mpi_constants' 'mpi_2real' 1 ((PARAMETER UNKNOWN-INTENT
UNKNOWN-PROC UNKNOWN IMPLICIT-SAVE 0 0) (INTEGER 4 0 0 INTEGER ()) 0 0 ()
(CONSTANT (INTEGER 4 0 0 INTEGER ()) 0 '1275070497') () 0 () () () 0 0)
74 'mpi_address_kind' 'mpi_constants' 'mpi_address_kind' 1 ((PARAMETER
UNKNOWN-INTENT UNKNOWN-PROC UNKNOWN IMPLICIT-SAVE 0 0) (INTEGER 4 0 0
INTEGER ()) 0 0 () (CONSTANT (INTEGER 4 0 0 INTEGER ()) 0 '4') () 0 () ()
() 0 0)
75 'mpi_aint' 'mpi_constants' 'mpi_aint' 1 ((PARAMETER UNKNOWN-INTENT
UNKNOWN-PROC UNKNOWN IMPLICIT-SAVE 0 0) (INTEGER 4 0 0 INTEGER ()) 0 0 ()
(CONSTANT (INTEGER 4 0 0 INTEGER ()) 0 '1275069507') () 0 () () () 0 0)
76 'mpi_any_source' 'mpi_constants' 'mpi_any_source' 1 ((PARAMETER
UNKNOWN-INTENT UNKNOWN-PROC UNKNOWN IMPLICIT-SAVE 0 0) (INTEGER 4 0 0
INTEGER ()) 0 0 () (CONSTANT (INTEGER 4 0 0 INTEGER ()) 0 '-2') () 0 ()
() () 0 0)
77 'mpi_any_tag' 'mpi_constants' 'mpi_any_tag' 1 ((PARAMETER
UNKNOWN-INTENT UNKNOWN-PROC UNKNOWN IMPLICIT-SAVE 0 0) (INTEGER 4 0 0
INTEGER ()) 0 0 () (CONSTANT (INTEGER 4 0 0 INTEGER ()) 0 '-1') () 0 ()
() () 0 0)
78 'mpi_appnum' 'mpi_constants' 'mpi_appnum' 1 ((PARAMETER
UNKNOWN-INTENT UNKNOWN-PROC UNKNOWN IMPLICIT-SAVE 0 0) (INTEGER 4 0 0
INTEGER ()) 0 0 () (CONSTANT (INTEGER 4 0 0 INTEGER ()) 0 '1681915918')
() 0 () () () 0 0)
79 'mpi_argv_null' 'mpi_constants' 'mpi_argv_null' 1 ((VARIABLE
UNKNOWN-INTENT UNKNOWN-PROC UNKNOWN UNKNOWN 0 0 DIMENSION IN_COMMON) (
CHARACTER 1 0 0 CHARACTER ((CONSTANT (INTEGER 4 0 0 INTEGER ()) 0 '1')))
0 0 () (1 0 EXPLICIT (CONSTANT (INTEGER 4 0 0 INTEGER ()) 0 '1') (
CONSTANT (INTEGER 4 0 0 INTEGER ()) 0 '1')) 0 () () () 0 0)
26 'mpi_argvs_null' 'mpi_constants' 'mpi_argvs_null' 1 ((VARIABLE
UNKNOWN-INTENT UNKNOWN-PROC UNKNOWN UNKNOWN 0 0 DIMENSION IN_COMMON) (
CHARACTER 1 0 0 CHARACTER ((CONSTANT (INTEGER 4 0 0 INTEGER ()) 0 '1')))
0 79 () (2 0 EXPLICIT (CONSTANT (INTEGER 4 0 0 INTEGER ()) 0 '1') (
CONSTANT (INTEGER 4 0 0 INTEGER ()) 0 '1') (CONSTANT (INTEGER 4 0 0
INTEGER ()) 0 '1') (CONSTANT (INTEGER 4 0 0 INTEGER ()) 0 '1')) 0 () ()
() 0 0)
80 'mpi_async_protects_nonblocking' 'mpi_constants'
'mpi_async_protects_nonblocking' 1 ((PARAMETER UNKNOWN-INTENT
UNKNOWN-PROC UNKNOWN IMPLICIT-SAVE 0 0) (LOGICAL 4 0 0 LOGICAL ()) 0 0 ()
(CONSTANT (LOGICAL 4 0 0 LOGICAL ()) 0 0) () 0 () () () 0 0)
81 'mpi_band' 'mpi_constants' 'mpi_band' 1 ((PARAMETER UNKNOWN-INTENT
UNKNOWN-PROC UNKNOWN IMPLICIT-SAVE 0 0) (INTEGER 4 0 0 INTEGER ()) 0 0 ()
(CONSTANT (INTEGER 4 0 0 INTEGER ()) 0 '1476395014') () 0 () () () 0 0)
82 'mpi_bor' 'mpi_constants' 'mpi_bor' 1 ((PARAMETER UNKNOWN-INTENT
UNKNOWN-PROC UNKNOWN IMPLICIT-SAVE 0 0) (INTEGER 4 0 0 INTEGER ()) 0 0 ()
(CONSTANT (INTEGER 4 0 0 INTEGER ()) 0 '1476395016') () 0 () () () 0 0)
24 'mpi_bottom' 'mpi_constants' 'mpi_bottom' 1 ((VARIABLE UNKNOWN-INTENT
UNKNOWN-PROC UNKNOWN UNKNOWN 0 0 IN_COMMON) (INTEGER 4 0 0 INTEGER ()) 0
83 () () 0 () () () 0 0)
84 'mpi_bsend_overhead' 'mpi_constants' 'mpi_bsend_overhead' 1 ((
PARAMETER UNKNOWN-INTENT UNKNOWN-PROC UNKNOWN IMPLICIT-SAVE 0 0) (
INTEGER 4 0 0 INTEGER ()) 0 0 () (CONSTANT (INTEGER 4 0 0 INTEGER ()) 0
'56') () 0 () () () 0 0)
85 'mpi_bxor' 'mpi_constants' 'mpi_bxor' 1 ((PARAMETER UNKNOWN-INTENT
UNKNOWN-PROC UNKNOWN IMPLICIT-SAVE 0 0) (INTEGER 4 0 0 INTEGER ()) 0 0 ()
(CONSTANT (INTEGER 4 0 0 INTEGER ()) 0 '1476395018') () 0 () () () 0 0)
86 'mpi_byte' 'mpi_constants' 'mpi_byte' 1 ((PARAMETER UNKNOWN-INTENT
UNKNOWN-PROC UNKNOWN IMPLICIT-SAVE 0 0) (INTEGER 4 0 0 INTEGER ()) 0 0 ()
(CONSTANT (INTEGER 4 0 0 INTEGER ()) 0 '1275068685') () 0 () () () 0 0)
87 'mpi_c_bool' 'mpi_constants' 'mpi_c_bool' 1 ((PARAMETER
UNKNOWN-INTENT UNKNOWN-PROC UNKNOWN IMPLICIT-SAVE 0 0) (INTEGER 4 0 0
INTEGER ()) 0 0 () (CONSTANT (INTEGER 4 0 0 INTEGER ()) 0 '1275068735')
() 0 () () () 0 0)
88 'mpi_c_complex' 'mpi_constants' 'mpi_c_complex' 1 ((PARAMETER
UNKNOWN-INTENT UNKNOWN-PROC UNKNOWN IMPLICIT-SAVE 0 0) (INTEGER 4 0 0
INTEGER ()) 0 0 () (CONSTANT (INTEGER 4 0 0 INTEGER ()) 0 '1275070528')
() 0 () () () 0 0)
89 'mpi_c_double_complex' 'mpi_constants' 'mpi_c_double_complex' 1 ((
PARAMETER UNKNOWN-INTENT UNKNOWN-PROC UNKNOWN IMPLICIT-SAVE 0 0) (
INTEGER 4 0 0 INTEGER ()) 0 0 () (CONSTANT (INTEGER 4 0 0 INTEGER ()) 0
'1275072577') () 0 () () () 0 0)
90 'mpi_c_float_complex' 'mpi_constants' 'mpi_c_float_complex' 1 ((
PARAMETER UNKNOWN-INTENT UNKNOWN-PROC UNKNOWN IMPLICIT-SAVE 0 0) (
INTEGER 4 0 0 INTEGER ()) 0 0 () (CONSTANT (INTEGER 4 0 0 INTEGER ()) 0
'1275070528') () 0 () () () 0 0)
91 'mpi_c_long_double_complex' 'mpi_constants' 'mpi_c_long_double_complex'
1 ((PARAMETER UNKNOWN-INTENT UNKNOWN-PROC UNKNOWN IMPLICIT-SAVE 0 0) (
INTEGER 4 0 0 INTEGER ()) 0 0 () (CONSTANT (INTEGER 4 0 0 INTEGER ()) 0
'1275072578') () 0 () () () 0 0)
92 'mpi_cart' 'mpi_constants' 'mpi_cart' 1 ((PARAMETER UNKNOWN-INTENT
UNKNOWN-PROC UNKNOWN IMPLICIT-SAVE 0 0) (INTEGER 4 0 0 INTEGER ()) 0 0 ()
(CONSTANT (INTEGER 4 0 0 INTEGER ()) 0 '2') () 0 () () () 0 0)
93 'mpi_char' 'mpi_constants' 'mpi_char' 1 ((PARAMETER UNKNOWN-INTENT
UNKNOWN-PROC UNKNOWN IMPLICIT-SAVE 0 0) (INTEGER 4 0 0 INTEGER ()) 0 0 ()
(CONSTANT (INTEGER 4 0 0 INTEGER ()) 0 '1275068673') () 0 () () () 0 0)
94 'mpi_character' 'mpi_constants' 'mpi_character' 1 ((PARAMETER
UNKNOWN-INTENT UNKNOWN-PROC UNKNOWN IMPLICIT-SAVE 0 0) (INTEGER 4 0 0
INTEGER ()) 0 0 () (CONSTANT (INTEGER 4 0 0 INTEGER ()) 0 '1275068698')
() 0 () () () 0 0)
95 'mpi_combiner_contiguous' 'mpi_constants' 'mpi_combiner_contiguous' 1
((PARAMETER UNKNOWN-INTENT UNKNOWN-PROC UNKNOWN IMPLICIT-SAVE 0 0) (
INTEGER 4 0 0 INTEGER ()) 0 0 () (CONSTANT (INTEGER 4 0 0 INTEGER ()) 0
'3') () 0 () () () 0 0)
96 'mpi_combiner_darray' 'mpi_constants' 'mpi_combiner_darray' 1 ((
PARAMETER UNKNOWN-INTENT UNKNOWN-PROC UNKNOWN IMPLICIT-SAVE 0 0) (
INTEGER 4 0 0 INTEGER ()) 0 0 () (CONSTANT (INTEGER 4 0 0 INTEGER ()) 0
'14') () 0 () () () 0 0)
97 'mpi_combiner_dup' 'mpi_constants' 'mpi_combiner_dup' 1 ((PARAMETER
UNKNOWN-INTENT UNKNOWN-PROC UNKNOWN IMPLICIT-SAVE 0 0) (INTEGER 4 0 0
INTEGER ()) 0 0 () (CONSTANT (INTEGER 4 0 0 INTEGER ()) 0 '2') () 0 () ()
() 0 0)
98 'mpi_combiner_f90_complex' 'mpi_constants' 'mpi_combiner_f90_complex'
1 ((PARAMETER UNKNOWN-INTENT UNKNOWN-PROC UNKNOWN IMPLICIT-SAVE 0 0) (
INTEGER 4 0 0 INTEGER ()) 0 0 () (CONSTANT (INTEGER 4 0 0 INTEGER ()) 0
'16') () 0 () () () 0 0)
99 'mpi_combiner_f90_integer' 'mpi_constants' 'mpi_combiner_f90_integer'
1 ((PARAMETER UNKNOWN-INTENT UNKNOWN-PROC UNKNOWN IMPLICIT-SAVE 0 0) (
INTEGER 4 0 0 INTEGER ()) 0 0 () (CONSTANT (INTEGER 4 0 0 INTEGER ()) 0
'17') () 0 () () () 0 0)
100 'mpi_combiner_f90_real' 'mpi_constants' 'mpi_combiner_f90_real' 1 (
(PARAMETER UNKNOWN-INTENT UNKNOWN-PROC UNKNOWN IMPLICIT-SAVE 0 0) (
INTEGER 4 0 0 INTEGER ()) 0 0 () (CONSTANT (INTEGER 4 0 0 INTEGER ()) 0
'15') () 0 () () () 0 0)
101 'mpi_combiner_hindexed' 'mpi_constants' 'mpi_combiner_hindexed' 1 (
(PARAMETER UNKNOWN-INTENT UNKNOWN-PROC UNKNOWN IMPLICIT-SAVE 0 0) (
INTEGER 4 0 0 INTEGER ()) 0 0 () (CONSTANT (INTEGER 4 0 0 INTEGER ()) 0
'9') () 0 () () () 0 0)
102 'mpi_combiner_hindexed_block' 'mpi_constants'
'mpi_combiner_hindexed_block' 1 ((PARAMETER UNKNOWN-INTENT UNKNOWN-PROC
UNKNOWN IMPLICIT-SAVE 0 0) (INTEGER 4 0 0 INTEGER ()) 0 0 () (CONSTANT (
INTEGER 4 0 0 INTEGER ()) 0 '19') () 0 () () () 0 0)
103 'mpi_combiner_hindexed_integer' 'mpi_constants'
'mpi_combiner_hindexed_integer' 1 ((PARAMETER UNKNOWN-INTENT
UNKNOWN-PROC UNKNOWN IMPLICIT-SAVE 0 0) (INTEGER 4 0 0 INTEGER ()) 0 0 ()
(CONSTANT (INTEGER 4 0 0 INTEGER ()) 0 '8') () 0 () () () 0 0)
104 'mpi_combiner_hvector' 'mpi_constants' 'mpi_combiner_hvector' 1 ((
PARAMETER UNKNOWN-INTENT UNKNOWN-PROC UNKNOWN IMPLICIT-SAVE 0 0) (
INTEGER 4 0 0 INTEGER ()) 0 0 () (CONSTANT (INTEGER 4 0 0 INTEGER ()) 0
'6') () 0 () () () 0 0)
105 'mpi_combiner_hvector_integer' 'mpi_constants'
'mpi_combiner_hvector_integer' 1 ((PARAMETER UNKNOWN-INTENT UNKNOWN-PROC
UNKNOWN IMPLICIT-SAVE 0 0) (INTEGER 4 0 0 INTEGER ()) 0 0 () (CONSTANT (
INTEGER 4 0 0 INTEGER ()) 0 '5') () 0 () () () 0 0)
106 'mpi_combiner_indexed' 'mpi_constants' 'mpi_combiner_indexed' 1 ((
PARAMETER UNKNOWN-INTENT UNKNOWN-PROC UNKNOWN IMPLICIT-SAVE 0 0) (
INTEGER 4 0 0 INTEGER ()) 0 0 () (CONSTANT (INTEGER 4 0 0 INTEGER ()) 0
'7') () 0 () () () 0 0)
107 'mpi_combiner_indexed_block' 'mpi_constants'
'mpi_combiner_indexed_block' 1 ((PARAMETER UNKNOWN-INTENT UNKNOWN-PROC
UNKNOWN IMPLICIT-SAVE 0 0) (INTEGER 4 0 0 INTEGER ()) 0 0 () (CONSTANT (
INTEGER 4 0 0 INTEGER ()) 0 '10') () 0 () () () 0 0)
108 'mpi_combiner_named' 'mpi_constants' 'mpi_combiner_named' 1 ((
PARAMETER UNKNOWN-INTENT UNKNOWN-PROC UNKNOWN IMPLICIT-SAVE 0 0) (
INTEGER 4 0 0 INTEGER ()) 0 0 () (CONSTANT (INTEGER 4 0 0 INTEGER ()) 0
'1') () 0 () () () 0 0)
109 'mpi_combiner_resized' 'mpi_constants' 'mpi_combiner_resized' 1 ((
PARAMETER UNKNOWN-INTENT UNKNOWN-PROC UNKNOWN IMPLICIT-SAVE 0 0) (
INTEGER 4 0 0 INTEGER ()) 0 0 () (CONSTANT (INTEGER 4 0 0 INTEGER ()) 0
'18') () 0 () () () 0 0)
110 'mpi_combiner_struct' 'mpi_constants' 'mpi_combiner_struct' 1 ((
PARAMETER UNKNOWN-INTENT UNKNOWN-PROC UNKNOWN IMPLICIT-SAVE 0 0) (
INTEGER 4 0 0 INTEGER ()) 0 0 () (CONSTANT (INTEGER 4 0 0 INTEGER ()) 0
'12') () 0 () () () 0 0)
111 'mpi_combiner_struct_integer' 'mpi_constants'
'mpi_combiner_struct_integer' 1 ((PARAMETER UNKNOWN-INTENT UNKNOWN-PROC
UNKNOWN IMPLICIT-SAVE 0 0) (INTEGER 4 0 0 INTEGER ()) 0 0 () (CONSTANT (
INTEGER 4 0 0 INTEGER ()) 0 '11') () 0 () () () 0 0)
112 'mpi_combiner_subarray' 'mpi_constants' 'mpi_combiner_subarray' 1 (
(PARAMETER UNKNOWN-INTENT UNKNOWN-PROC UNKNOWN IMPLICIT-SAVE 0 0) (
INTEGER 4 0 0 INTEGER ()) 0 0 () (CONSTANT (INTEGER 4 0 0 INTEGER ()) 0
'13') () 0 () () () 0 0)
113 'mpi_combiner_vector' 'mpi_constants' 'mpi_combiner_vector' 1 ((
PARAMETER UNKNOWN-INTENT UNKNOWN-PROC UNKNOWN IMPLICIT-SAVE 0 0) (
INTEGER 4 0 0 INTEGER ()) 0 0 () (CONSTANT (INTEGER 4 0 0 INTEGER ()) 0
'4') () 0 () () () 0 0)
114 'mpi_comm' 'mpi_constants' 'mpi_comm' 1 ((DERIVED UNKNOWN-INTENT
UNKNOWN-PROC UNKNOWN UNKNOWN 0 0 SEQUENCE) (UNKNOWN 0 0 0 UNKNOWN ()) 0
0 () () 0 ((115 'mpi_val' (INTEGER 4 0 0 INTEGER ()) () (UNKNOWN-FL
UNKNOWN-INTENT UNKNOWN-PROC UNKNOWN UNKNOWN 0 0) UNKNOWN-ACCESS ()))
PUBLIC (() () () ()) () 0 0 41315982)
116 'mpi_comm_null' 'mpi_constants' 'mpi_comm_null' 1 ((PARAMETER
UNKNOWN-INTENT UNKNOWN-PROC UNKNOWN IMPLICIT-SAVE 0 0) (INTEGER 4 0 0
INTEGER ()) 0 0 () (CONSTANT (INTEGER 4 0 0 INTEGER ()) 0 '67108864') ()
0 () () () 0 0)
117 'mpi_comm_self' 'mpi_constants' 'mpi_comm_self' 1 ((PARAMETER
UNKNOWN-INTENT UNKNOWN-PROC UNKNOWN IMPLICIT-SAVE 0 0) (INTEGER 4 0 0
INTEGER ()) 0 0 () (CONSTANT (INTEGER 4 0 0 INTEGER ()) 0 '1140850689')
() 0 () () () 0 0)
118 'mpi_comm_type_shared' 'mpi_constants' 'mpi_comm_type_shared' 1 ((
PARAMETER UNKNOWN-INTENT UNKNOWN-PROC UNKNOWN IMPLICIT-SAVE 0 0) (
INTEGER 4 0 0 INTEGER ()) 0 0 () (CONSTANT (INTEGER 4 0 0 INTEGER ()) 0
'1') () 0 () () () 0 0)
119 'mpi_comm_world' 'mpi_constants' 'mpi_comm_world' 1 ((PARAMETER
UNKNOWN-INTENT UNKNOWN-PROC UNKNOWN IMPLICIT-SAVE 0 0) (INTEGER 4 0 0
INTEGER ()) 0 0 () (CONSTANT (INTEGER 4 0 0 INTEGER ()) 0 '1140850688')
() 0 () () () 0 0)
120 'mpi_complex' 'mpi_constants' 'mpi_complex' 1 ((PARAMETER
UNKNOWN-INTENT UNKNOWN-PROC UNKNOWN IMPLICIT-SAVE 0 0) (INTEGER 4 0 0
INTEGER ()) 0 0 () (CONSTANT (INTEGER 4 0 0 INTEGER ()) 0 '1275070494')
() 0 () () () 0 0)
121 'mpi_complex16' 'mpi_constants' 'mpi_complex16' 1 ((PARAMETER
UNKNOWN-INTENT UNKNOWN-PROC UNKNOWN IMPLICIT-SAVE 0 0) (INTEGER 4 0 0
INTEGER ()) 0 0 () (CONSTANT (INTEGER 4 0 0 INTEGER ()) 0 '1275072554')
() 0 () () () 0 0)
122 'mpi_complex32' 'mpi_constants' 'mpi_complex32' 1 ((PARAMETER
UNKNOWN-INTENT UNKNOWN-PROC UNKNOWN IMPLICIT-SAVE 0 0) (INTEGER 4 0 0
INTEGER ()) 0 0 () (CONSTANT (INTEGER 4 0 0 INTEGER ()) 0 '201326592') ()
0 () () () 0 0)
123 'mpi_complex8' 'mpi_constants' 'mpi_complex8' 1 ((PARAMETER
UNKNOWN-INTENT UNKNOWN-PROC UNKNOWN IMPLICIT-SAVE 0 0) (INTEGER 4 0 0
INTEGER ()) 0 0 () (CONSTANT (INTEGER 4 0 0 INTEGER ()) 0 '1275070504')
() 0 () () () 0 0)
124 'mpi_congruent' 'mpi_constants' 'mpi_congruent' 1 ((PARAMETER
UNKNOWN-INTENT UNKNOWN-PROC UNKNOWN IMPLICIT-SAVE 0 0) (INTEGER 4 0 0
INTEGER ()) 0 0 () (CONSTANT (INTEGER 4 0 0 INTEGER ()) 0 '1') () 0 () ()
() 0 0)
125 'mpi_constants' 'mpi_constants' 'mpi_constants' 1 ((MODULE
UNKNOWN-INTENT UNKNOWN-PROC UNKNOWN UNKNOWN 0 0) (UNKNOWN 0 0 0 UNKNOWN
()) 0 0 () () 0 () () () 0 0)
126 'mpi_count' 'mpi_constants' 'mpi_count' 1 ((PARAMETER UNKNOWN-INTENT
UNKNOWN-PROC UNKNOWN IMPLICIT-SAVE 0 0) (INTEGER 4 0 0 INTEGER ()) 0 0 ()
(CONSTANT (INTEGER 4 0 0 INTEGER ()) 0 '1275070533') () 0 () () () 0 0)
127 'mpi_count_kind' 'mpi_constants' 'mpi_count_kind' 1 ((PARAMETER
UNKNOWN-INTENT UNKNOWN-PROC UNKNOWN IMPLICIT-SAVE 0 0) (INTEGER 4 0 0
INTEGER ()) 0 0 () (CONSTANT (INTEGER 4 0 0 INTEGER ()) 0 '8') () 0 () ()
() 0 0)
128 'mpi_cxx_bool' 'mpi_constants' 'mpi_cxx_bool' 1 ((PARAMETER
UNKNOWN-INTENT UNKNOWN-PROC UNKNOWN IMPLICIT-SAVE 0 0) (INTEGER 4 0 0
INTEGER ()) 0 0 () (CONSTANT (INTEGER 4 0 0 INTEGER ()) 0 '1275068723')
() 0 () () () 0 0)
129 'mpi_cxx_double_complex' 'mpi_constants' 'mpi_cxx_double_complex' 1
((PARAMETER UNKNOWN-INTENT UNKNOWN-PROC UNKNOWN IMPLICIT-SAVE 0 0) (
INTEGER 4 0 0 INTEGER ()) 0 0 () (CONSTANT (INTEGER 4 0 0 INTEGER ()) 0
'1275072565') () 0 () () () 0 0)
130 'mpi_cxx_float_complex' 'mpi_constants' 'mpi_cxx_float_complex' 1 (
(PARAMETER UNKNOWN-INTENT UNKNOWN-PROC UNKNOWN IMPLICIT-SAVE 0 0) (
INTEGER 4 0 0 INTEGER ()) 0 0 () (CONSTANT (INTEGER 4 0 0 INTEGER ()) 0
'1275070516') () 0 () () () 0 0)
131 'mpi_cxx_long_double_complex' 'mpi_constants'
'mpi_cxx_long_double_complex' 1 ((PARAMETER UNKNOWN-INTENT UNKNOWN-PROC
UNKNOWN IMPLICIT-SAVE 0 0) (INTEGER 4 0 0 INTEGER ()) 0 0 () (CONSTANT (
INTEGER 4 0 0 INTEGER ()) 0 '1275072566') () 0 () () () 0 0)
132 'mpi_datatype' 'mpi_constants' 'mpi_datatype' 1 ((DERIVED
UNKNOWN-INTENT UNKNOWN-PROC UNKNOWN UNKNOWN 0 0 SEQUENCE) (UNKNOWN 0 0 0
UNKNOWN ()) 0 0 () () 0 ((133 'mpi_val' (INTEGER 4 0 0 INTEGER ()) () (
UNKNOWN-FL UNKNOWN-INTENT UNKNOWN-PROC UNKNOWN UNKNOWN 0 0)
UNKNOWN-ACCESS ())) PUBLIC (() () () ()) () 0 0 48485222)
134 'mpi_datatype_null' 'mpi_constants' 'mpi_datatype_null' 1 ((
PARAMETER UNKNOWN-INTENT UNKNOWN-PROC UNKNOWN IMPLICIT-SAVE 0 0) (
INTEGER 4 0 0 INTEGER ()) 0 0 () (CONSTANT (INTEGER 4 0 0 INTEGER ()) 0
'201326592') () 0 () () () 0 0)
135 'mpi_displacement_current' 'mpi_constants' 'mpi_displacement_current'
1 ((PARAMETER UNKNOWN-INTENT UNKNOWN-PROC UNKNOWN IMPLICIT-SAVE 0 0) (
INTEGER 8 0 0 INTEGER ()) 0 0 () (CONSTANT (INTEGER 8 0 0 INTEGER ()) 0
'-54278278') () 0 () () () 0 0)
136 'mpi_dist_graph' 'mpi_constants' 'mpi_dist_graph' 1 ((PARAMETER
UNKNOWN-INTENT UNKNOWN-PROC UNKNOWN IMPLICIT-SAVE 0 0) (INTEGER 4 0 0
INTEGER ()) 0 0 () (CONSTANT (INTEGER 4 0 0 INTEGER ()) 0 '3') () 0 () ()
() 0 0)
137 'mpi_distribute_block' 'mpi_constants' 'mpi_distribute_block' 1 ((
PARAMETER UNKNOWN-INTENT UNKNOWN-PROC UNKNOWN IMPLICIT-SAVE 0 0) (
INTEGER 4 0 0 INTEGER ()) 0 0 () (CONSTANT (INTEGER 4 0 0 INTEGER ()) 0
'121') () 0 () () () 0 0)
138 'mpi_distribute_cyclic' 'mpi_constants' 'mpi_distribute_cyclic' 1 (
(PARAMETER UNKNOWN-INTENT UNKNOWN-PROC UNKNOWN IMPLICIT-SAVE 0 0) (
INTEGER 4 0 0 INTEGER ()) 0 0 () (CONSTANT (INTEGER 4 0 0 INTEGER ()) 0
'122') () 0 () () () 0 0)
139 'mpi_distribute_dflt_darg' 'mpi_constants' 'mpi_distribute_dflt_darg'
1 ((PARAMETER UNKNOWN-INTENT UNKNOWN-PROC UNKNOWN IMPLICIT-SAVE 0 0) (
INTEGER 4 0 0 INTEGER ()) 0 0 () (CONSTANT (INTEGER 4 0 0 INTEGER ()) 0
'-49767') () 0 () () () 0 0)
140 'mpi_distribute_none' 'mpi_constants' 'mpi_distribute_none' 1 ((
PARAMETER UNKNOWN-INTENT UNKNOWN-PROC UNKNOWN IMPLICIT-SAVE 0 0) (
INTEGER 4 0 0 INTEGER ()) 0 0 () (CONSTANT (INTEGER 4 0 0 INTEGER ()) 0
'123') () 0 () () () 0 0)
141 'mpi_double' 'mpi_constants' 'mpi_double' 1 ((PARAMETER
UNKNOWN-INTENT UNKNOWN-PROC UNKNOWN IMPLICIT-SAVE 0 0) (INTEGER 4 0 0
INTEGER ()) 0 0 () (CONSTANT (INTEGER 4 0 0 INTEGER ()) 0 '1275070475')
() 0 () () () 0 0)
142 'mpi_double_complex' 'mpi_constants' 'mpi_double_complex' 1 ((
PARAMETER UNKNOWN-INTENT UNKNOWN-PROC UNKNOWN IMPLICIT-SAVE 0 0) (
INTEGER 4 0 0 INTEGER ()) 0 0 () (CONSTANT (INTEGER 4 0 0 INTEGER ()) 0
'1275072546') () 0 () () () 0 0)
143 'mpi_double_int' 'mpi_constants' 'mpi_double_int' 1 ((PARAMETER
UNKNOWN-INTENT UNKNOWN-PROC UNKNOWN IMPLICIT-SAVE 0 0) (INTEGER 4 0 0
INTEGER ()) 0 0 () (CONSTANT (INTEGER 4 0 0 INTEGER ()) 0 '-1946157055')
() 0 () () () 0 0)
144 'mpi_double_precision' 'mpi_constants' 'mpi_double_precision' 1 ((
PARAMETER UNKNOWN-INTENT UNKNOWN-PROC UNKNOWN IMPLICIT-SAVE 0 0) (
INTEGER 4 0 0 INTEGER ()) 0 0 () (CONSTANT (INTEGER 4 0 0 INTEGER ()) 0
'1275070495') () 0 () () () 0 0)
145 'mpi_err_access' 'mpi_constants' 'mpi_err_access' 1 ((PARAMETER
UNKNOWN-INTENT UNKNOWN-PROC UNKNOWN IMPLICIT-SAVE 0 0) (INTEGER 4 0 0
INTEGER ()) 0 0 () (CONSTANT (INTEGER 4 0 0 INTEGER ()) 0 '20') () 0 ()
() () 0 0)
146 'mpi_err_amode' 'mpi_constants' 'mpi_err_amode' 1 ((PARAMETER
UNKNOWN-INTENT UNKNOWN-PROC UNKNOWN IMPLICIT-SAVE 0 0) (INTEGER 4 0 0
INTEGER ()) 0 0 () (CONSTANT (INTEGER 4 0 0 INTEGER ()) 0 '21') () 0 ()
() () 0 0)
147 'mpi_err_arg' 'mpi_constants' 'mpi_err_arg' 1 ((PARAMETER
UNKNOWN-INTENT UNKNOWN-PROC UNKNOWN IMPLICIT-SAVE 0 0) (INTEGER 4 0 0
INTEGER ()) 0 0 () (CONSTANT (INTEGER 4 0 0 INTEGER ()) 0 '12') () 0 ()
() () 0 0)
148 'mpi_err_assert' 'mpi_constants' 'mpi_err_assert' 1 ((PARAMETER
UNKNOWN-INTENT UNKNOWN-PROC UNKNOWN IMPLICIT-SAVE 0 0) (INTEGER 4 0 0
INTEGER ()) 0 0 () (CONSTANT (INTEGER 4 0 0 INTEGER ()) 0 '53') () 0 ()
() () 0 0)
149 'mpi_err_bad_file' 'mpi_constants' 'mpi_err_bad_file' 1 ((PARAMETER
UNKNOWN-INTENT UNKNOWN-PROC UNKNOWN IMPLICIT-SAVE 0 0) (INTEGER 4 0 0
INTEGER ()) 0 0 () (CONSTANT (INTEGER 4 0 0 INTEGER ()) 0 '22') () 0 ()
() () 0 0)
150 'mpi_err_base' 'mpi_constants' 'mpi_err_base' 1 ((PARAMETER
UNKNOWN-INTENT UNKNOWN-PROC UNKNOWN IMPLICIT-SAVE 0 0) (INTEGER 4 0 0
INTEGER ()) 0 0 () (CONSTANT (INTEGER 4 0 0 INTEGER ()) 0 '46') () 0 ()
() () 0 0)
151 'mpi_err_buffer' 'mpi_constants' 'mpi_err_buffer' 1 ((PARAMETER
UNKNOWN-INTENT UNKNOWN-PROC UNKNOWN IMPLICIT-SAVE 0 0) (INTEGER 4 0 0
INTEGER ()) 0 0 () (CONSTANT (INTEGER 4 0 0 INTEGER ()) 0 '1') () 0 () ()
() 0 0)
152 'mpi_err_comm' 'mpi_constants' 'mpi_err_comm' 1 ((PARAMETER
UNKNOWN-INTENT UNKNOWN-PROC UNKNOWN IMPLICIT-SAVE 0 0) (INTEGER 4 0 0
INTEGER ()) 0 0 () (CONSTANT (INTEGER 4 0 0 INTEGER ()) 0 '5') () 0 () ()
() 0 0)
153 'mpi_err_conversion' 'mpi_constants' 'mpi_err_conversion' 1 ((
PARAMETER UNKNOWN-INTENT UNKNOWN-PROC UNKNOWN IMPLICIT-SAVE 0 0) (
INTEGER 4 0 0 INTEGER ()) 0 0 () (CONSTANT (INTEGER 4 0 0 INTEGER ()) 0
'23') () 0 () () () 0 0)
154 'mpi_err_count' 'mpi_constants' 'mpi_err_count' 1 ((PARAMETER
UNKNOWN-INTENT UNKNOWN-PROC UNKNOWN IMPLICIT-SAVE 0 0) (INTEGER 4 0 0
INTEGER ()) 0 0 () (CONSTANT (INTEGER 4 0 0 INTEGER ()) 0 '2') () 0 () ()
() 0 0)
155 'mpi_err_dims' 'mpi_constants' 'mpi_err_dims' 1 ((PARAMETER
UNKNOWN-INTENT UNKNOWN-PROC UNKNOWN IMPLICIT-SAVE 0 0) (INTEGER 4 0 0
INTEGER ()) 0 0 () (CONSTANT (INTEGER 4 0 0 INTEGER ()) 0 '11') () 0 ()
() () 0 0)
156 'mpi_err_disp' 'mpi_constants' 'mpi_err_disp' 1 ((PARAMETER
UNKNOWN-INTENT UNKNOWN-PROC UNKNOWN IMPLICIT-SAVE 0 0) (INTEGER 4 0 0
INTEGER ()) 0 0 () (CONSTANT (INTEGER 4 0 0 INTEGER ()) 0 '52') () 0 ()
() () 0 0)
157 'mpi_err_dup_datarep' 'mpi_constants' 'mpi_err_dup_datarep' 1 ((
PARAMETER UNKNOWN-INTENT UNKNOWN-PROC UNKNOWN IMPLICIT-SAVE 0 0) (
INTEGER 4 0 0 INTEGER ()) 0 0 () (CONSTANT (INTEGER 4 0 0 INTEGER ()) 0
'24') () 0 () () () 0 0)
158 'mpi_err_file' 'mpi_constants' 'mpi_err_file' 1 ((PARAMETER
UNKNOWN-INTENT UNKNOWN-PROC UNKNOWN IMPLICIT-SAVE 0 0) (INTEGER 4 0 0
INTEGER ()) 0 0 () (CONSTANT (INTEGER 4 0 0 INTEGER ()) 0 '27') () 0 ()
() () 0 0)
159 'mpi_err_file_exists' 'mpi_constants' 'mpi_err_file_exists' 1 ((
PARAMETER UNKNOWN-INTENT UNKNOWN-PROC UNKNOWN IMPLICIT-SAVE 0 0) (
INTEGER 4 0 0 INTEGER ()) 0 0 () (CONSTANT (INTEGER 4 0 0 INTEGER ()) 0
'25') () 0 () () () 0 0)
160 'mpi_err_file_in_use' 'mpi_constants' 'mpi_err_file_in_use' 1 ((
PARAMETER UNKNOWN-INTENT UNKNOWN-PROC UNKNOWN IMPLICIT-SAVE 0 0) (
INTEGER 4 0 0 INTEGER ()) 0 0 () (CONSTANT (INTEGER 4 0 0 INTEGER ()) 0
'26') () 0 () () () 0 0)
161 'mpi_err_group' 'mpi_constants' 'mpi_err_group' 1 ((PARAMETER
UNKNOWN-INTENT UNKNOWN-PROC UNKNOWN IMPLICIT-SAVE 0 0) (INTEGER 4 0 0
INTEGER ()) 0 0 () (CONSTANT (INTEGER 4 0 0 INTEGER ()) 0 '8') () 0 () ()
() 0 0)
162 'mpi_err_in_status' 'mpi_constants' 'mpi_err_in_status' 1 ((
PARAMETER UNKNOWN-INTENT UNKNOWN-PROC UNKNOWN IMPLICIT-SAVE 0 0) (
INTEGER 4 0 0 INTEGER ()) 0 0 () (CONSTANT (INTEGER 4 0 0 INTEGER ()) 0
'17') () 0 () () () 0 0)
163 'mpi_err_info' 'mpi_constants' 'mpi_err_info' 1 ((PARAMETER
UNKNOWN-INTENT UNKNOWN-PROC UNKNOWN IMPLICIT-SAVE 0 0) (INTEGER 4 0 0
INTEGER ()) 0 0 () (CONSTANT (INTEGER 4 0 0 INTEGER ()) 0 '28') () 0 ()
() () 0 0)
164 'mpi_err_info_key' 'mpi_constants' 'mpi_err_info_key' 1 ((PARAMETER
UNKNOWN-INTENT UNKNOWN-PROC UNKNOWN IMPLICIT-SAVE 0 0) (INTEGER 4 0 0
INTEGER ()) 0 0 () (CONSTANT (INTEGER 4 0 0 INTEGER ()) 0 '29') () 0 ()
() () 0 0)
165 'mpi_err_info_nokey' 'mpi_constants' 'mpi_err_info_nokey' 1 ((
PARAMETER UNKNOWN-INTENT UNKNOWN-PROC UNKNOWN IMPLICIT-SAVE 0 0) (
INTEGER 4 0 0 INTEGER ()) 0 0 () (CONSTANT (INTEGER 4 0 0 INTEGER ()) 0
'31') () 0 () () () 0 0)
166 'mpi_err_info_value' 'mpi_constants' 'mpi_err_info_value' 1 ((
PARAMETER UNKNOWN-INTENT UNKNOWN-PROC UNKNOWN IMPLICIT-SAVE 0 0) (
INTEGER 4 0 0 INTEGER ()) 0 0 () (CONSTANT (INTEGER 4 0 0 INTEGER ()) 0
'30') () 0 () () () 0 0)
167 'mpi_err_intern' 'mpi_constants' 'mpi_err_intern' 1 ((PARAMETER
UNKNOWN-INTENT UNKNOWN-PROC UNKNOWN IMPLICIT-SAVE 0 0) (INTEGER 4 0 0
INTEGER ()) 0 0 () (CONSTANT (INTEGER 4 0 0 INTEGER ()) 0 '16') () 0 ()
() () 0 0)
168 'mpi_err_io' 'mpi_constants' 'mpi_err_io' 1 ((PARAMETER
UNKNOWN-INTENT UNKNOWN-PROC UNKNOWN IMPLICIT-SAVE 0 0) (INTEGER 4 0 0
INTEGER ()) 0 0 () (CONSTANT (INTEGER 4 0 0 INTEGER ()) 0 '32') () 0 ()
() () 0 0)
169 'mpi_err_keyval' 'mpi_constants' 'mpi_err_keyval' 1 ((PARAMETER
UNKNOWN-INTENT UNKNOWN-PROC UNKNOWN IMPLICIT-SAVE 0 0) (INTEGER 4 0 0
INTEGER ()) 0 0 () (CONSTANT (INTEGER 4 0 0 INTEGER ()) 0 '48') () 0 ()
() () 0 0)
170 'mpi_err_lastcode' 'mpi_constants' 'mpi_err_lastcode' 1 ((PARAMETER
UNKNOWN-INTENT UNKNOWN-PROC UNKNOWN IMPLICIT-SAVE 0 0) (INTEGER 4 0 0
INTEGER ()) 0 0 () (CONSTANT (INTEGER 4 0 0 INTEGER ()) 0 '1073741823')
() 0 () () () 0 0)
171 'mpi_err_locktype' 'mpi_constants' 'mpi_err_locktype' 1 ((PARAMETER
UNKNOWN-INTENT UNKNOWN-PROC UNKNOWN IMPLICIT-SAVE 0 0) (INTEGER 4 0 0
INTEGER ()) 0 0 () (CONSTANT (INTEGER 4 0 0 INTEGER ()) 0 '47') () 0 ()
() () 0 0)
172 'mpi_err_name' 'mpi_constants' 'mpi_err_name' 1 ((PARAMETER
UNKNOWN-INTENT UNKNOWN-PROC UNKNOWN IMPLICIT-SAVE 0 0) (INTEGER 4 0 0
INTEGER ()) 0 0 () (CONSTANT (INTEGER 4 0 0 INTEGER ()) 0 '33') () 0 ()
() () 0 0)
173 'mpi_err_no_mem' 'mpi_constants' 'mpi_err_no_mem' 1 ((PARAMETER
UNKNOWN-INTENT UNKNOWN-PROC UNKNOWN IMPLICIT-SAVE 0 0) (INTEGER 4 0 0
INTEGER ()) 0 0 () (CONSTANT (INTEGER 4 0 0 INTEGER ()) 0 '34') () 0 ()
() () 0 0)
174 'mpi_err_no_space' 'mpi_constants' 'mpi_err_no_space' 1 ((PARAMETER
UNKNOWN-INTENT UNKNOWN-PROC UNKNOWN IMPLICIT-SAVE 0 0) (INTEGER 4 0 0
INTEGER ()) 0 0 () (CONSTANT (INTEGER 4 0 0 INTEGER ()) 0 '36') () 0 ()
() () 0 0)
175 'mpi_err_no_such_file' 'mpi_constants' 'mpi_err_no_such_file' 1 ((
PARAMETER UNKNOWN-INTENT UNKNOWN-PROC UNKNOWN IMPLICIT-SAVE 0 0) (
INTEGER 4 0 0 INTEGER ()) 0 0 () (CONSTANT (INTEGER 4 0 0 INTEGER ()) 0
'37') () 0 () () () 0 0)
176 'mpi_err_not_same' 'mpi_constants' 'mpi_err_not_same' 1 ((PARAMETER
UNKNOWN-INTENT UNKNOWN-PROC UNKNOWN IMPLICIT-SAVE 0 0) (INTEGER 4 0 0
INTEGER ()) 0 0 () (CONSTANT (INTEGER 4 0 0 INTEGER ()) 0 '35') () 0 ()
() () 0 0)
177 'mpi_err_op' 'mpi_constants' 'mpi_err_op' 1 ((PARAMETER
UNKNOWN-INTENT UNKNOWN-PROC UNKNOWN IMPLICIT-SAVE 0 0) (INTEGER 4 0 0
INTEGER ()) 0 0 () (CONSTANT (INTEGER 4 0 0 INTEGER ()) 0 '9') () 0 () ()
() 0 0)
178 'mpi_err_other' 'mpi_constants' 'mpi_err_other' 1 ((PARAMETER
UNKNOWN-INTENT UNKNOWN-PROC UNKNOWN IMPLICIT-SAVE 0 0) (INTEGER 4 0 0
INTEGER ()) 0 0 () (CONSTANT (INTEGER 4 0 0 INTEGER ()) 0 '15') () 0 ()
() () 0 0)
179 'mpi_err_pending' 'mpi_constants' 'mpi_err_pending' 1 ((PARAMETER
UNKNOWN-INTENT UNKNOWN-PROC UNKNOWN IMPLICIT-SAVE 0 0) (INTEGER 4 0 0
INTEGER ()) 0 0 () (CONSTANT (INTEGER 4 0 0 INTEGER ()) 0 '18') () 0 ()
() () 0 0)
180 'mpi_err_port' 'mpi_constants' 'mpi_err_port' 1 ((PARAMETER
UNKNOWN-INTENT UNKNOWN-PROC UNKNOWN IMPLICIT-SAVE 0 0) (INTEGER 4 0 0
INTEGER ()) 0 0 () (CONSTANT (INTEGER 4 0 0 INTEGER ()) 0 '38') () 0 ()
() () 0 0)
181 'mpi_err_quota' 'mpi_constants' 'mpi_err_quota' 1 ((PARAMETER
UNKNOWN-INTENT UNKNOWN-PROC UNKNOWN IMPLICIT-SAVE 0 0) (INTEGER 4 0 0
INTEGER ()) 0 0 () (CONSTANT (INTEGER 4 0 0 INTEGER ()) 0 '39') () 0 ()
() () 0 0)
182 'mpi_err_rank' 'mpi_constants' 'mpi_err_rank' 1 ((PARAMETER
UNKNOWN-INTENT UNKNOWN-PROC UNKNOWN IMPLICIT-SAVE 0 0) (INTEGER 4 0 0
INTEGER ()) 0 0 () (CONSTANT (INTEGER 4 0 0 INTEGER ()) 0 '6') () 0 () ()
() 0 0)
183 'mpi_err_read_only' 'mpi_constants' 'mpi_err_read_only' 1 ((
PARAMETER UNKNOWN-INTENT UNKNOWN-PROC UNKNOWN IMPLICIT-SAVE 0 0) (
INTEGER 4 0 0 INTEGER ()) 0 0 () (CONSTANT (INTEGER 4 0 0 INTEGER ()) 0
'40') () 0 () () () 0 0)
184 'mpi_err_request' 'mpi_constants' 'mpi_err_request' 1 ((PARAMETER
UNKNOWN-INTENT UNKNOWN-PROC UNKNOWN IMPLICIT-SAVE 0 0) (INTEGER 4 0 0
INTEGER ()) 0 0 () (CONSTANT (INTEGER 4 0 0 INTEGER ()) 0 '19') () 0 ()
() () 0 0)
185 'mpi_err_rma_attach' 'mpi_constants' 'mpi_err_rma_attach' 1 ((
PARAMETER UNKNOWN-INTENT UNKNOWN-PROC UNKNOWN IMPLICIT-SAVE 0 0) (
INTEGER 4 0 0 INTEGER ()) 0 0 () (CONSTANT (INTEGER 4 0 0 INTEGER ()) 0
'56') () 0 () () () 0 0)
186 'mpi_err_rma_conflict' 'mpi_constants' 'mpi_err_rma_conflict' 1 ((
PARAMETER UNKNOWN-INTENT UNKNOWN-PROC UNKNOWN IMPLICIT-SAVE 0 0) (
INTEGER 4 0 0 INTEGER ()) 0 0 () (CONSTANT (INTEGER 4 0 0 INTEGER ()) 0
'49') () 0 () () () 0 0)
187 'mpi_err_rma_flavor' 'mpi_constants' 'mpi_err_rma_flavor' 1 ((
PARAMETER UNKNOWN-INTENT UNKNOWN-PROC UNKNOWN IMPLICIT-SAVE 0 0) (
INTEGER 4 0 0 INTEGER ()) 0 0 () (CONSTANT (INTEGER 4 0 0 INTEGER ()) 0
'58') () 0 () () () 0 0)
188 'mpi_err_rma_range' 'mpi_constants' 'mpi_err_rma_range' 1 ((
PARAMETER UNKNOWN-INTENT UNKNOWN-PROC UNKNOWN IMPLICIT-SAVE 0 0) (
INTEGER 4 0 0 INTEGER ()) 0 0 () (CONSTANT (INTEGER 4 0 0 INTEGER ()) 0
'55') () 0 () () () 0 0)
189 'mpi_err_rma_shared' 'mpi_constants' 'mpi_err_rma_shared' 1 ((
PARAMETER UNKNOWN-INTENT UNKNOWN-PROC UNKNOWN IMPLICIT-SAVE 0 0) (
INTEGER 4 0 0 INTEGER ()) 0 0 () (CONSTANT (INTEGER 4 0 0 INTEGER ()) 0
'57') () 0 () () () 0 0)
190 'mpi_err_rma_sync' 'mpi_constants' 'mpi_err_rma_sync' 1 ((PARAMETER
UNKNOWN-INTENT UNKNOWN-PROC UNKNOWN IMPLICIT-SAVE 0 0) (INTEGER 4 0 0
INTEGER ()) 0 0 () (CONSTANT (INTEGER 4 0 0 INTEGER ()) 0 '50') () 0 ()
() () 0 0)
191 'mpi_err_root' 'mpi_constants' 'mpi_err_root' 1 ((PARAMETER
UNKNOWN-INTENT UNKNOWN-PROC UNKNOWN IMPLICIT-SAVE 0 0) (INTEGER 4 0 0
INTEGER ()) 0 0 () (CONSTANT (INTEGER 4 0 0 INTEGER ()) 0 '7') () 0 () ()
() 0 0)
192 'mpi_err_service' 'mpi_constants' 'mpi_err_service' 1 ((PARAMETER
UNKNOWN-INTENT UNKNOWN-PROC UNKNOWN IMPLICIT-SAVE 0 0) (INTEGER 4 0 0
INTEGER ()) 0 0 () (CONSTANT (INTEGER 4 0 0 INTEGER ()) 0 '41') () 0 ()
() () 0 0)
193 'mpi_err_size' 'mpi_constants' 'mpi_err_size' 1 ((PARAMETER
UNKNOWN-INTENT UNKNOWN-PROC UNKNOWN IMPLICIT-SAVE 0 0) (INTEGER 4 0 0
INTEGER ()) 0 0 () (CONSTANT (INTEGER 4 0 0 INTEGER ()) 0 '51') () 0 ()
() () 0 0)
194 'mpi_err_spawn' 'mpi_constants' 'mpi_err_spawn' 1 ((PARAMETER
UNKNOWN-INTENT UNKNOWN-PROC UNKNOWN IMPLICIT-SAVE 0 0) (INTEGER 4 0 0
INTEGER ()) 0 0 () (CONSTANT (INTEGER 4 0 0 INTEGER ()) 0 '42') () 0 ()
() () 0 0)
195 'mpi_err_tag' 'mpi_constants' 'mpi_err_tag' 1 ((PARAMETER
UNKNOWN-INTENT UNKNOWN-PROC UNKNOWN IMPLICIT-SAVE 0 0) (INTEGER 4 0 0
INTEGER ()) 0 0 () (CONSTANT (INTEGER 4 0 0 INTEGER ()) 0 '4') () 0 () ()
() 0 0)
196 'mpi_err_topology' 'mpi_constants' 'mpi_err_topology' 1 ((PARAMETER
UNKNOWN-INTENT UNKNOWN-PROC UNKNOWN IMPLICIT-SAVE 0 0) (INTEGER 4 0 0
INTEGER ()) 0 0 () (CONSTANT (INTEGER 4 0 0 INTEGER ()) 0 '10') () 0 ()
() () 0 0)
197 'mpi_err_truncate' 'mpi_constants' 'mpi_err_truncate' 1 ((PARAMETER
UNKNOWN-INTENT UNKNOWN-PROC UNKNOWN IMPLICIT-SAVE 0 0) (INTEGER 4 0 0
INTEGER ()) 0 0 () (CONSTANT (INTEGER 4 0 0 INTEGER ()) 0 '14') () 0 ()
() () 0 0)
198 'mpi_err_type' 'mpi_constants' 'mpi_err_type' 1 ((PARAMETER
UNKNOWN-INTENT UNKNOWN-PROC UNKNOWN IMPLICIT-SAVE 0 0) (INTEGER 4 0 0
INTEGER ()) 0 0 () (CONSTANT (INTEGER 4 0 0 INTEGER ()) 0 '3') () 0 () ()
() 0 0)
199 'mpi_err_unknown' 'mpi_constants' 'mpi_err_unknown' 1 ((PARAMETER
UNKNOWN-INTENT UNKNOWN-PROC UNKNOWN IMPLICIT-SAVE 0 0) (INTEGER 4 0 0
INTEGER ()) 0 0 () (CONSTANT (INTEGER 4 0 0 INTEGER ()) 0 '13') () 0 ()
() () 0 0)
200 'mpi_err_unsupported_datarep' 'mpi_constants'
'mpi_err_unsupported_datarep' 1 ((PARAMETER UNKNOWN-INTENT UNKNOWN-PROC
UNKNOWN IMPLICIT-SAVE 0 0) (INTEGER 4 0 0 INTEGER ()) 0 0 () (CONSTANT (
INTEGER 4 0 0 INTEGER ()) 0 '43') () 0 () () () 0 0)
201 'mpi_err_unsupported_operation' 'mpi_constants'
'mpi_err_unsupported_operation' 1 ((PARAMETER UNKNOWN-INTENT
UNKNOWN-PROC UNKNOWN IMPLICIT-SAVE 0 0) (INTEGER 4 0 0 INTEGER ()) 0 0 ()
(CONSTANT (INTEGER 4 0 0 INTEGER ()) 0 '44') () 0 () () () 0 0)
202 'mpi_err_win' 'mpi_constants' 'mpi_err_win' 1 ((PARAMETER
UNKNOWN-INTENT UNKNOWN-PROC UNKNOWN IMPLICIT-SAVE 0 0) (INTEGER 4 0 0
INTEGER ()) 0 0 () (CONSTANT (INTEGER 4 0 0 INTEGER ()) 0 '45') () 0 ()
() () 0 0)
203 'mpi_errcodes_ignore' 'mpi_constants' 'mpi_errcodes_ignore' 1 ((
VARIABLE UNKNOWN-INTENT UNKNOWN-PROC UNKNOWN UNKNOWN 0 0 DIMENSION
IN_COMMON) (INTEGER 4 0 0 INTEGER ()) 0 0 () (1 0 EXPLICIT (CONSTANT (
INTEGER 4 0 0 INTEGER ()) 0 '1') (CONSTANT (INTEGER 4 0 0 INTEGER ()) 0
'1')) 0 () () () 0 0)
204 'mpi_errhandler' 'mpi_constants' 'mpi_errhandler' 1 ((DERIVED
UNKNOWN-INTENT UNKNOWN-PROC UNKNOWN UNKNOWN 0 0 SEQUENCE) (UNKNOWN 0 0 0
UNKNOWN ()) 0 0 () () 0 ((205 'mpi_val' (INTEGER 4 0 0 INTEGER ()) () (
UNKNOWN-FL UNKNOWN-INTENT UNKNOWN-PROC UNKNOWN UNKNOWN 0 0)
UNKNOWN-ACCESS ())) PUBLIC (() () () ()) () 0 0 39840743)
206 'mpi_errhandler_null' 'mpi_constants' 'mpi_errhandler_null' 1 ((
PARAMETER UNKNOWN-INTENT UNKNOWN-PROC UNKNOWN IMPLICIT-SAVE 0 0) (
INTEGER 4 0 0 INTEGER ()) 0 0 () (CONSTANT (INTEGER 4 0 0 INTEGER ()) 0
'335544320') () 0 () () () 0 0)
207 'mpi_error' 'mpi_constants' 'mpi_error' 1 ((PARAMETER UNKNOWN-INTENT
UNKNOWN-PROC UNKNOWN IMPLICIT-SAVE 0 0) (INTEGER 4 0 0 INTEGER ()) 0 0 ()
(CONSTANT (INTEGER 4 0 0 INTEGER ()) 0 '5') () 0 () () () 0 0)
208 'mpi_errors_are_fatal' 'mpi_constants' 'mpi_errors_are_fatal' 1 ((
PARAMETER UNKNOWN-INTENT UNKNOWN-PROC UNKNOWN IMPLICIT-SAVE 0 0) (
INTEGER 4 0 0 INTEGER ()) 0 0 () (CONSTANT (INTEGER 4 0 0 INTEGER ()) 0
'1409286144') () 0 () () () 0 0)
209 'mpi_errors_return' 'mpi_constants' 'mpi_errors_return' 1 ((
PARAMETER UNKNOWN-INTENT UNKNOWN-PROC UNKNOWN IMPLICIT-SAVE 0 0) (
INTEGER 4 0 0 INTEGER ()) 0 0 () (CONSTANT (INTEGER 4 0 0 INTEGER ()) 0
'1409286145') () 0 () () () 0 0)
210 'mpi_file' 'mpi_constants' 'mpi_file' 1 ((DERIVED UNKNOWN-INTENT
UNKNOWN-PROC UNKNOWN UNKNOWN 0 0 SEQUENCE) (UNKNOWN 0 0 0 UNKNOWN ()) 0
0 () () 0 ((211 'mpi_val' (INTEGER 4 0 0 INTEGER ()) () (UNKNOWN-FL
UNKNOWN-INTENT UNKNOWN-PROC UNKNOWN UNKNOWN 0 0) UNKNOWN-ACCESS ()))
PUBLIC (() () () ()) () 0 0 33442942)
212 'mpi_file_null' 'mpi_constants' 'mpi_file_null' 1 ((PARAMETER
UNKNOWN-INTENT UNKNOWN-PROC UNKNOWN IMPLICIT-SAVE 0 0) (INTEGER 4 0 0
INTEGER ()) 0 0 () (CONSTANT (INTEGER 4 0 0 INTEGER ()) 0 '0') () 0 () ()
() 0 0)
213 'mpi_float' 'mpi_constants' 'mpi_float' 1 ((PARAMETER UNKNOWN-INTENT
UNKNOWN-PROC UNKNOWN IMPLICIT-SAVE 0 0) (INTEGER 4 0 0 INTEGER ()) 0 0 ()
(CONSTANT (INTEGER 4 0 0 INTEGER ()) 0 '1275069450') () 0 () () () 0 0)
214 'mpi_float_int' 'mpi_constants' 'mpi_float_int' 1 ((PARAMETER
UNKNOWN-INTENT UNKNOWN-PROC UNKNOWN IMPLICIT-SAVE 0 0) (INTEGER 4 0 0
INTEGER ()) 0 0 () (CONSTANT (INTEGER 4 0 0 INTEGER ()) 0 '-1946157056')
() 0 () () () 0 0)
215 'mpi_graph' 'mpi_constants' 'mpi_graph' 1 ((PARAMETER UNKNOWN-INTENT
UNKNOWN-PROC UNKNOWN IMPLICIT-SAVE 0 0) (INTEGER 4 0 0 INTEGER ()) 0 0 ()
(CONSTANT (INTEGER 4 0 0 INTEGER ()) 0 '1') () 0 () () () 0 0)
216 'mpi_group' 'mpi_constants' 'mpi_group' 1 ((DERIVED UNKNOWN-INTENT
UNKNOWN-PROC UNKNOWN UNKNOWN 0 0 SEQUENCE) (UNKNOWN 0 0 0 UNKNOWN ()) 0
0 () () 0 ((217 'mpi_val' (INTEGER 4 0 0 INTEGER ()) () (UNKNOWN-FL
UNKNOWN-INTENT UNKNOWN-PROC UNKNOWN UNKNOWN 0 0) UNKNOWN-ACCESS ()))
PUBLIC (() () () ()) () 0 0 74059165)
218 'mpi_group_empty' 'mpi_constants' 'mpi_group_empty' 1 ((PARAMETER
UNKNOWN-INTENT UNKNOWN-PROC UNKNOWN IMPLICIT-SAVE 0 0) (INTEGER 4 0 0
INTEGER ()) 0 0 () (CONSTANT (INTEGER 4 0 0 INTEGER ()) 0 '1207959552')
() 0 () () () 0 0)
219 'mpi_group_null' 'mpi_constants' 'mpi_group_null' 1 ((PARAMETER
UNKNOWN-INTENT UNKNOWN-PROC UNKNOWN IMPLICIT-SAVE 0 0) (INTEGER 4 0 0
INTEGER ()) 0 0 () (CONSTANT (INTEGER 4 0 0 INTEGER ()) 0 '134217728') ()
0 () () () 0 0)
220 'mpi_host' 'mpi_constants' 'mpi_host' 1 ((PARAMETER UNKNOWN-INTENT
UNKNOWN-PROC UNKNOWN IMPLICIT-SAVE 0 0) (INTEGER 4 0 0 INTEGER ()) 0 0 ()
(CONSTANT (INTEGER 4 0 0 INTEGER ()) 0 '1681915908') () 0 () () () 0 0)
221 'mpi_ident' 'mpi_constants' 'mpi_ident' 1 ((PARAMETER UNKNOWN-INTENT
UNKNOWN-PROC UNKNOWN IMPLICIT-SAVE 0 0) (INTEGER 4 0 0 INTEGER ()) 0 0 ()
(CONSTANT (INTEGER 4 0 0 INTEGER ()) 0 '0') () 0 () () () 0 0)
83 'mpi_in_place' 'mpi_constants' 'mpi_in_place' 1 ((VARIABLE
UNKNOWN-INTENT UNKNOWN-PROC UNKNOWN UNKNOWN 0 0 IN_COMMON) (INTEGER 4 0
0 INTEGER ()) 0 222 () () 0 () () () 0 0)
223 'mpi_info' 'mpi_constants' 'mpi_info' 1 ((DERIVED UNKNOWN-INTENT
UNKNOWN-PROC UNKNOWN UNKNOWN 0 0 SEQUENCE) (UNKNOWN 0 0 0 UNKNOWN ()) 0
0 () () 0 ((224 'mpi_val' (INTEGER 4 0 0 INTEGER ()) () (UNKNOWN-FL
UNKNOWN-INTENT UNKNOWN-PROC UNKNOWN UNKNOWN 0 0) UNKNOWN-ACCESS ()))
PUBLIC (() () () ()) () 0 0 21151184)
225 'mpi_info_env' 'mpi_constants' 'mpi_info_env' 1 ((PARAMETER
UNKNOWN-INTENT UNKNOWN-PROC UNKNOWN IMPLICIT-SAVE 0 0) (INTEGER 4 0 0
INTEGER ()) 0 0 () (CONSTANT (INTEGER 4 0 0 INTEGER ()) 0 '1543503873')
() 0 () () () 0 0)
226 'mpi_info_null' 'mpi_constants' 'mpi_info_null' 1 ((PARAMETER
UNKNOWN-INTENT UNKNOWN-PROC UNKNOWN IMPLICIT-SAVE 0 0) (INTEGER 4 0 0
INTEGER ()) 0 0 () (CONSTANT (INTEGER 4 0 0 INTEGER ()) 0 '469762048') ()
0 () () () 0 0)
227 'mpi_int' 'mpi_constants' 'mpi_int' 1 ((PARAMETER UNKNOWN-INTENT
UNKNOWN-PROC UNKNOWN IMPLICIT-SAVE 0 0) (INTEGER 4 0 0 INTEGER ()) 0 0 ()
(CONSTANT (INTEGER 4 0 0 INTEGER ()) 0 '1275069445') () 0 () () () 0 0)
228 'mpi_int16_t' 'mpi_constants' 'mpi_int16_t' 1 ((PARAMETER
UNKNOWN-INTENT UNKNOWN-PROC UNKNOWN IMPLICIT-SAVE 0 0) (INTEGER 4 0 0
INTEGER ()) 0 0 () (CONSTANT (INTEGER 4 0 0 INTEGER ()) 0 '1275068984')
() 0 () () () 0 0)
229 'mpi_int32_t' 'mpi_constants' 'mpi_int32_t' 1 ((PARAMETER
UNKNOWN-INTENT UNKNOWN-PROC UNKNOWN IMPLICIT-SAVE 0 0) (INTEGER 4 0 0
INTEGER ()) 0 0 () (CONSTANT (INTEGER 4 0 0 INTEGER ()) 0 '1275069497')
() 0 () () () 0 0)
230 'mpi_int64_t' 'mpi_constants' 'mpi_int64_t' 1 ((PARAMETER
UNKNOWN-INTENT UNKNOWN-PROC UNKNOWN IMPLICIT-SAVE 0 0) (INTEGER 4 0 0
INTEGER ()) 0 0 () (CONSTANT (INTEGER 4 0 0 INTEGER ()) 0 '1275070522')
() 0 () () () 0 0)
231 'mpi_int8_t' 'mpi_constants' 'mpi_int8_t' 1 ((PARAMETER
UNKNOWN-INTENT UNKNOWN-PROC UNKNOWN IMPLICIT-SAVE 0 0) (INTEGER 4 0 0
INTEGER ()) 0 0 () (CONSTANT (INTEGER 4 0 0 INTEGER ()) 0 '1275068727')
() 0 () () () 0 0)
232 'mpi_integer' 'mpi_constants' 'mpi_integer' 1 ((PARAMETER
UNKNOWN-INTENT UNKNOWN-PROC UNKNOWN IMPLICIT-SAVE 0 0) (INTEGER 4 0 0
INTEGER ()) 0 0 () (CONSTANT (INTEGER 4 0 0 INTEGER ()) 0 '1275069467')
() 0 () () () 0 0)
233 'mpi_integer1' 'mpi_constants' 'mpi_integer1' 1 ((PARAMETER
UNKNOWN-INTENT UNKNOWN-PROC UNKNOWN IMPLICIT-SAVE 0 0) (INTEGER 4 0 0
INTEGER ()) 0 0 () (CONSTANT (INTEGER 4 0 0 INTEGER ()) 0 '1275068717')
() 0 () () () 0 0)
234 'mpi_integer16' 'mpi_constants' 'mpi_integer16' 1 ((PARAMETER
UNKNOWN-INTENT UNKNOWN-PROC UNKNOWN IMPLICIT-SAVE 0 0) (INTEGER 4 0 0
INTEGER ()) 0 0 () (CONSTANT (INTEGER 4 0 0 INTEGER ()) 0 '201326592') ()
0 () () () 0 0)
235 'mpi_integer2' 'mpi_constants' 'mpi_integer2' 1 ((PARAMETER
UNKNOWN-INTENT UNKNOWN-PROC UNKNOWN IMPLICIT-SAVE 0 0) (INTEGER 4 0 0
INTEGER ()) 0 0 () (CONSTANT (INTEGER 4 0 0 INTEGER ()) 0 '1275068975')
() 0 () () () 0 0)
236 'mpi_integer4' 'mpi_constants' 'mpi_integer4' 1 ((PARAMETER
UNKNOWN-INTENT UNKNOWN-PROC UNKNOWN IMPLICIT-SAVE 0 0) (INTEGER 4 0 0
INTEGER ()) 0 0 () (CONSTANT (INTEGER 4 0 0 INTEGER ()) 0 '1275069488')
() 0 () () () 0 0)
237 'mpi_integer8' 'mpi_constants' 'mpi_integer8' 1 ((PARAMETER
UNKNOWN-INTENT UNKNOWN-PROC UNKNOWN IMPLICIT-SAVE 0 0) (INTEGER 4 0 0
INTEGER ()) 0 0 () (CONSTANT (INTEGER 4 0 0 INTEGER ()) 0 '1275070513')
() 0 () () () 0 0)
238 'mpi_integer_kind' 'mpi_constants' 'mpi_integer_kind' 1 ((PARAMETER
UNKNOWN-INTENT UNKNOWN-PROC UNKNOWN IMPLICIT-SAVE 0 0) (INTEGER 4 0 0
INTEGER ()) 0 0 () (CONSTANT (INTEGER 4 0 0 INTEGER ()) 0 '4') () 0 () ()
() 0 0)
239 'mpi_io' 'mpi_constants' 'mpi_io' 1 ((PARAMETER UNKNOWN-INTENT
UNKNOWN-PROC UNKNOWN IMPLICIT-SAVE 0 0) (INTEGER 4 0 0 INTEGER ()) 0 0 ()
(CONSTANT (INTEGER 4 0 0 INTEGER ()) 0 '1681915910') () 0 () () () 0 0)
240 'mpi_keyval_invalid' 'mpi_constants' 'mpi_keyval_invalid' 1 ((
PARAMETER UNKNOWN-INTENT UNKNOWN-PROC UNKNOWN IMPLICIT-SAVE 0 0) (
INTEGER 4 0 0 INTEGER ()) 0 0 () (CONSTANT (INTEGER 4 0 0 INTEGER ()) 0
'603979776') () 0 () () () 0 0)
241 'mpi_land' 'mpi_constants' 'mpi_land' 1 ((PARAMETER UNKNOWN-INTENT
UNKNOWN-PROC UNKNOWN IMPLICIT-SAVE 0 0) (INTEGER 4 0 0 INTEGER ()) 0 0 ()
(CONSTANT (INTEGER 4 0 0 INTEGER ()) 0 '1476395013') () 0 () () () 0 0)
242 'mpi_lastusedcode' 'mpi_constants' 'mpi_lastusedcode' 1 ((PARAMETER
UNKNOWN-INTENT UNKNOWN-PROC UNKNOWN IMPLICIT-SAVE 0 0) (INTEGER 4 0 0
INTEGER ()) 0 0 () (CONSTANT (INTEGER 4 0 0 INTEGER ()) 0 '1681915916')
() 0 () () () 0 0)
243 'mpi_lb' 'mpi_constants' 'mpi_lb' 1 ((PARAMETER UNKNOWN-INTENT
UNKNOWN-PROC UNKNOWN IMPLICIT-SAVE 0 0) (INTEGER 4 0 0 INTEGER ()) 0 0 ()
(CONSTANT (INTEGER 4 0 0 INTEGER ()) 0 '1275068432') () 0 () () () 0 0)
244 'mpi_lock_exclusive' 'mpi_constants' 'mpi_lock_exclusive' 1 ((
PARAMETER UNKNOWN-INTENT UNKNOWN-PROC UNKNOWN IMPLICIT-SAVE 0 0) (
INTEGER 4 0 0 INTEGER ()) 0 0 () (CONSTANT (INTEGER 4 0 0 INTEGER ()) 0
'234') () 0 () () () 0 0)
245 'mpi_lock_shared' 'mpi_constants' 'mpi_lock_shared' 1 ((PARAMETER
UNKNOWN-INTENT UNKNOWN-PROC UNKNOWN IMPLICIT-SAVE 0 0) (INTEGER 4 0 0
INTEGER ()) 0 0 () (CONSTANT (INTEGER 4 0 0 INTEGER ()) 0 '235') () 0 ()
() () 0 0)
246 'mpi_logical' 'mpi_constants' 'mpi_logical' 1 ((PARAMETER
UNKNOWN-INTENT UNKNOWN-PROC UNKNOWN IMPLICIT-SAVE 0 0) (INTEGER 4 0 0
INTEGER ()) 0 0 () (CONSTANT (INTEGER 4 0 0 INTEGER ()) 0 '1275069469')
() 0 () () () 0 0)
247 'mpi_long' 'mpi_constants' 'mpi_long' 1 ((PARAMETER UNKNOWN-INTENT
UNKNOWN-PROC UNKNOWN IMPLICIT-SAVE 0 0) (INTEGER 4 0 0 INTEGER ()) 0 0 ()
(CONSTANT (INTEGER 4 0 0 INTEGER ()) 0 '1275069447') () 0 () () () 0 0)
248 'mpi_long_double' 'mpi_constants' 'mpi_long_double' 1 ((PARAMETER
UNKNOWN-INTENT UNKNOWN-PROC UNKNOWN IMPLICIT-SAVE 0 0) (INTEGER 4 0 0
INTEGER ()) 0 0 () (CONSTANT (INTEGER 4 0 0 INTEGER ()) 0 '1275070476')
() 0 () () () 0 0)
249 'mpi_long_double_int' 'mpi_constants' 'mpi_long_double_int' 1 ((
PARAMETER UNKNOWN-INTENT UNKNOWN-PROC UNKNOWN IMPLICIT-SAVE 0 0) (
INTEGER 4 0 0 INTEGER ()) 0 0 () (CONSTANT (INTEGER 4 0 0 INTEGER ()) 0
'-1946157052') () 0 () () () 0 0)
250 'mpi_long_int' 'mpi_constants' 'mpi_long_int' 1 ((PARAMETER
UNKNOWN-INTENT UNKNOWN-PROC UNKNOWN IMPLICIT-SAVE 0 0) (INTEGER 4 0 0
INTEGER ()) 0 0 () (CONSTANT (INTEGER 4 0 0 INTEGER ()) 0 '-1946157054')
() 0 () () () 0 0)
251 'mpi_long_long' 'mpi_constants' 'mpi_long_long' 1 ((PARAMETER
UNKNOWN-INTENT UNKNOWN-PROC UNKNOWN IMPLICIT-SAVE 0 0) (INTEGER 4 0 0
INTEGER ()) 0 0 () (CONSTANT (INTEGER 4 0 0 INTEGER ()) 0 '1275070473')
() 0 () () () 0 0)
252 'mpi_long_long_int' 'mpi_constants' 'mpi_long_long_int' 1 ((
PARAMETER UNKNOWN-INTENT UNKNOWN-PROC UNKNOWN IMPLICIT-SAVE 0 0) (
INTEGER 4 0 0 INTEGER ()) 0 0 () (CONSTANT (INTEGER 4 0 0 INTEGER ()) 0
'1275070473') () 0 () () () 0 0)
253 'mpi_lor' 'mpi_constants' 'mpi_lor' 1 ((PARAMETER UNKNOWN-INTENT
UNKNOWN-PROC UNKNOWN IMPLICIT-SAVE 0 0) (INTEGER 4 0 0 INTEGER ()) 0 0 ()
(CONSTANT (INTEGER 4 0 0 INTEGER ()) 0 '1476395015') () 0 () () () 0 0)
254 'mpi_lxor' 'mpi_constants' 'mpi_lxor' 1 ((PARAMETER UNKNOWN-INTENT
UNKNOWN-PROC UNKNOWN IMPLICIT-SAVE 0 0) (INTEGER 4 0 0 INTEGER ()) 0 0 ()
(CONSTANT (INTEGER 4 0 0 INTEGER ()) 0 '1476395017') () 0 () () () 0 0)
255 'mpi_max' 'mpi_constants' 'mpi_max' 1 ((PARAMETER UNKNOWN-INTENT
UNKNOWN-PROC UNKNOWN IMPLICIT-SAVE 0 0) (INTEGER 4 0 0 INTEGER ()) 0 0 ()
(CONSTANT (INTEGER 4 0 0 INTEGER ()) 0 '1476395009') () 0 () () () 0 0)
256 'mpi_max_datarep_string' 'mpi_constants' 'mpi_max_datarep_string' 1
((PARAMETER UNKNOWN-INTENT UNKNOWN-PROC UNKNOWN IMPLICIT-SAVE 0 0) (
INTEGER 4 0 0 INTEGER ()) 0 0 () (CONSTANT (INTEGER 4 0 0 INTEGER ()) 0
'127') () 0 () () () 0 0)
257 'mpi_max_error_string' 'mpi_constants' 'mpi_max_error_string' 1 ((
PARAMETER UNKNOWN-INTENT UNKNOWN-PROC UNKNOWN IMPLICIT-SAVE 0 0) (
INTEGER 4 0 0 INTEGER ()) 0 0 () (CONSTANT (INTEGER 4 0 0 INTEGER ()) 0
'511') () 0 () () () 0 0)
258 'mpi_max_info_key' 'mpi_constants' 'mpi_max_info_key' 1 ((PARAMETER
UNKNOWN-INTENT UNKNOWN-PROC UNKNOWN IMPLICIT-SAVE 0 0) (INTEGER 4 0 0
INTEGER ()) 0 0 () (CONSTANT (INTEGER 4 0 0 INTEGER ()) 0 '254') () 0 ()
() () 0 0)
259 'mpi_max_info_val' 'mpi_constants' 'mpi_max_info_val' 1 ((PARAMETER
UNKNOWN-INTENT UNKNOWN-PROC UNKNOWN IMPLICIT-SAVE 0 0) (INTEGER 4 0 0
INTEGER ()) 0 0 () (CONSTANT (INTEGER 4 0 0 INTEGER ()) 0 '1023') () 0 ()
() () 0 0)
260 'mpi_max_library_version_string' 'mpi_constants'
'mpi_max_library_version_string' 1 ((PARAMETER UNKNOWN-INTENT
UNKNOWN-PROC UNKNOWN IMPLICIT-SAVE 0 0) (INTEGER 4 0 0 INTEGER ()) 0 0 ()
(CONSTANT (INTEGER 4 0 0 INTEGER ()) 0 '8191') () 0 () () () 0 0)
261 'mpi_max_object_name' 'mpi_constants' 'mpi_max_object_name' 1 ((
PARAMETER UNKNOWN-INTENT UNKNOWN-PROC UNKNOWN IMPLICIT-SAVE 0 0) (
INTEGER 4 0 0 INTEGER ()) 0 0 () (CONSTANT (INTEGER 4 0 0 INTEGER ()) 0
'127') () 0 () () () 0 0)
262 'mpi_max_port_name' 'mpi_constants' 'mpi_max_port_name' 1 ((
PARAMETER UNKNOWN-INTENT UNKNOWN-PROC UNKNOWN IMPLICIT-SAVE 0 0) (
INTEGER 4 0 0 INTEGER ()) 0 0 () (CONSTANT (INTEGER 4 0 0 INTEGER ()) 0
'255') () 0 () () () 0 0)
263 'mpi_max_processor_name' 'mpi_constants' 'mpi_max_processor_name' 1
((PARAMETER UNKNOWN-INTENT UNKNOWN-PROC UNKNOWN IMPLICIT-SAVE 0 0) (
INTEGER 4 0 0 INTEGER ()) 0 0 () (CONSTANT (INTEGER 4 0 0 INTEGER ()) 0
'127') () 0 () () () 0 0)
264 'mpi_maxloc' 'mpi_constants' 'mpi_maxloc' 1 ((PARAMETER
UNKNOWN-INTENT UNKNOWN-PROC UNKNOWN IMPLICIT-SAVE 0 0) (INTEGER 4 0 0
INTEGER ()) 0 0 () (CONSTANT (INTEGER 4 0 0 INTEGER ()) 0 '1476395020')
() 0 () () () 0 0)
265 'mpi_message' 'mpi_constants' 'mpi_message' 1 ((DERIVED
UNKNOWN-INTENT UNKNOWN-PROC UNKNOWN UNKNOWN 0 0 SEQUENCE) (UNKNOWN 0 0 0
UNKNOWN ()) 0 0 () () 0 ((266 'mpi_val' (INTEGER 4 0 0 INTEGER ()) () (
UNKNOWN-FL UNKNOWN-INTENT UNKNOWN-PROC UNKNOWN UNKNOWN 0 0)
UNKNOWN-ACCESS ())) PUBLIC (() () () ()) () 0 0 13592485)
267 'mpi_message_no_proc' 'mpi_constants' 'mpi_message_no_proc' 1 ((
PARAMETER UNKNOWN-INTENT UNKNOWN-PROC UNKNOWN IMPLICIT-SAVE 0 0) (
INTEGER 4 0 0 INTEGER ()) 0 0 () (CONSTANT (INTEGER 4 0 0 INTEGER ()) 0
'1811939328') () 0 () () () 0 0)
268 'mpi_message_null' 'mpi_constants' 'mpi_message_null' 1 ((PARAMETER
UNKNOWN-INTENT UNKNOWN-PROC UNKNOWN IMPLICIT-SAVE 0 0) (INTEGER 4 0 0
INTEGER ()) 0 0 () (CONSTANT (INTEGER 4 0 0 INTEGER ()) 0 '738197504') ()
0 () () () 0 0)
269 'mpi_min' 'mpi_constants' 'mpi_min' 1 ((PARAMETER UNKNOWN-INTENT
UNKNOWN-PROC UNKNOWN IMPLICIT-SAVE 0 0) (INTEGER 4 0 0 INTEGER ()) 0 0 ()
(CONSTANT (INTEGER 4 0 0 INTEGER ()) 0 '1476395010') () 0 () () () 0 0)
270 'mpi_minloc' 'mpi_constants' 'mpi_minloc' 1 ((PARAMETER
UNKNOWN-INTENT UNKNOWN-PROC UNKNOWN IMPLICIT-SAVE 0 0) (INTEGER 4 0 0
INTEGER ()) 0 0 () (CONSTANT (INTEGER 4 0 0 INTEGER ()) 0 '1476395019')
() 0 () () () 0 0)
271 'mpi_mode_append' 'mpi_constants' 'mpi_mode_append' 1 ((PARAMETER
UNKNOWN-INTENT UNKNOWN-PROC UNKNOWN IMPLICIT-SAVE 0 0) (INTEGER 4 0 0
INTEGER ()) 0 0 () (CONSTANT (INTEGER 4 0 0 INTEGER ()) 0 '128') () 0 ()
() () 0 0)
272 'mpi_mode_create' 'mpi_constants' 'mpi_mode_create' 1 ((PARAMETER
UNKNOWN-INTENT UNKNOWN-PROC UNKNOWN IMPLICIT-SAVE 0 0) (INTEGER 4 0 0
INTEGER ()) 0 0 () (CONSTANT (INTEGER 4 0 0 INTEGER ()) 0 '1') () 0 () ()
() 0 0)
273 'mpi_mode_delete_on_close' 'mpi_constants' 'mpi_mode_delete_on_close'
1 ((PARAMETER UNKNOWN-INTENT UNKNOWN-PROC UNKNOWN IMPLICIT-SAVE 0 0) (
INTEGER 4 0 0 INTEGER ()) 0 0 () (CONSTANT (INTEGER 4 0 0 INTEGER ()) 0
'16') () 0 () () () 0 0)
274 'mpi_mode_excl' 'mpi_constants' 'mpi_mode_excl' 1 ((PARAMETER
UNKNOWN-INTENT UNKNOWN-PROC UNKNOWN IMPLICIT-SAVE 0 0) (INTEGER 4 0 0
INTEGER ()) 0 0 () (CONSTANT (INTEGER 4 0 0 INTEGER ()) 0 '64') () 0 ()
() () 0 0)
275 'mpi_mode_nocheck' 'mpi_constants' 'mpi_mode_nocheck' 1 ((PARAMETER
UNKNOWN-INTENT UNKNOWN-PROC UNKNOWN IMPLICIT-SAVE 0 0) (INTEGER 4 0 0
INTEGER ()) 0 0 () (CONSTANT (INTEGER 4 0 0 INTEGER ()) 0 '1024') () 0 ()
() () 0 0)
276 'mpi_mode_noprecede' 'mpi_constants' 'mpi_mode_noprecede' 1 ((
PARAMETER UNKNOWN-INTENT UNKNOWN-PROC UNKNOWN IMPLICIT-SAVE 0 0) (
INTEGER 4 0 0 INTEGER ()) 0 0 () (CONSTANT (INTEGER 4 0 0 INTEGER ()) 0
'8192') () 0 () () () 0 0)
277 'mpi_mode_noput' 'mpi_constants' 'mpi_mode_noput' 1 ((PARAMETER
UNKNOWN-INTENT UNKNOWN-PROC UNKNOWN IMPLICIT-SAVE 0 0) (INTEGER 4 0 0
INTEGER ()) 0 0 () (CONSTANT (INTEGER 4 0 0 INTEGER ()) 0 '4096') () 0 ()
() () 0 0)
278 'mpi_mode_nostore' 'mpi_constants' 'mpi_mode_nostore' 1 ((PARAMETER
UNKNOWN-INTENT UNKNOWN-PROC UNKNOWN IMPLICIT-SAVE 0 0) (INTEGER 4 0 0
INTEGER ()) 0 0 () (CONSTANT (INTEGER 4 0 0 INTEGER ()) 0 '2048') () 0 ()
() () 0 0)
279 'mpi_mode_nosucceed' 'mpi_constants' 'mpi_mode_nosucceed' 1 ((
PARAMETER UNKNOWN-INTENT UNKNOWN-PROC UNKNOWN IMPLICIT-SAVE 0 0) (
INTEGER 4 0 0 INTEGER ()) 0 0 () (CONSTANT (INTEGER 4 0 0 INTEGER ()) 0
'16384') () 0 () () () 0 0)
280 'mpi_mode_rdonly' 'mpi_constants' 'mpi_mode_rdonly' 1 ((PARAMETER
UNKNOWN-INTENT UNKNOWN-PROC UNKNOWN IMPLICIT-SAVE 0 0) (INTEGER 4 0 0
INTEGER ()) 0 0 () (CONSTANT (INTEGER 4 0 0 INTEGER ()) 0 '2') () 0 () ()
() 0 0)
281 'mpi_mode_rdwr' 'mpi_constants' 'mpi_mode_rdwr' 1 ((PARAMETER
UNKNOWN-INTENT UNKNOWN-PROC UNKNOWN IMPLICIT-SAVE 0 0) (INTEGER 4 0 0
INTEGER ()) 0 0 () (CONSTANT (INTEGER 4 0 0 INTEGER ()) 0 '8') () 0 () ()
() 0 0)
282 'mpi_mode_sequential' 'mpi_constants' 'mpi_mode_sequential' 1 ((
PARAMETER UNKNOWN-INTENT UNKNOWN-PROC UNKNOWN IMPLICIT-SAVE 0 0) (
INTEGER 4 0 0 INTEGER ()) 0 0 () (CONSTANT (INTEGER 4 0 0 INTEGER ()) 0
'256') () 0 () () () 0 0)
283 'mpi_mode_unique_open' 'mpi_constants' 'mpi_mode_unique_open' 1 ((
PARAMETER UNKNOWN-INTENT UNKNOWN-PROC UNKNOWN IMPLICIT-SAVE 0 0) (
INTEGER 4 0 0 INTEGER ()) 0 0 () (CONSTANT (INTEGER 4 0 0 INTEGER ()) 0
'32') () 0 () () () 0 0)
284 'mpi_mode_wronly' 'mpi_constants' 'mpi_mode_wronly' 1 ((PARAMETER
UNKNOWN-INTENT UNKNOWN-PROC UNKNOWN IMPLICIT-SAVE 0 0) (INTEGER 4 0 0
INTEGER ()) 0 0 () (CONSTANT (INTEGER 4 0 0 INTEGER ()) 0 '4') () 0 () ()
() 0 0)
285 'mpi_no_op' 'mpi_constants' 'mpi_no_op' 1 ((PARAMETER UNKNOWN-INTENT
UNKNOWN-PROC UNKNOWN IMPLICIT-SAVE 0 0) (INTEGER 4 0 0 INTEGER ()) 0 0 ()
(CONSTANT (INTEGER 4 0 0 INTEGER ()) 0 '1476395022') () 0 () () () 0 0)
286 'mpi_offset' 'mpi_constants' 'mpi_offset' 1 ((PARAMETER
UNKNOWN-INTENT UNKNOWN-PROC UNKNOWN IMPLICIT-SAVE 0 0) (INTEGER 4 0 0
INTEGER ()) 0 0 () (CONSTANT (INTEGER 4 0 0 INTEGER ()) 0 '1275070532')
() 0 () () () 0 0)
287 'mpi_offset_kind' 'mpi_constants' 'mpi_offset_kind' 1 ((PARAMETER
UNKNOWN-INTENT UNKNOWN-PROC UNKNOWN IMPLICIT-SAVE 0 0) (INTEGER 4 0 0
INTEGER ()) 0 0 () (CONSTANT (INTEGER 4 0 0 INTEGER ()) 0 '8') () 0 () ()
() 0 0)
288 'mpi_op' 'mpi_constants' 'mpi_op' 1 ((DERIVED UNKNOWN-INTENT
UNKNOWN-PROC UNKNOWN UNKNOWN 0 0 SEQUENCE) (UNKNOWN 0 0 0 UNKNOWN ()) 0
0 () () 0 ((289 'mpi_val' (INTEGER 4 0 0 INTEGER ()) () (UNKNOWN-FL
UNKNOWN-INTENT UNKNOWN-PROC UNKNOWN UNKNOWN 0 0) UNKNOWN-ACCESS ()))
PUBLIC (() () () ()) () 0 0 49666883)
290 'mpi_op_null' 'mpi_constants' 'mpi_op_null' 1 ((PARAMETER
UNKNOWN-INTENT UNKNOWN-PROC UNKNOWN IMPLICIT-SAVE 0 0) (INTEGER 4 0 0
INTEGER ()) 0 0 () (CONSTANT (INTEGER 4 0 0 INTEGER ()) 0 '402653184') ()
0 () () () 0 0)
291 'mpi_order_c' 'mpi_constants' 'mpi_order_c' 1 ((PARAMETER
UNKNOWN-INTENT UNKNOWN-PROC UNKNOWN IMPLICIT-SAVE 0 0) (INTEGER 4 0 0
INTEGER ()) 0 0 () (CONSTANT (INTEGER 4 0 0 INTEGER ()) 0 '56') () 0 ()
() () 0 0)
292 'mpi_order_fortran' 'mpi_constants' 'mpi_order_fortran' 1 ((
PARAMETER UNKNOWN-INTENT UNKNOWN-PROC UNKNOWN IMPLICIT-SAVE 0 0) (
INTEGER 4 0 0 INTEGER ()) 0 0 () (CONSTANT (INTEGER 4 0 0 INTEGER ()) 0
'57') () 0 () () () 0 0)
293 'mpi_packed' 'mpi_constants' 'mpi_packed' 1 ((PARAMETER
UNKNOWN-INTENT UNKNOWN-PROC UNKNOWN IMPLICIT-SAVE 0 0) (INTEGER 4 0 0
INTEGER ()) 0 0 () (CONSTANT (INTEGER 4 0 0 INTEGER ()) 0 '1275068687')
() 0 () () () 0 0)
294 'mpi_proc_null' 'mpi_constants' 'mpi_proc_null' 1 ((PARAMETER
UNKNOWN-INTENT UNKNOWN-PROC UNKNOWN IMPLICIT-SAVE 0 0) (INTEGER 4 0 0
INTEGER ()) 0 0 () (CONSTANT (INTEGER 4 0 0 INTEGER ()) 0 '-1') () 0 ()
() () 0 0)
295 'mpi_prod' 'mpi_constants' 'mpi_prod' 1 ((PARAMETER UNKNOWN-INTENT
UNKNOWN-PROC UNKNOWN IMPLICIT-SAVE 0 0) (INTEGER 4 0 0 INTEGER ()) 0 0 ()
(CONSTANT (INTEGER 4 0 0 INTEGER ()) 0 '1476395012') () 0 () () () 0 0)
296 'mpi_real' 'mpi_constants' 'mpi_real' 1 ((PARAMETER UNKNOWN-INTENT
UNKNOWN-PROC UNKNOWN IMPLICIT-SAVE 0 0) (INTEGER 4 0 0 INTEGER ()) 0 0 ()
(CONSTANT (INTEGER 4 0 0 INTEGER ()) 0 '1275069468') () 0 () () () 0 0)
297 'mpi_real16' 'mpi_constants' 'mpi_real16' 1 ((PARAMETER
UNKNOWN-INTENT UNKNOWN-PROC UNKNOWN IMPLICIT-SAVE 0 0) (INTEGER 4 0 0
INTEGER ()) 0 0 () (CONSTANT (INTEGER 4 0 0 INTEGER ()) 0 '201326592') ()
0 () () () 0 0)
298 'mpi_real4' 'mpi_constants' 'mpi_real4' 1 ((PARAMETER UNKNOWN-INTENT
UNKNOWN-PROC UNKNOWN IMPLICIT-SAVE 0 0) (INTEGER 4 0 0 INTEGER ()) 0 0 ()
(CONSTANT (INTEGER 4 0 0 INTEGER ()) 0 '1275069479') () 0 () () () 0 0)
299 'mpi_real8' 'mpi_constants' 'mpi_real8' 1 ((PARAMETER UNKNOWN-INTENT
UNKNOWN-PROC UNKNOWN IMPLICIT-SAVE 0 0) (INTEGER 4 0 0 INTEGER ()) 0 0 ()
(CONSTANT (INTEGER 4 0 0 INTEGER ()) 0 '1275070505') () 0 () () () 0 0)
300 'mpi_replace' 'mpi_constants' 'mpi_replace' 1 ((PARAMETER
UNKNOWN-INTENT UNKNOWN-PROC UNKNOWN IMPLICIT-SAVE 0 0) (INTEGER 4 0 0
INTEGER ()) 0 0 () (CONSTANT (INTEGER 4 0 0 INTEGER ()) 0 '1476395021')
() 0 () () () 0 0)
301 'mpi_request' 'mpi_constants' 'mpi_request' 1 ((DERIVED
UNKNOWN-INTENT UNKNOWN-PROC UNKNOWN UNKNOWN 0 0 SEQUENCE) (UNKNOWN 0 0 0
UNKNOWN ()) 0 0 () () 0 ((302 'mpi_val' (INTEGER 4 0 0 INTEGER ()) () (
UNKNOWN-FL UNKNOWN-INTENT UNKNOWN-PROC UNKNOWN UNKNOWN 0 0)
UNKNOWN-ACCESS ())) PUBLIC (() () () ()) () 0 0 15291309)
303 'mpi_request_null' 'mpi_constants' 'mpi_request_null' 1 ((PARAMETER
UNKNOWN-INTENT UNKNOWN-PROC UNKNOWN IMPLICIT-SAVE 0 0) (INTEGER 4 0 0
INTEGER ()) 0 0 () (CONSTANT (INTEGER 4 0 0 INTEGER ()) 0 '738197504') ()
0 () () () 0 0)
304 'mpi_root' 'mpi_constants' 'mpi_root' 1 ((PARAMETER UNKNOWN-INTENT
UNKNOWN-PROC UNKNOWN IMPLICIT-SAVE 0 0) (INTEGER 4 0 0 INTEGER ()) 0 0 ()
(CONSTANT (INTEGER 4 0 0 INTEGER ()) 0 '-3') () 0 () () () 0 0)
305 'mpi_seek_cur' 'mpi_constants' 'mpi_seek_cur' 1 ((PARAMETER
UNKNOWN-INTENT UNKNOWN-PROC UNKNOWN IMPLICIT-SAVE 0 0) (INTEGER 4 0 0
INTEGER ()) 0 0 () (CONSTANT (INTEGER 4 0 0 INTEGER ()) 0 '602') () 0 ()
() () 0 0)
306 'mpi_seek_end' 'mpi_constants' 'mpi_seek_end' 1 ((PARAMETER
UNKNOWN-INTENT UNKNOWN-PROC UNKNOWN IMPLICIT-SAVE 0 0) (INTEGER 4 0 0
INTEGER ()) 0 0 () (CONSTANT (INTEGER 4 0 0 INTEGER ()) 0 '604') () 0 ()
() () 0 0)
307 'mpi_seek_set' 'mpi_constants' 'mpi_seek_set' 1 ((PARAMETER
UNKNOWN-INTENT UNKNOWN-PROC UNKNOWN IMPLICIT-SAVE 0 0) (INTEGER 4 0 0
INTEGER ()) 0 0 () (CONSTANT (INTEGER 4 0 0 INTEGER ()) 0 '600') () 0 ()
() () 0 0)
308 'mpi_short' 'mpi_constants' 'mpi_short' 1 ((PARAMETER UNKNOWN-INTENT
UNKNOWN-PROC UNKNOWN IMPLICIT-SAVE 0 0) (INTEGER 4 0 0 INTEGER ()) 0 0 ()
(CONSTANT (INTEGER 4 0 0 INTEGER ()) 0 '1275068931') () 0 () () () 0 0)
309 'mpi_short_int' 'mpi_constants' 'mpi_short_int' 1 ((PARAMETER
UNKNOWN-INTENT UNKNOWN-PROC UNKNOWN IMPLICIT-SAVE 0 0) (INTEGER 4 0 0
INTEGER ()) 0 0 () (CONSTANT (INTEGER 4 0 0 INTEGER ()) 0 '-1946157053')
() 0 () () () 0 0)
310 'mpi_signed_char' 'mpi_constants' 'mpi_signed_char' 1 ((PARAMETER
UNKNOWN-INTENT UNKNOWN-PROC UNKNOWN IMPLICIT-SAVE 0 0) (INTEGER 4 0 0
INTEGER ()) 0 0 () (CONSTANT (INTEGER 4 0 0 INTEGER ()) 0 '1275068696')
() 0 () () () 0 0)
311 'mpi_similar' 'mpi_constants' 'mpi_similar' 1 ((PARAMETER
UNKNOWN-INTENT UNKNOWN-PROC UNKNOWN IMPLICIT-SAVE 0 0) (INTEGER 4 0 0
INTEGER ()) 0 0 () (CONSTANT (INTEGER 4 0 0 INTEGER ()) 0 '2') () 0 () ()
() 0 0)
312 'mpi_source' 'mpi_constants' 'mpi_source' 1 ((PARAMETER
UNKNOWN-INTENT UNKNOWN-PROC UNKNOWN IMPLICIT-SAVE 0 0) (INTEGER 4 0 0
INTEGER ()) 0 0 () (CONSTANT (INTEGER 4 0 0 INTEGER ()) 0 '3') () 0 () ()
() 0 0)
313 'mpi_status' 'mpi_constants' 'mpi_status' 1 ((DERIVED UNKNOWN-INTENT
UNKNOWN-PROC UNKNOWN UNKNOWN 0 0 SEQUENCE) (UNKNOWN 0 0 0 UNKNOWN ()) 0
0 () () 0 ((314 'mpi_source' (INTEGER 4 0 0 INTEGER ()) () (UNKNOWN-FL
UNKNOWN-INTENT UNKNOWN-PROC UNKNOWN UNKNOWN 0 0) UNKNOWN-ACCESS ()) (
315 'mpi_tag' (INTEGER 4 0 0 INTEGER ()) () (UNKNOWN-FL UNKNOWN-INTENT
UNKNOWN-PROC UNKNOWN UNKNOWN 0 0) UNKNOWN-ACCESS ()) (316 'mpi_error' (
INTEGER 4 0 0 INTEGER ()) () (UNKNOWN-FL UNKNOWN-INTENT UNKNOWN-PROC
UNKNOWN UNKNOWN 0 0) UNKNOWN-ACCESS ()) (317 'count_lo' (INTEGER 4 0 0
INTEGER ()) () (UNKNOWN-FL UNKNOWN-INTENT UNKNOWN-PROC UNKNOWN UNKNOWN 0
0) UNKNOWN-ACCESS ()) (318 'count_hi_and_cancelled' (INTEGER 4 0 0
INTEGER ()) () (UNKNOWN-FL UNKNOWN-INTENT UNKNOWN-PROC UNKNOWN UNKNOWN 0
0) UNKNOWN-ACCESS ())) PUBLIC (() () () ()) () 0 0 5819988)
222 'mpi_status_ignore' 'mpi_constants' 'mpi_status_ignore' 1 ((
VARIABLE UNKNOWN-INTENT UNKNOWN-PROC UNKNOWN UNKNOWN 0 0 DIMENSION
IN_COMMON) (INTEGER 4 0 0 INTEGER ()) 0 0 () (1 0 EXPLICIT (CONSTANT (
INTEGER 4 0 0 INTEGER ()) 0 '1') (CONSTANT (INTEGER 4 0 0 INTEGER ()) 0
'5')) 0 () () () 0 0)
319 'mpi_status_size' 'mpi_constants' 'mpi_status_size' 1 ((PARAMETER
UNKNOWN-INTENT UNKNOWN-PROC UNKNOWN IMPLICIT-SAVE 0 0) (INTEGER 4 0 0
INTEGER ()) 0 0 () (CONSTANT (INTEGER 4 0 0 INTEGER ()) 0 '5') () 0 () ()
() 0 0)
25 'mpi_statuses_ignore' 'mpi_constants' 'mpi_statuses_ignore' 1 ((
VARIABLE UNKNOWN-INTENT UNKNOWN-PROC UNKNOWN UNKNOWN 0 0 DIMENSION
IN_COMMON) (INTEGER 4 0 0 INTEGER ()) 0 203 () (2 0 EXPLICIT (CONSTANT (
INTEGER 4 0 0 INTEGER ()) 0 '1') (CONSTANT (INTEGER 4 0 0 INTEGER ()) 0
'5') (CONSTANT (INTEGER 4 0 0 INTEGER ()) 0 '1') (CONSTANT (INTEGER 4 0
0 INTEGER ()) 0 '1')) 0 () () () 0 0)
320 'mpi_subarrays_supported' 'mpi_constants' 'mpi_subarrays_supported'
1 ((PARAMETER UNKNOWN-INTENT UNKNOWN-PROC UNKNOWN IMPLICIT-SAVE 0 0) (
LOGICAL 4 0 0 LOGICAL ()) 0 0 () (CONSTANT (LOGICAL 4 0 0 LOGICAL ()) 0
0) () 0 () () () 0 0)
321 'mpi_subversion' 'mpi_constants' 'mpi_subversion' 1 ((PARAMETER
UNKNOWN-INTENT UNKNOWN-PROC UNKNOWN IMPLICIT-SAVE 0 0) (INTEGER 4 0 0
INTEGER ()) 0 0 () (CONSTANT (INTEGER 4 0 0 INTEGER ()) 0 '0') () 0 () ()
() 0 0)
322 'mpi_success' 'mpi_constants' 'mpi_success' 1 ((PARAMETER
UNKNOWN-INTENT UNKNOWN-PROC UNKNOWN IMPLICIT-SAVE 0 0) (INTEGER 4 0 0
INTEGER ()) 0 0 () (CONSTANT (INTEGER 4 0 0 INTEGER ()) 0 '0') () 0 () ()
() 0 0)
323 'mpi_sum' 'mpi_constants' 'mpi_sum' 1 ((PARAMETER UNKNOWN-INTENT
UNKNOWN-PROC UNKNOWN IMPLICIT-SAVE 0 0) (INTEGER 4 0 0 INTEGER ()) 0 0 ()
(CONSTANT (INTEGER 4 0 0 INTEGER ()) 0 '1476395011') () 0 () () () 0 0)
324 'mpi_tag' 'mpi_constants' 'mpi_tag' 1 ((PARAMETER UNKNOWN-INTENT
UNKNOWN-PROC UNKNOWN IMPLICIT-SAVE 0 0) (INTEGER 4 0 0 INTEGER ()) 0 0 ()
(CONSTANT (INTEGER 4 0 0 INTEGER ()) 0 '4') () 0 () () () 0 0)
325 'mpi_tag_ub' 'mpi_constants' 'mpi_tag_ub' 1 ((PARAMETER
UNKNOWN-INTENT UNKNOWN-PROC UNKNOWN IMPLICIT-SAVE 0 0) (INTEGER 4 0 0
INTEGER ()) 0 0 () (CONSTANT (INTEGER 4 0 0 INTEGER ()) 0 '1681915906')
() 0 () () () 0 0)
326 'mpi_thread_funneled' 'mpi_constants' 'mpi_thread_funneled' 1 ((
PARAMETER UNKNOWN-INTENT UNKNOWN-PROC UNKNOWN IMPLICIT-SAVE 0 0) (
INTEGER 4 0 0 INTEGER ()) 0 0 () (CONSTANT (INTEGER 4 0 0 INTEGER ()) 0
'1') () 0 () () () 0 0)
327 'mpi_thread_multiple' 'mpi_constants' 'mpi_thread_multiple' 1 ((
PARAMETER UNKNOWN-INTENT UNKNOWN-PROC UNKNOWN IMPLICIT-SAVE 0 0) (
INTEGER 4 0 0 INTEGER ()) 0 0 () (CONSTANT (INTEGER 4 0 0 INTEGER ()) 0
'3') () 0 () () () 0 0)
328 'mpi_thread_serialized' 'mpi_constants' 'mpi_thread_serialized' 1 (
(PARAMETER UNKNOWN-INTENT UNKNOWN-PROC UNKNOWN IMPLICIT-SAVE 0 0) (
INTEGER 4 0 0 INTEGER ()) 0 0 () (CONSTANT (INTEGER 4 0 0 INTEGER ()) 0
'2') () 0 () () () 0 0)
329 'mpi_thread_single' 'mpi_constants' 'mpi_thread_single' 1 ((
PARAMETER UNKNOWN-INTENT UNKNOWN-PROC UNKNOWN IMPLICIT-SAVE 0 0) (
INTEGER 4 0 0 INTEGER ()) 0 0 () (CONSTANT (INTEGER 4 0 0 INTEGER ()) 0
'0') () 0 () () () 0 0)
330 'mpi_typeclass_complex' 'mpi_constants' 'mpi_typeclass_complex' 1 (
(PARAMETER UNKNOWN-INTENT UNKNOWN-PROC UNKNOWN IMPLICIT-SAVE 0 0) (
INTEGER 4 0 0 INTEGER ()) 0 0 () (CONSTANT (INTEGER 4 0 0 INTEGER ()) 0
'3') () 0 () () () 0 0)
331 'mpi_typeclass_integer' 'mpi_constants' 'mpi_typeclass_integer' 1 (
(PARAMETER UNKNOWN-INTENT UNKNOWN-PROC UNKNOWN IMPLICIT-SAVE 0 0) (
INTEGER 4 0 0 INTEGER ()) 0 0 () (CONSTANT (INTEGER 4 0 0 INTEGER ()) 0
'2') () 0 () () () 0 0)
332 'mpi_typeclass_real' 'mpi_constants' 'mpi_typeclass_real' 1 ((
PARAMETER UNKNOWN-INTENT UNKNOWN-PROC UNKNOWN IMPLICIT-SAVE 0 0) (
INTEGER 4 0 0 INTEGER ()) 0 0 () (CONSTANT (INTEGER 4 0 0 INTEGER ()) 0
'1') () 0 () () () 0 0)
333 'mpi_ub' 'mpi_constants' 'mpi_ub' 1 ((PARAMETER UNKNOWN-INTENT
UNKNOWN-PROC UNKNOWN IMPLICIT-SAVE 0 0) (INTEGER 4 0 0 INTEGER ()) 0 0 ()
(CONSTANT (INTEGER 4 0 0 INTEGER ()) 0 '1275068433') () 0 () () () 0 0)
334 'mpi_uint16_t' 'mpi_constants' 'mpi_uint16_t' 1 ((PARAMETER
UNKNOWN-INTENT UNKNOWN-PROC UNKNOWN IMPLICIT-SAVE 0 0) (INTEGER 4 0 0
INTEGER ()) 0 0 () (CONSTANT (INTEGER 4 0 0 INTEGER ()) 0 '1275068988')
() 0 () () () 0 0)
335 'mpi_uint32_t' 'mpi_constants' 'mpi_uint32_t' 1 ((PARAMETER
UNKNOWN-INTENT UNKNOWN-PROC UNKNOWN IMPLICIT-SAVE 0 0) (INTEGER 4 0 0
INTEGER ()) 0 0 () (CONSTANT (INTEGER 4 0 0 INTEGER ()) 0 '1275069501')
() 0 () () () 0 0)
336 'mpi_uint64_t' 'mpi_constants' 'mpi_uint64_t' 1 ((PARAMETER
UNKNOWN-INTENT UNKNOWN-PROC UNKNOWN IMPLICIT-SAVE 0 0) (INTEGER 4 0 0
INTEGER ()) 0 0 () (CONSTANT (INTEGER 4 0 0 INTEGER ()) 0 '1275070526')
() 0 () () () 0 0)
337 'mpi_uint8_t' 'mpi_constants' 'mpi_uint8_t' 1 ((PARAMETER
UNKNOWN-INTENT UNKNOWN-PROC UNKNOWN IMPLICIT-SAVE 0 0) (INTEGER 4 0 0
INTEGER ()) 0 0 () (CONSTANT (INTEGER 4 0 0 INTEGER ()) 0 '1275068731')
() 0 () () () 0 0)
338 'mpi_undefined' 'mpi_constants' 'mpi_undefined' 1 ((PARAMETER
UNKNOWN-INTENT UNKNOWN-PROC UNKNOWN IMPLICIT-SAVE 0 0) (INTEGER 4 0 0
INTEGER ()) 0 0 () (CONSTANT (INTEGER 4 0 0 INTEGER ()) 0 '-32766') () 0
() () () 0 0)
339 'mpi_unequal' 'mpi_constants' 'mpi_unequal' 1 ((PARAMETER
UNKNOWN-INTENT UNKNOWN-PROC UNKNOWN IMPLICIT-SAVE 0 0) (INTEGER 4 0 0
INTEGER ()) 0 0 () (CONSTANT (INTEGER 4 0 0 INTEGER ()) 0 '3') () 0 () ()
() 0 0)
340 'mpi_universe_size' 'mpi_constants' 'mpi_universe_size' 1 ((
PARAMETER UNKNOWN-INTENT UNKNOWN-PROC UNKNOWN IMPLICIT-SAVE 0 0) (
INTEGER 4 0 0 INTEGER ()) 0 0 () (CONSTANT (INTEGER 4 0 0 INTEGER ()) 0
'1681915914') () 0 () () () 0 0)
341 'mpi_unsigned' 'mpi_constants' 'mpi_unsigned' 1 ((PARAMETER
UNKNOWN-INTENT UNKNOWN-PROC UNKNOWN IMPLICIT-SAVE 0 0) (INTEGER 4 0 0
INTEGER ()) 0 0 () (CONSTANT (INTEGER 4 0 0 INTEGER ()) 0 '1275069446')
() 0 () () () 0 0)
342 'mpi_unsigned_char' 'mpi_constants' 'mpi_unsigned_char' 1 ((
PARAMETER UNKNOWN-INTENT UNKNOWN-PROC UNKNOWN IMPLICIT-SAVE 0 0) (
INTEGER 4 0 0 INTEGER ()) 0 0 () (CONSTANT (INTEGER 4 0 0 INTEGER ()) 0
'1275068674') () 0 () () () 0 0)
343 'mpi_unsigned_long' 'mpi_constants' 'mpi_unsigned_long' 1 ((
PARAMETER UNKNOWN-INTENT UNKNOWN-PROC UNKNOWN IMPLICIT-SAVE 0 0) (
INTEGER 4 0 0 INTEGER ()) 0 0 () (CONSTANT (INTEGER 4 0 0 INTEGER ()) 0
'1275069448') () 0 () () () 0 0)
344 'mpi_unsigned_long_long' 'mpi_constants' 'mpi_unsigned_long_long' 1
((PARAMETER UNKNOWN-INTENT UNKNOWN-PROC UNKNOWN IMPLICIT-SAVE 0 0) (
INTEGER 4 0 0 INTEGER ()) 0 0 () (CONSTANT (INTEGER 4 0 0 INTEGER ()) 0
'1275070489') () 0 () () () 0 0)
345 'mpi_unsigned_short' 'mpi_constants' 'mpi_unsigned_short' 1 ((
PARAMETER UNKNOWN-INTENT UNKNOWN-PROC UNKNOWN IMPLICIT-SAVE 0 0) (
INTEGER 4 0 0 INTEGER ()) 0 0 () (CONSTANT (INTEGER 4 0 0 INTEGER ()) 0
'1275068932') () 0 () () () 0 0)
22 'mpi_unweighted' 'mpi_constants' 'mpi_unweighted' 1 ((VARIABLE
UNKNOWN-INTENT UNKNOWN-PROC UNKNOWN UNKNOWN 0 0 IN_COMMON) (INTEGER 4 0
0 INTEGER ()) 0 0 () () 0 () () () 0 0)
346 'mpi_version' 'mpi_constants' 'mpi_version' 1 ((PARAMETER
UNKNOWN-INTENT UNKNOWN-PROC UNKNOWN IMPLICIT-SAVE 0 0) (INTEGER 4 0 0
INTEGER ()) 0 0 () (CONSTANT (INTEGER 4 0 0 INTEGER ()) 0 '3') () 0 () ()
() 0 0)
347 'mpi_wchar' 'mpi_constants' 'mpi_wchar' 1 ((PARAMETER UNKNOWN-INTENT
UNKNOWN-PROC UNKNOWN IMPLICIT-SAVE 0 0) (INTEGER 4 0 0 INTEGER ()) 0 0 ()
(CONSTANT (INTEGER 4 0 0 INTEGER ()) 0 '1275069454') () 0 () () () 0 0)
23 'mpi_weights_empty' 'mpi_constants' 'mpi_weights_empty' 1 ((VARIABLE
UNKNOWN-INTENT UNKNOWN-PROC UNKNOWN UNKNOWN 0 0 IN_COMMON) (INTEGER 4 0
0 INTEGER ()) 0 0 () () 0 () () () 0 0)
348 'mpi_win' 'mpi_constants' 'mpi_win' 1 ((DERIVED UNKNOWN-INTENT
UNKNOWN-PROC UNKNOWN UNKNOWN 0 0 SEQUENCE) (UNKNOWN 0 0 0 UNKNOWN ()) 0
0 () () 0 ((349 'mpi_val' (INTEGER 4 0 0 INTEGER ()) () (UNKNOWN-FL
UNKNOWN-INTENT UNKNOWN-PROC UNKNOWN UNKNOWN 0 0) UNKNOWN-ACCESS ()))
PUBLIC (() () () ()) () 0 0 37378874)
350 'mpi_win_base' 'mpi_constants' 'mpi_win_base' 1 ((PARAMETER
UNKNOWN-INTENT UNKNOWN-PROC UNKNOWN IMPLICIT-SAVE 0 0) (INTEGER 4 0 0
INTEGER ()) 0 0 () (CONSTANT (INTEGER 4 0 0 INTEGER ()) 0 '1711276034')
() 0 () () () 0 0)
351 'mpi_win_create_flavor' 'mpi_constants' 'mpi_win_create_flavor' 1 (
(PARAMETER UNKNOWN-INTENT UNKNOWN-PROC UNKNOWN IMPLICIT-SAVE 0 0) (
INTEGER 4 0 0 INTEGER ()) 0 0 () (CONSTANT (INTEGER 4 0 0 INTEGER ()) 0
'1711276040') () 0 () () () 0 0)
352 'mpi_win_disp_unit' 'mpi_constants' 'mpi_win_disp_unit' 1 ((
PARAMETER UNKNOWN-INTENT UNKNOWN-PROC UNKNOWN IMPLICIT-SAVE 0 0) (
INTEGER 4 0 0 INTEGER ()) 0 0 () (CONSTANT (INTEGER 4 0 0 INTEGER ()) 0
'1711276038') () 0 () () () 0 0)
353 'mpi_win_flavor_allocate' 'mpi_constants' 'mpi_win_flavor_allocate'
1 ((PARAMETER UNKNOWN-INTENT UNKNOWN-PROC UNKNOWN IMPLICIT-SAVE 0 0) (
INTEGER 4 0 0 INTEGER ()) 0 0 () (CONSTANT (INTEGER 4 0 0 INTEGER ()) 0
'2') () 0 () () () 0 0)
354 'mpi_win_flavor_create' 'mpi_constants' 'mpi_win_flavor_create' 1 (
(PARAMETER UNKNOWN-INTENT UNKNOWN-PROC UNKNOWN IMPLICIT-SAVE 0 0) (
INTEGER 4 0 0 INTEGER ()) 0 0 () (CONSTANT (INTEGER 4 0 0 INTEGER ()) 0
'1') () 0 () () () 0 0)
355 'mpi_win_flavor_dynamic' 'mpi_constants' 'mpi_win_flavor_dynamic' 1
((PARAMETER UNKNOWN-INTENT UNKNOWN-PROC UNKNOWN IMPLICIT-SAVE 0 0) (
INTEGER 4 0 0 INTEGER ()) 0 0 () (CONSTANT (INTEGER 4 0 0 INTEGER ()) 0
'3') () 0 () () () 0 0)
356 'mpi_win_flavor_shared' 'mpi_constants' 'mpi_win_flavor_shared' 1 (
(PARAMETER UNKNOWN-INTENT UNKNOWN-PROC UNKNOWN IMPLICIT-SAVE 0 0) (
INTEGER 4 0 0 INTEGER ()) 0 0 () (CONSTANT (INTEGER 4 0 0 INTEGER ()) 0
'4') () 0 () () () 0 0)
357 'mpi_win_model' 'mpi_constants' 'mpi_win_model' 1 ((PARAMETER
UNKNOWN-INTENT UNKNOWN-PROC UNKNOWN IMPLICIT-SAVE 0 0) (INTEGER 4 0 0
INTEGER ()) 0 0 () (CONSTANT (INTEGER 4 0 0 INTEGER ()) 0 '1711276042')
() 0 () () () 0 0)
358 'mpi_win_null' 'mpi_constants' 'mpi_win_null' 1 ((PARAMETER
UNKNOWN-INTENT UNKNOWN-PROC UNKNOWN IMPLICIT-SAVE 0 0) (INTEGER 4 0 0
INTEGER ()) 0 0 () (CONSTANT (INTEGER 4 0 0 INTEGER ()) 0 '536870912') ()
0 () () () 0 0)
359 'mpi_win_separate' 'mpi_constants' 'mpi_win_separate' 1 ((PARAMETER
UNKNOWN-INTENT UNKNOWN-PROC UNKNOWN IMPLICIT-SAVE 0 0) (INTEGER 4 0 0
INTEGER ()) 0 0 () (CONSTANT (INTEGER 4 0 0 INTEGER ()) 0 '1') () 0 () ()
() 0 0)
360 'mpi_win_size' 'mpi_constants' 'mpi_win_size' 1 ((PARAMETER
UNKNOWN-INTENT UNKNOWN-PROC UNKNOWN IMPLICIT-SAVE 0 0) (INTEGER 4 0 0
INTEGER ()) 0 0 () (CONSTANT (INTEGER 4 0 0 INTEGER ()) 0 '1711276036')
() 0 () () () 0 0)
361 'mpi_win_unified' 'mpi_constants' 'mpi_win_unified' 1 ((PARAMETER
UNKNOWN-INTENT UNKNOWN-PROC UNKNOWN IMPLICIT-SAVE 0 0) (INTEGER 4 0 0
INTEGER ()) 0 0 () (CONSTANT (INTEGER 4 0 0 INTEGER ()) 0 '2') () 0 () ()
() 0 0)
362 'mpi_wtime_is_global' 'mpi_constants' 'mpi_wtime_is_global' 1 ((
PARAMETER UNKNOWN-INTENT UNKNOWN-PROC UNKNOWN IMPLICIT-SAVE 0 0) (
INTEGER 4 0 0 INTEGER ()) 0 0 () (CONSTANT (INTEGER 4 0 0 INTEGER ()) 0
'1681915912') () 0 () () () 0 0)
2 'opeq' 'mpi_constants' 'opeq' 1 ((PROCEDURE UNKNOWN-INTENT MODULE-PROC
DECL UNKNOWN 0 0 FUNCTION IMPLICIT_PURE) (LOGICAL 4 0 0 LOGICAL ()) 363
0 (364 365) () 2 () () () 0 0)
12 'opneq' 'mpi_constants' 'opneq' 1 ((PROCEDURE UNKNOWN-INTENT
MODULE-PROC DECL UNKNOWN 0 0 FUNCTION IMPLICIT_PURE) (LOGICAL 4 0 0
LOGICAL ()) 366 0 (367 368) () 12 () () () 0 0)
10 'requesteq' 'mpi_constants' 'requesteq' 1 ((PROCEDURE UNKNOWN-INTENT
MODULE-PROC DECL UNKNOWN 0 0 FUNCTION IMPLICIT_PURE) (LOGICAL 4 0 0
LOGICAL ()) 369 0 (370 371) () 10 () () () 0 0)
20 'requestneq' 'mpi_constants' 'requestneq' 1 ((PROCEDURE
UNKNOWN-INTENT MODULE-PROC DECL UNKNOWN 0 0 FUNCTION IMPLICIT_PURE) (
LOGICAL 4 0 0 LOGICAL ()) 372 0 (373 374) () 20 () () () 0 0)
8 'wineq' 'mpi_constants' 'wineq' 1 ((PROCEDURE UNKNOWN-INTENT
MODULE-PROC DECL UNKNOWN 0 0 FUNCTION IMPLICIT_PURE) (LOGICAL 4 0 0
LOGICAL ()) 375 0 (376 377) () 8 () () () 0 0)
18 'winneq' 'mpi_constants' 'winneq' 1 ((PROCEDURE UNKNOWN-INTENT
MODULE-PROC DECL UNKNOWN 0 0 FUNCTION IMPLICIT_PURE) (LOGICAL 4 0 0
LOGICAL ()) 378 0 (379 380) () 18 () () () 0 0)
59 'lhs' '' 'lhs' 58 ((VARIABLE IN UNKNOWN-PROC UNKNOWN UNKNOWN 0 0
DUMMY) (DERIVED 223 0 0 DERIVED ()) 0 0 () () 0 () () () 0 0)
60 'rhs' '' 'rhs' 58 ((VARIABLE IN UNKNOWN-PROC UNKNOWN UNKNOWN 0 0
DUMMY) (DERIVED 223 0 0 DERIVED ()) 0 0 () () 0 () () () 0 0)
62 'lhs' '' 'lhs' 61 ((VARIABLE IN UNKNOWN-PROC UNKNOWN UNKNOWN 0 0
DUMMY) (DERIVED 223 0 0 DERIVED ()) 0 0 () () 0 () () () 0 0)
63 'rhs' '' 'rhs' 61 ((VARIABLE IN UNKNOWN-PROC UNKNOWN UNKNOWN 0 0
DUMMY) (DERIVED 223 0 0 DERIVED ()) 0 0 () () 0 () () () 0 0)
370 'lhs' '' 'lhs' 369 ((VARIABLE IN UNKNOWN-PROC UNKNOWN UNKNOWN 0 0
DUMMY) (DERIVED 301 0 0 DERIVED ()) 0 0 () () 0 () () () 0 0)
371 'rhs' '' 'rhs' 369 ((VARIABLE IN UNKNOWN-PROC UNKNOWN UNKNOWN 0 0
DUMMY) (DERIVED 301 0 0 DERIVED ()) 0 0 () () 0 () () () 0 0)
373 'lhs' '' 'lhs' 372 ((VARIABLE IN UNKNOWN-PROC UNKNOWN UNKNOWN 0 0
DUMMY) (DERIVED 301 0 0 DERIVED ()) 0 0 () () 0 () () () 0 0)
374 'rhs' '' 'rhs' 372 ((VARIABLE IN UNKNOWN-PROC UNKNOWN UNKNOWN 0 0
DUMMY) (DERIVED 301 0 0 DERIVED ()) 0 0 () () 0 () () () 0 0)
29 'lhs' '' 'lhs' 28 ((VARIABLE IN UNKNOWN-PROC UNKNOWN UNKNOWN 0 0
DUMMY) (DERIVED 114 0 0 DERIVED ()) 0 0 () () 0 () () () 0 0)
30 'rhs' '' 'rhs' 28 ((VARIABLE IN UNKNOWN-PROC UNKNOWN UNKNOWN 0 0
DUMMY) (DERIVED 114 0 0 DERIVED ()) 0 0 () () 0 () () () 0 0)
32 'lhs' '' 'lhs' 31 ((VARIABLE IN UNKNOWN-PROC UNKNOWN UNKNOWN 0 0
DUMMY) (DERIVED 114 0 0 DERIVED ()) 0 0 () () 0 () () () 0 0)
33 'rhs' '' 'rhs' 31 ((VARIABLE IN UNKNOWN-PROC UNKNOWN UNKNOWN 0 0
DUMMY) (DERIVED 114 0 0 DERIVED ()) 0 0 () () 0 () () () 0 0)
376 'lhs' '' 'lhs' 375 ((VARIABLE IN UNKNOWN-PROC UNKNOWN UNKNOWN 0 0
DUMMY) (DERIVED 348 0 0 DERIVED ()) 0 0 () () 0 () () () 0 0)
377 'rhs' '' 'rhs' 375 ((VARIABLE IN UNKNOWN-PROC UNKNOWN UNKNOWN 0 0
DUMMY) (DERIVED 348 0 0 DERIVED ()) 0 0 () () 0 () () () 0 0)
379 'lhs' '' 'lhs' 378 ((VARIABLE IN UNKNOWN-PROC UNKNOWN UNKNOWN 0 0
DUMMY) (DERIVED 348 0 0 DERIVED ()) 0 0 () () 0 () () () 0 0)
380 'rhs' '' 'rhs' 378 ((VARIABLE IN UNKNOWN-PROC UNKNOWN UNKNOWN 0 0
DUMMY) (DERIVED 348 0 0 DERIVED ()) 0 0 () () 0 () () () 0 0)
47 'lhs' '' 'lhs' 46 ((VARIABLE IN UNKNOWN-PROC UNKNOWN UNKNOWN 0 0
DUMMY) (DERIVED 210 0 0 DERIVED ()) 0 0 () () 0 () () () 0 0)
48 'rhs' '' 'rhs' 46 ((VARIABLE IN UNKNOWN-PROC UNKNOWN UNKNOWN 0 0
DUMMY) (DERIVED 210 0 0 DERIVED ()) 0 0 () () 0 () () () 0 0)
50 'lhs' '' 'lhs' 49 ((VARIABLE IN UNKNOWN-PROC UNKNOWN UNKNOWN 0 0
DUMMY) (DERIVED 210 0 0 DERIVED ()) 0 0 () () 0 () () () 0 0)
51 'rhs' '' 'rhs' 49 ((VARIABLE IN UNKNOWN-PROC UNKNOWN UNKNOWN 0 0
DUMMY) (DERIVED 210 0 0 DERIVED ()) 0 0 () () 0 () () () 0 0)
65 'lhs' '' 'lhs' 64 ((VARIABLE IN UNKNOWN-PROC UNKNOWN UNKNOWN 0 0
DUMMY) (DERIVED 265 0 0 DERIVED ()) 0 0 () () 0 () () () 0 0)
66 'rhs' '' 'rhs' 64 ((VARIABLE IN UNKNOWN-PROC UNKNOWN UNKNOWN 0 0
DUMMY) (DERIVED 265 0 0 DERIVED ()) 0 0 () () 0 () () () 0 0)
68 'lhs' '' 'lhs' 67 ((VARIABLE IN UNKNOWN-PROC UNKNOWN UNKNOWN 0 0
DUMMY) (DERIVED 265 0 0 DERIVED ()) 0 0 () () 0 () () () 0 0)
69 'rhs' '' 'rhs' 67 ((VARIABLE IN UNKNOWN-PROC UNKNOWN UNKNOWN 0 0
DUMMY) (DERIVED 265 0 0 DERIVED ()) 0 0 () () 0 () () () 0 0)
41 'lhs' '' 'lhs' 40 ((VARIABLE IN UNKNOWN-PROC UNKNOWN UNKNOWN 0 0
DUMMY) (DERIVED 204 0 0 DERIVED ()) 0 0 () () 0 () () () 0 0)
42 'rhs' '' 'rhs' 40 ((VARIABLE IN UNKNOWN-PROC UNKNOWN UNKNOWN 0 0
DUMMY) (DERIVED 204 0 0 DERIVED ()) 0 0 () () 0 () () () 0 0)
44 'lhs' '' 'lhs' 43 ((VARIABLE IN UNKNOWN-PROC UNKNOWN UNKNOWN 0 0
DUMMY) (DERIVED 204 0 0 DERIVED ()) 0 0 () () 0 () () () 0 0)
45 'rhs' '' 'rhs' 43 ((VARIABLE IN UNKNOWN-PROC UNKNOWN UNKNOWN 0 0
DUMMY) (DERIVED 204 0 0 DERIVED ()) 0 0 () () 0 () () () 0 0)
53 'lhs' '' 'lhs' 52 ((VARIABLE IN UNKNOWN-PROC UNKNOWN UNKNOWN 0 0
DUMMY) (DERIVED 216 0 0 DERIVED ()) 0 0 () () 0 () () () 0 0)
54 'rhs' '' 'rhs' 52 ((VARIABLE IN UNKNOWN-PROC UNKNOWN UNKNOWN 0 0
DUMMY) (DERIVED 216 0 0 DERIVED ()) 0 0 () () 0 () () () 0 0)
56 'lhs' '' 'lhs' 55 ((VARIABLE IN UNKNOWN-PROC UNKNOWN UNKNOWN 0 0
DUMMY) (DERIVED 216 0 0 DERIVED ()) 0 0 () () 0 () () () 0 0)
57 'rhs' '' 'rhs' 55 ((VARIABLE IN UNKNOWN-PROC UNKNOWN UNKNOWN 0 0
DUMMY) (DERIVED 216 0 0 DERIVED ()) 0 0 () () 0 () () () 0 0)
35 'lhs' '' 'lhs' 34 ((VARIABLE IN UNKNOWN-PROC UNKNOWN UNKNOWN 0 0
DUMMY) (DERIVED 132 0 0 DERIVED ()) 0 0 () () 0 () () () 0 0)
36 'rhs' '' 'rhs' 34 ((VARIABLE IN UNKNOWN-PROC UNKNOWN UNKNOWN 0 0
DUMMY) (DERIVED 132 0 0 DERIVED ()) 0 0 () () 0 () () () 0 0)
38 'lhs' '' 'lhs' 37 ((VARIABLE IN UNKNOWN-PROC UNKNOWN UNKNOWN 0 0
DUMMY) (DERIVED 132 0 0 DERIVED ()) 0 0 () () 0 () () () 0 0)
39 'rhs' '' 'rhs' 37 ((VARIABLE IN UNKNOWN-PROC UNKNOWN UNKNOWN 0 0
DUMMY) (DERIVED 132 0 0 DERIVED ()) 0 0 () () 0 () () () 0 0)
364 'lhs' '' 'lhs' 363 ((VARIABLE IN UNKNOWN-PROC UNKNOWN UNKNOWN 0 0
DUMMY) (DERIVED 288 0 0 DERIVED ()) 0 0 () () 0 () () () 0 0)
365 'rhs' '' 'rhs' 363 ((VARIABLE IN UNKNOWN-PROC UNKNOWN UNKNOWN 0 0
DUMMY) (DERIVED 288 0 0 DERIVED ()) 0 0 () () 0 () () () 0 0)
367 'lhs' '' 'lhs' 366 ((VARIABLE IN UNKNOWN-PROC UNKNOWN UNKNOWN 0 0
DUMMY) (DERIVED 288 0 0 DERIVED ()) 0 0 () () 0 () () () 0 0)
368 'rhs' '' 'rhs' 366 ((VARIABLE IN UNKNOWN-PROC UNKNOWN UNKNOWN 0 0
DUMMY) (DERIVED 288 0 0 DERIVED ()) 0 0 () () 0 () () () 0 0)
)

('__convert_i4_i8' 0 27 'commeq' 0 9 'commneq' 0 19 'datatypeeq' 0 3
'datatypeneq' 0 13 'errhandlereq' 0 5 'errhandlerneq' 0 15 'fileeq' 0 7
'fileneq' 0 17 'groupeq' 0 4 'groupneq' 0 14 'infoeq' 0 11 'infoneq' 0
21 'messageeq' 0 6 'messageneq' 0 16 'mpi_2double_precision' 0 70
'mpi_2int' 0 71 'mpi_2integer' 0 72 'mpi_2real' 0 73 'mpi_address_kind'
0 74 'mpi_aint' 0 75 'mpi_any_source' 0 76 'mpi_any_tag' 0 77 'mpi_appnum'
0 78 'mpi_argv_null' 0 79 'mpi_argvs_null' 0 26
'mpi_async_protects_nonblocking' 0 80 'mpi_band' 0 81 'mpi_bor' 0 82
'mpi_bottom' 0 24 'mpi_bsend_overhead' 0 84 'mpi_bxor' 0 85 'mpi_byte' 0
86 'mpi_c_bool' 0 87 'mpi_c_complex' 0 88 'mpi_c_double_complex' 0 89
'mpi_c_float_complex' 0 90 'mpi_c_long_double_complex' 0 91 'mpi_cart' 0
92 'mpi_char' 0 93 'mpi_character' 0 94 'mpi_combiner_contiguous' 0 95
'mpi_combiner_darray' 0 96 'mpi_combiner_dup' 0 97
'mpi_combiner_f90_complex' 0 98 'mpi_combiner_f90_integer' 0 99
'mpi_combiner_f90_real' 0 100 'mpi_combiner_hindexed' 0 101
'mpi_combiner_hindexed_block' 0 102 'mpi_combiner_hindexed_integer' 0
103 'mpi_combiner_hvector' 0 104 'mpi_combiner_hvector_integer' 0 105
'mpi_combiner_indexed' 0 106 'mpi_combiner_indexed_block' 0 107
'mpi_combiner_named' 0 108 'mpi_combiner_resized' 0 109
'mpi_combiner_struct' 0 110 'mpi_combiner_struct_integer' 0 111
'mpi_combiner_subarray' 0 112 'mpi_combiner_vector' 0 113 'mpi_comm' 0
114 'mpi_comm_null' 0 116 'mpi_comm_self' 0 117 'mpi_comm_type_shared' 0
118 'mpi_comm_world' 0 119 'mpi_complex' 0 120 'mpi_complex16' 0 121
'mpi_complex32' 0 122 'mpi_complex8' 0 123 'mpi_congruent' 0 124
'mpi_constants' 0 125 'mpi_count' 0 126 'mpi_count_kind' 0 127
'mpi_cxx_bool' 0 128 'mpi_cxx_double_complex' 0 129
'mpi_cxx_float_complex' 0 130 'mpi_cxx_long_double_complex' 0 131
'mpi_datatype' 0 132 'mpi_datatype_null' 0 134 'mpi_displacement_current'
0 135 'mpi_dist_graph' 0 136 'mpi_distribute_block' 0 137
'mpi_distribute_cyclic' 0 138 'mpi_distribute_dflt_darg' 0 139
'mpi_distribute_none' 0 140 'mpi_double' 0 141 'mpi_double_complex' 0
142 'mpi_double_int' 0 143 'mpi_double_precision' 0 144 'mpi_err_access'
0 145 'mpi_err_amode' 0 146 'mpi_err_arg' 0 147 'mpi_err_assert' 0 148
'mpi_err_bad_file' 0 149 'mpi_err_base' 0 150 'mpi_err_buffer' 0 151
'mpi_err_comm' 0 152 'mpi_err_conversion' 0 153 'mpi_err_count' 0 154
'mpi_err_dims' 0 155 'mpi_err_disp' 0 156 'mpi_err_dup_datarep' 0 157
'mpi_err_file' 0 158 'mpi_err_file_exists' 0 159 'mpi_err_file_in_use' 0
160 'mpi_err_group' 0 161 'mpi_err_in_status' 0 162 'mpi_err_info' 0 163
'mpi_err_info_key' 0 164 'mpi_err_info_nokey' 0 165 'mpi_err_info_value'
0 166 'mpi_err_intern' 0 167 'mpi_err_io' 0 168 'mpi_err_keyval' 0 169
'mpi_err_lastcode' 0 170 'mpi_err_locktype' 0 171 'mpi_err_name' 0 172
'mpi_err_no_mem' 0 173 'mpi_err_no_space' 0 174 'mpi_err_no_such_file' 0
175 'mpi_err_not_same' 0 176 'mpi_err_op' 0 177 'mpi_err_other' 0 178
'mpi_err_pending' 0 179 'mpi_err_port' 0 180 'mpi_err_quota' 0 181
'mpi_err_rank' 0 182 'mpi_err_read_only' 0 183 'mpi_err_request' 0 184
'mpi_err_rma_attach' 0 185 'mpi_err_rma_conflict' 0 186
'mpi_err_rma_flavor' 0 187 'mpi_err_rma_range' 0 188 'mpi_err_rma_shared'
0 189 'mpi_err_rma_sync' 0 190 'mpi_err_root' 0 191 'mpi_err_service' 0
192 'mpi_err_size' 0 193 'mpi_err_spawn' 0 194 'mpi_err_tag' 0 195
'mpi_err_topology' 0 196 'mpi_err_truncate' 0 197 'mpi_err_type' 0 198
'mpi_err_unknown' 0 199 'mpi_err_unsupported_datarep' 0 200
'mpi_err_unsupported_operation' 0 201 'mpi_err_win' 0 202
'mpi_errcodes_ignore' 0 203 'mpi_errhandler' 0 204 'mpi_errhandler_null'
0 206 'mpi_error' 0 207 'mpi_errors_are_fatal' 0 208 'mpi_errors_return'
0 209 'mpi_file' 0 210 'mpi_file_null' 0 212 'mpi_float' 0 213
'mpi_float_int' 0 214 'mpi_graph' 0 215 'mpi_group' 0 216
'mpi_group_empty' 0 218 'mpi_group_null' 0 219 'mpi_host' 0 220
'mpi_ident' 0 221 'mpi_in_place' 0 83 'mpi_info' 0 223 'mpi_info_env' 0
225 'mpi_info_null' 0 226 'mpi_int' 0 227 'mpi_int16_t' 0 228
'mpi_int32_t' 0 229 'mpi_int64_t' 0 230 'mpi_int8_t' 0 231 'mpi_integer'
0 232 'mpi_integer1' 0 233 'mpi_integer16' 0 234 'mpi_integer2' 0 235
'mpi_integer4' 0 236 'mpi_integer8' 0 237 'mpi_integer_kind' 0 238
'mpi_io' 0 239 'mpi_keyval_invalid' 0 240 'mpi_land' 0 241
'mpi_lastusedcode' 0 242 'mpi_lb' 0 243 'mpi_lock_exclusive' 0 244
'mpi_lock_shared' 0 245 'mpi_logical' 0 246 'mpi_long' 0 247
'mpi_long_double' 0 248 'mpi_long_double_int' 0 249 'mpi_long_int' 0 250
'mpi_long_long' 0 251 'mpi_long_long_int' 0 252 'mpi_lor' 0 253 'mpi_lxor'
0 254 'mpi_max' 0 255 'mpi_max_datarep_string' 0 256
'mpi_max_error_string' 0 257 'mpi_max_info_key' 0 258 'mpi_max_info_val'
0 259 'mpi_max_library_version_string' 0 260 'mpi_max_object_name' 0 261
'mpi_max_port_name' 0 262 'mpi_max_processor_name' 0 263 'mpi_maxloc' 0
264 'mpi_message' 0 265 'mpi_message_no_proc' 0 267 'mpi_message_null' 0
268 'mpi_min' 0 269 'mpi_minloc' 0 270 'mpi_mode_append' 0 271
'mpi_mode_create' 0 272 'mpi_mode_delete_on_close' 0 273 'mpi_mode_excl'
0 274 'mpi_mode_nocheck' 0 275 'mpi_mode_noprecede' 0 276 'mpi_mode_noput'
0 277 'mpi_mode_nostore' 0 278 'mpi_mode_nosucceed' 0 279
'mpi_mode_rdonly' 0 280 'mpi_mode_rdwr' 0 281 'mpi_mode_sequential' 0
282 'mpi_mode_unique_open' 0 283 'mpi_mode_wronly' 0 284 'mpi_no_op' 0
285 'mpi_offset' 0 286 'mpi_offset_kind' 0 287 'mpi_op' 0 288
'mpi_op_null' 0 290 'mpi_order_c' 0 291 'mpi_order_fortran' 0 292
'mpi_packed' 0 293 'mpi_proc_null' 0 294 'mpi_prod' 0 295 'mpi_real' 0
296 'mpi_real16' 0 297 'mpi_real4' 0 298 'mpi_real8' 0 299 'mpi_replace'
0 300 'mpi_request' 0 301 'mpi_request_null' 0 303 'mpi_root' 0 304
'mpi_seek_cur' 0 305 'mpi_seek_end' 0 306 'mpi_seek_set' 0 307 'mpi_short'
0 308 'mpi_short_int' 0 309 'mpi_signed_char' 0 310 'mpi_similar' 0 311
'mpi_source' 0 312 'mpi_status' 0 313 'mpi_status_ignore' 0 222
'mpi_status_size' 0 319 'mpi_statuses_ignore' 0 25
'mpi_subarrays_supported' 0 320 'mpi_subversion' 0 321 'mpi_success' 0
322 'mpi_sum' 0 323 'mpi_tag' 0 324 'mpi_tag_ub' 0 325
'mpi_thread_funneled' 0 326 'mpi_thread_multiple' 0 327
'mpi_thread_serialized' 0 328 'mpi_thread_single' 0 329
'mpi_typeclass_complex' 0 330 'mpi_typeclass_integer' 0 331
'mpi_typeclass_real' 0 332 'mpi_ub' 0 333 'mpi_uint16_t' 0 334
'mpi_uint32_t' 0 335 'mpi_uint64_t' 0 336 'mpi_uint8_t' 0 337
'mpi_undefined' 0 338 'mpi_unequal' 0 339 'mpi_universe_size' 0 340
'mpi_unsigned' 0 341 'mpi_unsigned_char' 0 342 'mpi_unsigned_long' 0 343
'mpi_unsigned_long_long' 0 344 'mpi_unsigned_short' 0 345 'mpi_unweighted'
0 22 'mpi_version' 0 346 'mpi_wchar' 0 347 'mpi_weights_empty' 0 23
'mpi_win' 0 348 'mpi_win_base' 0 350 'mpi_win_create_flavor' 0 351
'mpi_win_disp_unit' 0 352 'mpi_win_flavor_allocate' 0 353
'mpi_win_flavor_create' 0 354 'mpi_win_flavor_dynamic' 0 355
'mpi_win_flavor_shared' 0 356 'mpi_win_model' 0 357 'mpi_win_null' 0 358
'mpi_win_separate' 0 359 'mpi_win_size' 0 360 'mpi_win_unified' 0 361
'mpi_wtime_is_global' 0 362 'opeq' 0 2 'opneq' 0 12 'requesteq' 0 10
'requestneq' 0 20 'wineq' 0 8 'winneq' 0 18)
