GFORTRAN module version '6' created from src/binding/f90/mpi_sizeofs.f90 on Fri May 23 15:44:03 2014
MD5:427bf271c42e188ec07beaadac2744ea -- If you edit this, you'll get what you deserve.

(() () () () () () () () () () () () () () () () () () () () () () () ()
() () ())

()

(('mpi_sizeof' 'mpi_sizeofs' 2 3 4 5 6 7 8 9 10 11 12 13 14 15 16 17 18
19))

()

()

()

(16 'mpi_sizeof_ch' 'mpi_sizeofs' 'mpi_sizeof_ch' 1 ((PROCEDURE
UNKNOWN-INTENT MODULE-PROC DECL UNKNOWN 0 0 SUBROUTINE) (UNKNOWN 0 0 0
UNKNOWN ()) 20 0 (21 22 23) () 0 () () () 0 0)
11 'mpi_sizeof_chv' 'mpi_sizeofs' 'mpi_sizeof_chv' 1 ((PROCEDURE
UNKNOWN-INTENT MODULE-PROC DECL UNKNOWN 0 0 SUBROUTINE) (UNKNOWN 0 0 0
UNKNOWN ()) 24 0 (25 26 27) () 0 () () () 0 0)
15 'mpi_sizeof_cx' 'mpi_sizeofs' 'mpi_sizeof_cx' 1 ((PROCEDURE
UNKNOWN-INTENT MODULE-PROC DECL UNKNOWN 0 0 SUBROUTINE) (UNKNOWN 0 0 0
UNKNOWN ()) 28 0 (29 30 31) () 0 () () () 0 0)
10 'mpi_sizeof_cxv' 'mpi_sizeofs' 'mpi_sizeof_cxv' 1 ((PROCEDURE
UNKNOWN-INTENT MODULE-PROC DECL UNKNOWN 0 0 SUBROUTINE) (UNKNOWN 0 0 0
UNKNOWN ()) 32 0 (33 34 35) () 0 () () () 0 0)
9 'mpi_sizeof_d' 'mpi_sizeofs' 'mpi_sizeof_d' 1 ((PROCEDURE
UNKNOWN-INTENT MODULE-PROC DECL UNKNOWN 0 0 SUBROUTINE) (UNKNOWN 0 0 0
UNKNOWN ()) 36 0 (37 38 39) () 0 () () () 0 0)
8 'mpi_sizeof_dv' 'mpi_sizeofs' 'mpi_sizeof_dv' 1 ((PROCEDURE
UNKNOWN-INTENT MODULE-PROC DECL UNKNOWN 0 0 SUBROUTINE) (UNKNOWN 0 0 0
UNKNOWN ()) 40 0 (41 42 43) () 0 () () () 0 0)
19 'mpi_sizeof_i' 'mpi_sizeofs' 'mpi_sizeof_i' 1 ((PROCEDURE
UNKNOWN-INTENT MODULE-PROC DECL UNKNOWN 0 0 SUBROUTINE) (UNKNOWN 0 0 0
UNKNOWN ()) 44 0 (45 46 47) () 0 () () () 0 0)
7 'mpi_sizeof_i1' 'mpi_sizeofs' 'mpi_sizeof_i1' 1 ((PROCEDURE
UNKNOWN-INTENT MODULE-PROC DECL UNKNOWN 0 0 SUBROUTINE) (UNKNOWN 0 0 0
UNKNOWN ()) 48 0 (49 50 51) () 0 () () () 0 0)
6 'mpi_sizeof_i1v' 'mpi_sizeofs' 'mpi_sizeof_i1v' 1 ((PROCEDURE
UNKNOWN-INTENT MODULE-PROC DECL UNKNOWN 0 0 SUBROUTINE) (UNKNOWN 0 0 0
UNKNOWN ()) 52 0 (53 54 55) () 0 () () () 0 0)
5 'mpi_sizeof_i2' 'mpi_sizeofs' 'mpi_sizeof_i2' 1 ((PROCEDURE
UNKNOWN-INTENT MODULE-PROC DECL UNKNOWN 0 0 SUBROUTINE) (UNKNOWN 0 0 0
UNKNOWN ()) 56 0 (57 58 59) () 0 () () () 0 0)
4 'mpi_sizeof_i2v' 'mpi_sizeofs' 'mpi_sizeof_i2v' 1 ((PROCEDURE
UNKNOWN-INTENT MODULE-PROC DECL UNKNOWN 0 0 SUBROUTINE) (UNKNOWN 0 0 0
UNKNOWN ()) 60 0 (61 62 63) () 0 () () () 0 0)
3 'mpi_sizeof_i8' 'mpi_sizeofs' 'mpi_sizeof_i8' 1 ((PROCEDURE
UNKNOWN-INTENT MODULE-PROC DECL UNKNOWN 0 0 SUBROUTINE) (UNKNOWN 0 0 0
UNKNOWN ()) 64 0 (65 66 67) () 0 () () () 0 0)
2 'mpi_sizeof_i8v' 'mpi_sizeofs' 'mpi_sizeof_i8v' 1 ((PROCEDURE
UNKNOWN-INTENT MODULE-PROC DECL UNKNOWN 0 0 SUBROUTINE) (UNKNOWN 0 0 0
UNKNOWN ()) 68 0 (69 70 71) () 0 () () () 0 0)
14 'mpi_sizeof_iv' 'mpi_sizeofs' 'mpi_sizeof_iv' 1 ((PROCEDURE
UNKNOWN-INTENT MODULE-PROC DECL UNKNOWN 0 0 SUBROUTINE) (UNKNOWN 0 0 0
UNKNOWN ()) 72 0 (73 74 75) () 0 () () () 0 0)
17 'mpi_sizeof_l' 'mpi_sizeofs' 'mpi_sizeof_l' 1 ((PROCEDURE
UNKNOWN-INTENT MODULE-PROC DECL UNKNOWN 0 0 SUBROUTINE) (UNKNOWN 0 0 0
UNKNOWN ()) 76 0 (77 78 79) () 0 () () () 0 0)
12 'mpi_sizeof_lv' 'mpi_sizeofs' 'mpi_sizeof_lv' 1 ((PROCEDURE
UNKNOWN-INTENT MODULE-PROC DECL UNKNOWN 0 0 SUBROUTINE) (UNKNOWN 0 0 0
UNKNOWN ()) 80 0 (81 82 83) () 0 () () () 0 0)
18 'mpi_sizeof_r' 'mpi_sizeofs' 'mpi_sizeof_r' 1 ((PROCEDURE
UNKNOWN-INTENT MODULE-PROC DECL UNKNOWN 0 0 SUBROUTINE) (UNKNOWN 0 0 0
UNKNOWN ()) 84 0 (85 86 87) () 0 () () () 0 0)
13 'mpi_sizeof_rv' 'mpi_sizeofs' 'mpi_sizeof_rv' 1 ((PROCEDURE
UNKNOWN-INTENT MODULE-PROC DECL UNKNOWN 0 0 SUBROUTINE) (UNKNOWN 0 0 0
UNKNOWN ()) 88 0 (89 90 91) () 0 () () () 0 0)
92 'mpi_sizeofs' 'mpi_sizeofs' 'mpi_sizeofs' 1 ((MODULE UNKNOWN-INTENT
UNKNOWN-PROC UNKNOWN UNKNOWN 0 0) (UNKNOWN 0 0 0 UNKNOWN ()) 0 0 () () 0
() () () 0 0)
45 'x' '' 'x' 44 ((VARIABLE UNKNOWN-INTENT UNKNOWN-PROC UNKNOWN UNKNOWN
0 0 DUMMY) (INTEGER 4 0 0 INTEGER ()) 0 0 () () 0 () () () 0 0)
46 'size' '' 'size' 44 ((VARIABLE UNKNOWN-INTENT UNKNOWN-PROC UNKNOWN
UNKNOWN 0 0 DUMMY) (INTEGER 4 0 0 INTEGER ()) 0 0 () () 0 () () () 0 0)
47 'ierror' '' 'ierror' 44 ((VARIABLE UNKNOWN-INTENT UNKNOWN-PROC
UNKNOWN UNKNOWN 0 0 DUMMY) (INTEGER 4 0 0 INTEGER ()) 0 0 () () 0 () ()
() 0 0)
85 'x' '' 'x' 84 ((VARIABLE UNKNOWN-INTENT UNKNOWN-PROC UNKNOWN UNKNOWN
0 0 DUMMY) (REAL 4 0 0 REAL ()) 0 0 () () 0 () () () 0 0)
86 'size' '' 'size' 84 ((VARIABLE UNKNOWN-INTENT UNKNOWN-PROC UNKNOWN
UNKNOWN 0 0 DUMMY) (INTEGER 4 0 0 INTEGER ()) 0 0 () () 0 () () () 0 0)
87 'ierror' '' 'ierror' 84 ((VARIABLE UNKNOWN-INTENT UNKNOWN-PROC
UNKNOWN UNKNOWN 0 0 DUMMY) (INTEGER 4 0 0 INTEGER ()) 0 0 () () 0 () ()
() 0 0)
37 'x' '' 'x' 36 ((VARIABLE UNKNOWN-INTENT UNKNOWN-PROC UNKNOWN UNKNOWN
0 0 DUMMY) (REAL 8 0 0 REAL ()) 0 0 () () 0 () () () 0 0)
38 'size' '' 'size' 36 ((VARIABLE UNKNOWN-INTENT UNKNOWN-PROC UNKNOWN
UNKNOWN 0 0 DUMMY) (INTEGER 4 0 0 INTEGER ()) 0 0 () () 0 () () () 0 0)
39 'ierror' '' 'ierror' 36 ((VARIABLE UNKNOWN-INTENT UNKNOWN-PROC
UNKNOWN UNKNOWN 0 0 DUMMY) (INTEGER 4 0 0 INTEGER ()) 0 0 () () 0 () ()
() 0 0)
77 'x' '' 'x' 76 ((VARIABLE UNKNOWN-INTENT UNKNOWN-PROC UNKNOWN UNKNOWN
0 0 DUMMY) (LOGICAL 4 0 0 LOGICAL ()) 0 0 () () 0 () () () 0 0)
78 'size' '' 'size' 76 ((VARIABLE UNKNOWN-INTENT UNKNOWN-PROC UNKNOWN
UNKNOWN 0 0 DUMMY) (INTEGER 4 0 0 INTEGER ()) 0 0 () () 0 () () () 0 0)
79 'ierror' '' 'ierror' 76 ((VARIABLE UNKNOWN-INTENT UNKNOWN-PROC
UNKNOWN UNKNOWN 0 0 DUMMY) (INTEGER 4 0 0 INTEGER ()) 0 0 () () 0 () ()
() 0 0)
21 'x' '' 'x' 20 ((VARIABLE UNKNOWN-INTENT UNKNOWN-PROC UNKNOWN UNKNOWN
0 0 DUMMY) (CHARACTER 1 0 0 CHARACTER ((CONSTANT (INTEGER 4 0 0 INTEGER
()) 0 '1'))) 0 0 () () 0 () () () 0 0)
22 'size' '' 'size' 20 ((VARIABLE UNKNOWN-INTENT UNKNOWN-PROC UNKNOWN
UNKNOWN 0 0 DUMMY) (INTEGER 4 0 0 INTEGER ()) 0 0 () () 0 () () () 0 0)
23 'ierror' '' 'ierror' 20 ((VARIABLE UNKNOWN-INTENT UNKNOWN-PROC
UNKNOWN UNKNOWN 0 0 DUMMY) (INTEGER 4 0 0 INTEGER ()) 0 0 () () 0 () ()
() 0 0)
29 'x' '' 'x' 28 ((VARIABLE UNKNOWN-INTENT UNKNOWN-PROC UNKNOWN UNKNOWN
0 0 DUMMY) (COMPLEX 4 0 0 COMPLEX ()) 0 0 () () 0 () () () 0 0)
30 'size' '' 'size' 28 ((VARIABLE UNKNOWN-INTENT UNKNOWN-PROC UNKNOWN
UNKNOWN 0 0 DUMMY) (INTEGER 4 0 0 INTEGER ()) 0 0 () () 0 () () () 0 0)
31 'ierror' '' 'ierror' 28 ((VARIABLE UNKNOWN-INTENT UNKNOWN-PROC
UNKNOWN UNKNOWN 0 0 DUMMY) (INTEGER 4 0 0 INTEGER ()) 0 0 () () 0 () ()
() 0 0)
73 'x' '' 'x' 72 ((VARIABLE UNKNOWN-INTENT UNKNOWN-PROC UNKNOWN UNKNOWN
0 0 DIMENSION DUMMY) (INTEGER 4 0 0 INTEGER ()) 0 0 () (1 0 ASSUMED_SIZE
(CONSTANT (INTEGER 4 0 0 INTEGER ()) 0 '1') ()) 0 () () () 0 0)
74 'size' '' 'size' 72 ((VARIABLE UNKNOWN-INTENT UNKNOWN-PROC UNKNOWN
UNKNOWN 0 0 DUMMY) (INTEGER 4 0 0 INTEGER ()) 0 0 () () 0 () () () 0 0)
75 'ierror' '' 'ierror' 72 ((VARIABLE UNKNOWN-INTENT UNKNOWN-PROC
UNKNOWN UNKNOWN 0 0 DUMMY) (INTEGER 4 0 0 INTEGER ()) 0 0 () () 0 () ()
() 0 0)
89 'x' '' 'x' 88 ((VARIABLE UNKNOWN-INTENT UNKNOWN-PROC UNKNOWN UNKNOWN
0 0 DIMENSION DUMMY) (REAL 4 0 0 REAL ()) 0 0 () (1 0 ASSUMED_SIZE (
CONSTANT (INTEGER 4 0 0 INTEGER ()) 0 '1') ()) 0 () () () 0 0)
90 'size' '' 'size' 88 ((VARIABLE UNKNOWN-INTENT UNKNOWN-PROC UNKNOWN
UNKNOWN 0 0 DUMMY) (INTEGER 4 0 0 INTEGER ()) 0 0 () () 0 () () () 0 0)
91 'ierror' '' 'ierror' 88 ((VARIABLE UNKNOWN-INTENT UNKNOWN-PROC
UNKNOWN UNKNOWN 0 0 DUMMY) (INTEGER 4 0 0 INTEGER ()) 0 0 () () 0 () ()
() 0 0)
41 'x' '' 'x' 40 ((VARIABLE UNKNOWN-INTENT UNKNOWN-PROC UNKNOWN UNKNOWN
0 0 DIMENSION DUMMY) (REAL 8 0 0 REAL ()) 0 0 () (1 0 ASSUMED_SIZE (
CONSTANT (INTEGER 4 0 0 INTEGER ()) 0 '1') ()) 0 () () () 0 0)
42 'size' '' 'size' 40 ((VARIABLE UNKNOWN-INTENT UNKNOWN-PROC UNKNOWN
UNKNOWN 0 0 DUMMY) (INTEGER 4 0 0 INTEGER ()) 0 0 () () 0 () () () 0 0)
43 'ierror' '' 'ierror' 40 ((VARIABLE UNKNOWN-INTENT UNKNOWN-PROC
UNKNOWN UNKNOWN 0 0 DUMMY) (INTEGER 4 0 0 INTEGER ()) 0 0 () () 0 () ()
() 0 0)
81 'x' '' 'x' 80 ((VARIABLE UNKNOWN-INTENT UNKNOWN-PROC UNKNOWN UNKNOWN
0 0 DIMENSION DUMMY) (LOGICAL 4 0 0 LOGICAL ()) 0 0 () (1 0 ASSUMED_SIZE
(CONSTANT (INTEGER 4 0 0 INTEGER ()) 0 '1') ()) 0 () () () 0 0)
82 'size' '' 'size' 80 ((VARIABLE UNKNOWN-INTENT UNKNOWN-PROC UNKNOWN
UNKNOWN 0 0 DUMMY) (INTEGER 4 0 0 INTEGER ()) 0 0 () () 0 () () () 0 0)
83 'ierror' '' 'ierror' 80 ((VARIABLE UNKNOWN-INTENT UNKNOWN-PROC
UNKNOWN UNKNOWN 0 0 DUMMY) (INTEGER 4 0 0 INTEGER ()) 0 0 () () 0 () ()
() 0 0)
25 'x' '' 'x' 24 ((VARIABLE UNKNOWN-INTENT UNKNOWN-PROC UNKNOWN UNKNOWN
0 0 DIMENSION DUMMY) (CHARACTER 1 0 0 CHARACTER ((CONSTANT (INTEGER 4 0
0 INTEGER ()) 0 '1'))) 0 0 () (1 0 ASSUMED_SIZE (CONSTANT (INTEGER 4 0 0
INTEGER ()) 0 '1') ()) 0 () () () 0 0)
26 'size' '' 'size' 24 ((VARIABLE UNKNOWN-INTENT UNKNOWN-PROC UNKNOWN
UNKNOWN 0 0 DUMMY) (INTEGER 4 0 0 INTEGER ()) 0 0 () () 0 () () () 0 0)
27 'ierror' '' 'ierror' 24 ((VARIABLE UNKNOWN-INTENT UNKNOWN-PROC
UNKNOWN UNKNOWN 0 0 DUMMY) (INTEGER 4 0 0 INTEGER ()) 0 0 () () 0 () ()
() 0 0)
33 'x' '' 'x' 32 ((VARIABLE UNKNOWN-INTENT UNKNOWN-PROC UNKNOWN UNKNOWN
0 0 DIMENSION DUMMY) (COMPLEX 4 0 0 COMPLEX ()) 0 0 () (1 0 ASSUMED_SIZE
(CONSTANT (INTEGER 4 0 0 INTEGER ()) 0 '1') ()) 0 () () () 0 0)
34 'size' '' 'size' 32 ((VARIABLE UNKNOWN-INTENT UNKNOWN-PROC UNKNOWN
UNKNOWN 0 0 DUMMY) (INTEGER 4 0 0 INTEGER ()) 0 0 () () 0 () () () 0 0)
35 'ierror' '' 'ierror' 32 ((VARIABLE UNKNOWN-INTENT UNKNOWN-PROC
UNKNOWN UNKNOWN 0 0 DUMMY) (INTEGER 4 0 0 INTEGER ()) 0 0 () () 0 () ()
() 0 0)
65 'x' '' 'x' 64 ((VARIABLE UNKNOWN-INTENT UNKNOWN-PROC UNKNOWN UNKNOWN
0 0 DUMMY) (INTEGER 8 0 0 INTEGER ()) 0 0 () () 0 () () () 0 0)
66 'size' '' 'size' 64 ((VARIABLE UNKNOWN-INTENT UNKNOWN-PROC UNKNOWN
UNKNOWN 0 0 DUMMY) (INTEGER 4 0 0 INTEGER ()) 0 0 () () 0 () () () 0 0)
67 'ierror' '' 'ierror' 64 ((VARIABLE UNKNOWN-INTENT UNKNOWN-PROC
UNKNOWN UNKNOWN 0 0 DUMMY) (INTEGER 4 0 0 INTEGER ()) 0 0 () () 0 () ()
() 0 0)
69 'x' '' 'x' 68 ((VARIABLE UNKNOWN-INTENT UNKNOWN-PROC UNKNOWN UNKNOWN
0 0 DIMENSION DUMMY) (INTEGER 8 0 0 INTEGER ()) 0 0 () (1 0 ASSUMED_SIZE
(CONSTANT (INTEGER 4 0 0 INTEGER ()) 0 '1') ()) 0 () () () 0 0)
70 'size' '' 'size' 68 ((VARIABLE UNKNOWN-INTENT UNKNOWN-PROC UNKNOWN
UNKNOWN 0 0 DUMMY) (INTEGER 4 0 0 INTEGER ()) 0 0 () () 0 () () () 0 0)
71 'ierror' '' 'ierror' 68 ((VARIABLE UNKNOWN-INTENT UNKNOWN-PROC
UNKNOWN UNKNOWN 0 0 DUMMY) (INTEGER 4 0 0 INTEGER ()) 0 0 () () 0 () ()
() 0 0)
49 'x' '' 'x' 48 ((VARIABLE UNKNOWN-INTENT UNKNOWN-PROC UNKNOWN UNKNOWN
0 0 DUMMY) (INTEGER 1 0 0 INTEGER ()) 0 0 () () 0 () () () 0 0)
50 'size' '' 'size' 48 ((VARIABLE UNKNOWN-INTENT UNKNOWN-PROC UNKNOWN
UNKNOWN 0 0 DUMMY) (INTEGER 4 0 0 INTEGER ()) 0 0 () () 0 () () () 0 0)
51 'ierror' '' 'ierror' 48 ((VARIABLE UNKNOWN-INTENT UNKNOWN-PROC
UNKNOWN UNKNOWN 0 0 DUMMY) (INTEGER 4 0 0 INTEGER ()) 0 0 () () 0 () ()
() 0 0)
53 'x' '' 'x' 52 ((VARIABLE UNKNOWN-INTENT UNKNOWN-PROC UNKNOWN UNKNOWN
0 0 DIMENSION DUMMY) (INTEGER 1 0 0 INTEGER ()) 0 0 () (1 0 ASSUMED_SIZE
(CONSTANT (INTEGER 4 0 0 INTEGER ()) 0 '1') ()) 0 () () () 0 0)
54 'size' '' 'size' 52 ((VARIABLE UNKNOWN-INTENT UNKNOWN-PROC UNKNOWN
UNKNOWN 0 0 DUMMY) (INTEGER 4 0 0 INTEGER ()) 0 0 () () 0 () () () 0 0)
55 'ierror' '' 'ierror' 52 ((VARIABLE UNKNOWN-INTENT UNKNOWN-PROC
UNKNOWN UNKNOWN 0 0 DUMMY) (INTEGER 4 0 0 INTEGER ()) 0 0 () () 0 () ()
() 0 0)
57 'x' '' 'x' 56 ((VARIABLE UNKNOWN-INTENT UNKNOWN-PROC UNKNOWN UNKNOWN
0 0 DUMMY) (INTEGER 2 0 0 INTEGER ()) 0 0 () () 0 () () () 0 0)
58 'size' '' 'size' 56 ((VARIABLE UNKNOWN-INTENT UNKNOWN-PROC UNKNOWN
UNKNOWN 0 0 DUMMY) (INTEGER 4 0 0 INTEGER ()) 0 0 () () 0 () () () 0 0)
59 'ierror' '' 'ierror' 56 ((VARIABLE UNKNOWN-INTENT UNKNOWN-PROC
UNKNOWN UNKNOWN 0 0 DUMMY) (INTEGER 4 0 0 INTEGER ()) 0 0 () () 0 () ()
() 0 0)
61 'x' '' 'x' 60 ((VARIABLE UNKNOWN-INTENT UNKNOWN-PROC UNKNOWN UNKNOWN
0 0 DIMENSION DUMMY) (INTEGER 2 0 0 INTEGER ()) 0 0 () (1 0 ASSUMED_SIZE
(CONSTANT (INTEGER 4 0 0 INTEGER ()) 0 '1') ()) 0 () () () 0 0)
62 'size' '' 'size' 60 ((VARIABLE UNKNOWN-INTENT UNKNOWN-PROC UNKNOWN
UNKNOWN 0 0 DUMMY) (INTEGER 4 0 0 INTEGER ()) 0 0 () () 0 () () () 0 0)
63 'ierror' '' 'ierror' 60 ((VARIABLE UNKNOWN-INTENT UNKNOWN-PROC
UNKNOWN UNKNOWN 0 0 DUMMY) (INTEGER 4 0 0 INTEGER ()) 0 0 () () 0 () ()
() 0 0)
)

('mpi_sizeof_ch' 0 16 'mpi_sizeof_chv' 0 11 'mpi_sizeof_cx' 0 15
'mpi_sizeof_cxv' 0 10 'mpi_sizeof_d' 0 9 'mpi_sizeof_dv' 0 8
'mpi_sizeof_i' 0 19 'mpi_sizeof_i1' 0 7 'mpi_sizeof_i1v' 0 6
'mpi_sizeof_i2' 0 5 'mpi_sizeof_i2v' 0 4 'mpi_sizeof_i8' 0 3
'mpi_sizeof_i8v' 0 2 'mpi_sizeof_iv' 0 14 'mpi_sizeof_l' 0 17
'mpi_sizeof_lv' 0 12 'mpi_sizeof_r' 0 18 'mpi_sizeof_rv' 0 13
'mpi_sizeofs' 0 92)
