band-mt, 4, 0, 0, 0.058, 0.132
band-mt, 52, 0, 0, 0.058, 1.714
band-mt, 104, 0, 0, 0.053, 3.737
band-mt, 156, 0, 0, 0.058, 5.108
band-mt, 208, 0, 0, 0.053, 7.448
band-mt, 256, 0, 0, 0.053, 9.230
band-mt, 308, 0, 0, 0.058, 10.054
band-mt, 360, 0, 0, 0.054, 12.671
band-mt, 412, 0, 0, 0.059, 13.365
band-mt, 460, 0, 0, 0.059, 14.829
band-mt, 512, 1, 0, 0.055, 17.720
band-mt, 564, 1, 0, 0.060, 17.848
band-mt, 616, 1, 0, 0.056, 20.968
band-mt, 664, 1, 0, 0.056, 22.454
band-mt, 716, 1, 0, 0.061, 22.452
band-mt, 768, 1, 0, 0.056, 26.056
band-mt, 820, 1, 0, 0.062, 25.405
band-mt, 868, 1, 0, 0.062, 26.812
band-mt, 920, 1, 0, 0.058, 30.416
band-mt, 972, 1, 0, 0.062, 29.935
band-mt, 1024, 1, 0, 0.057, 34.072
band-mt, 53400, 52, 0, 0.283, 359.753
band-mt, 105776, 103, 0, 0.499, 404.047
band-mt, 158152, 154, 0, 0.838, 359.918
band-mt, 262908, 257, 0, 1.438, 348.789
band-mt, 315284, 308, 0, 1.676, 358.836
band-mt, 367660, 359, 0, 1.950, 359.528
band-mt, 420040, 410, 0, 2.289, 350.020
band-mt, 472416, 461, 0, 2.532, 355.814
band-mt, 524792, 512, 1, 2.924, 342.274
band-mt, 629548, 615, 1, 3.394, 353.743
band-mt, 681924, 666, 1, 3.720, 349.678
band-mt, 734300, 717, 1, 3.995, 350.597
band-mt, 786676, 768, 1, 4.361, 344.046
band-mt, 839056, 819, 1, 4.557, 351.205
band-mt, 891432, 871, 1, 4.820, 352.726
band-mt, 943808, 922, 1, 5.144, 349.952
band-mt, 996184, 973, 1, 5.424, 350.318
band-mt, 1048576, 1024, 1, 5.698, 351.027
