band-mt, 4, 0, 0, 0.059, 0.129
band-mt, 52, 0, 0, 0.060, 1.666
band-mt, 156, 0, 0, 0.060, 4.937
band-mt, 208, 0, 0, 0.059, 6.747
band-mt, 256, 0, 0, 0.059, 8.330
band-mt, 308, 0, 0, 0.061, 9.658
band-mt, 360, 0, 0, 0.059, 11.569
band-mt, 460, 0, 0, 0.061, 14.294
band-mt, 512, 1, 0, 0.067, 14.676
band-mt, 564, 1, 0, 0.068, 15.731
band-mt, 616, 1, 0, 0.067, 17.609
band-mt, 664, 1, 0, 0.067, 18.981
band-mt, 716, 1, 0, 0.068, 20.079
band-mt, 768, 1, 0, 0.067, 22.014
band-mt, 820, 1, 0, 0.069, 22.810
band-mt, 920, 1, 0, 0.067, 26.154
band-mt, 972, 1, 0, 0.068, 27.111
band-mt, 1024, 1, 0, 0.067, 29.272
band-mt, 53400, 52, 0, 0.258, 394.982
band-mt, 105776, 103, 0, 0.473, 426.564
band-mt, 158152, 154, 0, 0.790, 381.925
band-mt, 210532, 206, 0, 1.025, 391.759
band-mt, 262908, 257, 0, 1.330, 376.965
band-mt, 315284, 308, 0, 1.564, 384.597
band-mt, 367660, 359, 0, 1.800, 389.688
band-mt, 420040, 410, 0, 2.099, 381.711
band-mt, 472416, 461, 0, 2.330, 386.751
band-mt, 524792, 512, 1, 2.635, 379.889
band-mt, 577168, 564, 1, 2.862, 384.603
band-mt, 629548, 615, 1, 3.089, 388.672
band-mt, 681924, 666, 1, 3.384, 384.320
band-mt, 734300, 717, 1, 3.624, 386.456
band-mt, 786676, 768, 1, 3.935, 381.287
band-mt, 839056, 819, 1, 4.141, 386.456
band-mt, 891432, 871, 1, 4.384, 387.795
