{ignore 131017}, 4, 4, 1048576, 2097152, 0.005273, 0.005501, 0.059274, 0.070048
{ignore 131017}, 4, 2, 1048576, 2097152, 0.005247, 0.005467, 0.059611, 0.070325
{ignore 131017}, 4, 1, 1048576, 2097152, 0.005209, 0.005420, 0.059114, 0.069742
{ignore 262063}, 2, 4, 1048576, 2097152, 0.005214, 0.009305, 0.064142, 0.078661
{ignore 262063}, 2, 2, 1048576, 2097152, 0.010245, 0.017658, 0.064864, 0.092767
{ignore 262063}, 2, 1, 1048576, 2097152, 0.010182, 0.017530, 0.065030, 0.092742
{ignore 524441}, 1, 4, 1048576, 2097152, 0.010255, 0.025312, 0.017190, 0.052757
{ignore 524441}, 1, 2, 1048576, 2097152, 0.010505, 0.031434, 0.017261, 0.059200
{ignore 524441}, 1, 1, 1048576, 2097152, 0.020914, 0.059092, 0.017218, 0.097224
{ignore 524699}, 1, 4, 1048576, 1048576, 0.008937, 0.041195, 0.008864, 0.058996
{ignore 524699}, 1, 2, 1048576, 1048576, 0.008965, 0.050766, 0.008797, 0.068527
{ignore 524699}, 1, 1, 1048576, 1048576, 0.017623, 0.097462, 0.008781, 0.123866
{ignore 65665}, 4, 4, 524288, 2097152, 0.003232, 0.004411, 0.060503, 0.068146
{ignore 65665}, 4, 2, 524288, 2097152, 0.003213, 0.004376, 0.060294, 0.067884
{ignore 65665}, 4, 1, 524288, 2097152, 0.003174, 0.004356, 0.060360, 0.067890
{ignore 131567}, 2, 4, 524288, 2097152, 0.006419, 0.008861, 0.064265, 0.079544
{ignore 131567}, 2, 2, 524288, 2097152, 0.006400, 0.008817, 0.063866, 0.079082
{ignore 131567}, 2, 1, 524288, 2097152, 0.006358, 0.008765, 0.064519, 0.079642
{ignore 262346}, 1, 4, 524288, 2097152, 0.006471, 0.018099, 0.017228, 0.041798
{ignore 262346}, 1, 2, 524288, 2097152, 0.006493, 0.018125, 0.017125, 0.041743
{ignore 262346}, 1, 1, 524288, 2097152, 0.012725, 0.034248, 0.017159, 0.064133
{ignore 65782}, 4, 4, 524288, 1048576, 0.002615, 0.003082, 0.030810, 0.036507
{ignore 65782}, 4, 2, 524288, 1048576, 0.002996, 0.003949, 0.029352, 0.036297
{ignore 65782}, 4, 1, 524288, 1048576, 0.002559, 0.003007, 0.030469, 0.036035
{ignore 131378}, 2, 4, 524288, 1048576, 0.005271, 0.007091, 0.031754, 0.044115
{ignore 131378}, 2, 2, 524288, 1048576, 0.005240, 0.007041, 0.031933, 0.044214
{ignore 131378}, 2, 1, 524288, 1048576, 0.005203, 0.007043, 0.031774, 0.044020
{ignore 262592}, 1, 4, 524288, 1048576, 0.005378, 0.012167, 0.008588, 0.026133
{ignore 262592}, 1, 2, 524288, 1048576, 0.005303, 0.012182, 0.008589, 0.026074
{ignore 262592}, 1, 1, 524288, 1048576, 0.010399, 0.022472, 0.008585, 0.041457
{ignore 262816}, 1, 4, 524288, 524288, 0.004448, 0.013413, 0.004341, 0.022203
{ignore 262816}, 1, 2, 524288, 524288, 0.004411, 0.016581, 0.004333, 0.025325
{ignore 262816}, 1, 1, 524288, 524288, 0.008662, 0.029801, 0.004335, 0.042798
{ignore 32832}, 4, 4, 262144, 2097152, 0.002202, 0.002141, 0.058814, 0.063157
{ignore 32832}, 4, 2, 262144, 2097152, 0.002594, 0.002960, 0.060047, 0.065601
{ignore 32832}, 4, 1, 262144, 2097152, 0.002147, 0.002088, 0.057378, 0.061612
{ignore 65634}, 2, 4, 262144, 2097152, 0.004366, 0.002793, 0.064890, 0.072048
{ignore 65634}, 2, 2, 262144, 2097152, 0.004358, 0.002762, 0.064051, 0.071171
{ignore 65634}, 2, 1, 262144, 2097152, 0.004314, 0.002731, 0.063931, 0.070976
{ignore 131435}, 1, 4, 262144, 2097152, 0.004922, 0.005458, 0.017551, 0.027931
{ignore 131435}, 1, 2, 262144, 2097152, 0.008900, 0.009671, 0.017366, 0.035936
{ignore 131435}, 1, 1, 262144, 2097152, 0.008829, 0.009460, 0.017308, 0.035597
{ignore 32840}, 4, 4, 262144, 1048576, 0.001638, 0.001409, 0.028173, 0.031220
{ignore 32840}, 4, 2, 262144, 1048576, 0.001617, 0.001385, 0.028440, 0.031442
{ignore 32840}, 4, 1, 262144, 1048576, 0.001592, 0.001367, 0.029135, 0.032095
{ignore 65725}, 2, 4, 262144, 1048576, 0.003234, 0.004347, 0.031997, 0.039577
{ignore 65725}, 2, 2, 262144, 1048576, 0.003212, 0.004343, 0.031601, 0.039156
{ignore 65725}, 2, 1, 262144, 1048576, 0.003184, 0.004310, 0.031697, 0.039191
{ignore 131527}, 1, 4, 262144, 1048576, 0.003398, 0.006872, 0.008621, 0.018891
{ignore 131527}, 1, 2, 262144, 1048576, 0.006938, 0.013364, 0.009039, 0.029340
{ignore 131527}, 1, 1, 262144, 1048576, 0.006486, 0.012144, 0.008623, 0.027254
{ignore 33161}, 4, 4, 262144, 524288, 0.001342, 0.001836, 0.015770, 0.018948
{ignore 33161}, 4, 2, 262144, 524288, 0.001322, 0.001795, 0.015614, 0.018731
{ignore 33161}, 4, 1, 262144, 524288, 0.001298, 0.001781, 0.015768, 0.018847
{ignore 65834}, 2, 4, 262144, 524288, 0.002607, 0.004317, 0.015587, 0.022510
{ignore 65834}, 2, 2, 262144, 524288, 0.002584, 0.004300, 0.015523, 0.022407
{ignore 65834}, 2, 1, 262144, 524288, 0.002551, 0.004270, 0.015538, 0.022359
{ignore 131551}, 1, 4, 262144, 524288, 0.002758, 0.006507, 0.004303, 0.013568
{ignore 131551}, 1, 2, 262144, 524288, 0.005699, 0.012897, 0.004728, 0.023324
{ignore 131551}, 1, 1, 262144, 524288, 0.005205, 0.012138, 0.004299, 0.021641
{ignore 131546}, 1, 4, 262144, 262144, 0.002321, 0.008017, 0.002169, 0.012507
{ignore 131546}, 1, 2, 262144, 262144, 0.004792, 0.015863, 0.002589, 0.023243
{ignore 131546}, 1, 1, 262144, 262144, 0.004342, 0.015089, 0.002165, 0.021597
{ignore 16371}, 4, 4, 131072, 2097152, 0.001414, 0.000808, 0.059244, 0.061465
{ignore 16371}, 4, 2, 131072, 2097152, 0.001392, 0.000795, 0.059873, 0.062060
{ignore 16371}, 4, 1, 131072, 2097152, 0.001370, 0.000773, 0.057223, 0.059366
{ignore 32712}, 2, 4, 131072, 2097152, 0.002784, 0.001429, 0.063879, 0.068091
{ignore 32712}, 2, 2, 131072, 2097152, 0.002752, 0.001404, 0.064048, 0.068204
{ignore 32712}, 2, 1, 131072, 2097152, 0.002738, 0.001386, 0.064736, 0.068860
{ignore 65468}, 1, 4, 131072, 2097152, 0.002853, 0.004886, 0.017162, 0.024902
{ignore 65468}, 1, 2, 131072, 2097152, 0.005860, 0.009777, 0.017524, 0.033161
{ignore 65468}, 1, 1, 131072, 2097152, 0.005420, 0.009029, 0.017096, 0.031545
{ignore 16697}, 4, 4, 131072, 1048576, 0.001159, 0.001099, 0.030798, 0.033057
{ignore 16697}, 4, 2, 131072, 1048576, 0.001140, 0.001063, 0.030863, 0.033067
{ignore 16697}, 4, 1, 131072, 1048576, 0.001115, 0.001035, 0.030971, 0.033121
{ignore 32926}, 2, 4, 131072, 1048576, 0.002248, 0.001923, 0.031919, 0.036090
{ignore 32926}, 2, 2, 131072, 1048576, 0.002236, 0.001910, 0.032628, 0.036775
{ignore 32926}, 2, 1, 131072, 1048576, 0.002212, 0.001886, 0.032858, 0.036956
{ignore 65917}, 1, 4, 131072, 1048576, 0.002853, 0.004102, 0.008558, 0.015512
{ignore 65917}, 1, 2, 131072, 1048576, 0.004858, 0.007419, 0.008963, 0.021241
{ignore 65917}, 1, 1, 131072, 1048576, 0.004409, 0.006405, 0.008534, 0.019349
{ignore 16459}, 4, 4, 131072, 524288, 0.000832, 0.000917, 0.014938, 0.016687
{ignore 16459}, 4, 2, 131072, 524288, 0.000813, 0.000899, 0.014994, 0.016707
{ignore 16459}, 4, 1, 131072, 524288, 0.000793, 0.000910, 0.014499, 0.016202
{ignore 32944}, 2, 4, 131072, 524288, 0.001664, 0.001847, 0.015654, 0.019165
{ignore 32944}, 2, 2, 131072, 524288, 0.001638, 0.001828, 0.015568, 0.019034
{ignore 32944}, 2, 1, 131072, 524288, 0.001609, 0.001803, 0.015712, 0.019124
{ignore 65753}, 1, 4, 131072, 524288, 0.001861, 0.002112, 0.004283, 0.008256
{ignore 65753}, 1, 2, 131072, 524288, 0.003631, 0.004464, 0.004706, 0.012801
{ignore 65753}, 1, 1, 131072, 524288, 0.003181, 0.003310, 0.004276, 0.010767
{ignore 16328}, 4, 4, 131072, 262144, 0.000673, 0.000699, 0.007645, 0.009016
{ignore 16328}, 4, 2, 131072, 262144, 0.001115, 0.001562, 0.007696, 0.010373
{ignore 16328}, 4, 1, 131072, 262144, 0.000638, 0.000663, 0.007532, 0.008833
{ignore 32834}, 2, 4, 131072, 262144, 0.001341, 0.001986, 0.007143, 0.010470
{ignore 32834}, 2, 2, 131072, 262144, 0.001320, 0.001971, 0.007177, 0.010467
{ignore 32834}, 2, 1, 131072, 262144, 0.001290, 0.001940, 0.007207, 0.010437
{ignore 65814}, 1, 4, 131072, 262144, 0.001428, 0.002593, 0.002164, 0.006185
{ignore 65814}, 1, 2, 131072, 262144, 0.002989, 0.005470, 0.002592, 0.011050
{ignore 65814}, 1, 1, 131072, 262144, 0.002541, 0.004531, 0.002159, 0.009231
{ignore 65764}, 1, 4, 131072, 131072, 0.002224, 0.006050, 0.001089, 0.009363
{ignore 65764}, 1, 2, 131072, 131072, 0.002919, 0.007166, 0.001510, 0.011596
{ignore 65764}, 1, 1, 131072, 131072, 0.002174, 0.006299, 0.001086, 0.009560
{ignore 8227}, 4, 4, 65536, 2097152, 0.001185, 0.000533, 0.059526, 0.061243
{ignore 8227}, 4, 2, 65536, 2097152, 0.001166, 0.000514, 0.060094, 0.061774
{ignore 8227}, 4, 1, 65536, 2097152, 0.001142, 0.000503, 0.060391, 0.062036
{ignore 16438}, 2, 4, 65536, 2097152, 0.002337, 0.000944, 0.063802, 0.067082
{ignore 16438}, 2, 2, 65536, 2097152, 0.002329, 0.000930, 0.063626, 0.066885
{ignore 16438}, 2, 1, 65536, 2097152, 0.002300, 0.000907, 0.063286, 0.066493
{ignore 32755}, 1, 4, 65536, 2097152, 0.004625, 0.002233, 0.017206, 0.024064
{ignore 32755}, 1, 2, 65536, 2097152, 0.004609, 0.002205, 0.017191, 0.024005
{ignore 32755}, 1, 1, 65536, 2097152, 0.004576, 0.002210, 0.017182, 0.023969
{ignore 8257}, 4, 4, 65536, 1048576, 0.000735, 0.000376, 0.028016, 0.029128
{ignore 8257}, 4, 2, 65536, 1048576, 0.001201, 0.001217, 0.029044, 0.031462
{ignore 8257}, 4, 1, 65536, 1048576, 0.000692, 0.000344, 0.027968, 0.029003
{ignore 16462}, 2, 4, 65536, 1048576, 0.001417, 0.001070, 0.031951, 0.034438
{ignore 16462}, 2, 2, 65536, 1048576, 0.001396, 0.001057, 0.031893, 0.034345
{ignore 16462}, 2, 1, 65536, 1048576, 0.001373, 0.001025, 0.031836, 0.034234
{ignore 32838}, 1, 4, 65536, 1048576, 0.001768, 0.001835, 0.008693, 0.012296
{ignore 32838}, 1, 2, 65536, 1048576, 0.003168, 0.003890, 0.009072, 0.016129
{ignore 32838}, 1, 1, 65536, 1048576, 0.002721, 0.002996, 0.008644, 0.014361
{ignore 8071}, 4, 4, 65536, 524288, 0.000556, 0.000455, 0.014473, 0.015484
{ignore 8071}, 4, 2, 65536, 524288, 0.001278, 0.001260, 0.014500, 0.017038
{ignore 8071}, 4, 1, 65536, 524288, 0.000525, 0.000435, 0.014484, 0.015444
{ignore 16229}, 2, 4, 65536, 524288, 0.001138, 0.001062, 0.017138, 0.019338
{ignore 16229}, 2, 2, 65536, 524288, 0.001123, 0.001077, 0.015594, 0.017794
{ignore 16229}, 2, 1, 65536, 524288, 0.001095, 0.001060, 0.015530, 0.017685
{ignore 32850}, 1, 4, 65536, 524288, 0.001281, 0.001617, 0.004301, 0.007199
{ignore 32850}, 1, 2, 65536, 524288, 0.002202, 0.002860, 0.004305, 0.009367
{ignore 32850}, 1, 1, 65536, 524288, 0.002172, 0.002829, 0.004296, 0.009297
{ignore 8177}, 4, 4, 65536, 262144, 0.000431, 0.000376, 0.006925, 0.007732
{ignore 8177}, 4, 2, 65536, 262144, 0.000414, 0.000368, 0.006981, 0.007763
{ignore 8177}, 4, 1, 65536, 262144, 0.000401, 0.000361, 0.007086, 0.007849
{ignore 16444}, 2, 4, 65536, 262144, 0.000858, 0.000904, 0.008318, 0.010079
{ignore 16444}, 2, 2, 65536, 262144, 0.000854, 0.000885, 0.007037, 0.008776
{ignore 16444}, 2, 1, 65536, 262144, 0.000831, 0.000869, 0.007076, 0.008775
{ignore 32735}, 1, 4, 65536, 262144, 0.001634, 0.001530, 0.002146, 0.005310
{ignore 32735}, 1, 2, 65536, 262144, 0.002033, 0.002371, 0.002561, 0.006965
{ignore 32735}, 1, 1, 65536, 262144, 0.001594, 0.001500, 0.002139, 0.005233
{ignore 8286}, 4, 4, 65536, 131072, 0.000350, 0.000569, 0.003968, 0.004887
{ignore 8286}, 4, 2, 65536, 131072, 0.000337, 0.000575, 0.003976, 0.004888
{ignore 8286}, 4, 1, 65536, 131072, 0.000326, 0.000526, 0.003920, 0.004771
{ignore 16465}, 2, 4, 65536, 131072, 0.000670, 0.000793, 0.007230, 0.008693
{ignore 16465}, 2, 2, 65536, 131072, 0.000655, 0.000792, 0.006020, 0.007467
{ignore 16465}, 2, 1, 65536, 131072, 0.000637, 0.000721, 0.007211, 0.008569
{ignore 32858}, 1, 4, 65536, 131072, 0.001312, 0.001840, 0.001086, 0.004238
{ignore 32858}, 1, 2, 65536, 131072, 0.002126, 0.002671, 0.001084, 0.005880
{ignore 32858}, 1, 1, 65536, 131072, 0.001272, 0.001823, 0.001083, 0.004177
{ignore 32924}, 1, 4, 65536, 65536, 0.001125, 0.002083, 0.000540, 0.003749
{ignore 32924}, 1, 2, 65536, 65536, 0.001943, 0.002962, 0.000542, 0.005448
{ignore 32924}, 1, 1, 65536, 65536, 0.001090, 0.002115, 0.000546, 0.003751
{ignore 4187}, 4, 4, 32768, 2097152, 0.001094, 0.000314, 0.054968, 0.056375
{ignore 4187}, 4, 2, 32768, 2097152, 0.001071, 0.000292, 0.055298, 0.056662
{ignore 4187}, 4, 1, 32768, 2097152, 0.001039, 0.000279, 0.057281, 0.058599
{ignore 8365}, 2, 4, 32768, 2097152, 0.002114, 0.000603, 0.063934, 0.066651
{ignore 8365}, 2, 2, 32768, 2097152, 0.002103, 0.000586, 0.063385, 0.066073
{ignore 8365}, 2, 1, 32768, 2097152, 0.002080, 0.000568, 0.063314, 0.065963
{ignore 16541}, 1, 4, 32768, 2097152, 0.004158, 0.001871, 0.017347, 0.023376
{ignore 16541}, 1, 2, 32768, 2097152, 0.004140, 0.001857, 0.017382, 0.023379
{ignore 16541}, 1, 1, 32768, 2097152, 0.004114, 0.001841, 0.017324, 0.023279
{ignore 4144}, 4, 4, 32768, 1048576, 0.000628, 0.000230, 0.028171, 0.029029
{ignore 4144}, 4, 2, 32768, 1048576, 0.000617, 0.000213, 0.027766, 0.028596
{ignore 4144}, 4, 1, 32768, 1048576, 0.000583, 0.000200, 0.029855, 0.030638
{ignore 8289}, 2, 4, 32768, 1048576, 0.001214, 0.000563, 0.031409, 0.033187
{ignore 8289}, 2, 2, 32768, 1048576, 0.001194, 0.000549, 0.031784, 0.033528
{ignore 8289}, 2, 1, 32768, 1048576, 0.001173, 0.000533, 0.031511, 0.033218
{ignore 16464}, 1, 4, 32768, 1048576, 0.002349, 0.003261, 0.008588, 0.014198
{ignore 16464}, 1, 2, 32768, 1048576, 0.002740, 0.004267, 0.008981, 0.015987
{ignore 16464}, 1, 1, 32768, 1048576, 0.002292, 0.003305, 0.008519, 0.014117
{ignore 4120}, 4, 4, 32768, 524288, 0.000384, 0.000199, 0.014733, 0.015316
{ignore 4120}, 4, 2, 32768, 524288, 0.000357, 0.000187, 0.014850, 0.015394
{ignore 4120}, 4, 1, 32768, 524288, 0.000344, 0.000173, 0.014609, 0.015126
{ignore 8207}, 2, 4, 32768, 524288, 0.000737, 0.000403, 0.015454, 0.016594
{ignore 8207}, 2, 2, 32768, 524288, 0.000720, 0.000392, 0.015384, 0.016496
{ignore 8207}, 2, 1, 32768, 524288, 0.000697, 0.000370, 0.015489, 0.016555
{ignore 16369}, 1, 4, 32768, 524288, 0.001408, 0.001090, 0.004287, 0.006786
{ignore 16369}, 1, 2, 32768, 524288, 0.001388, 0.001123, 0.004281, 0.006792
{ignore 16369}, 1, 1, 32768, 524288, 0.001363, 0.001024, 0.004268, 0.006654
{ignore 4109}, 4, 4, 32768, 262144, 0.000295, 0.000186, 0.006859, 0.007340
{ignore 4109}, 4, 2, 32768, 262144, 0.000287, 0.000172, 0.006830, 0.007289
{ignore 4109}, 4, 1, 32768, 262144, 0.000270, 0.000161, 0.006851, 0.007283
{ignore 8235}, 2, 4, 32768, 262144, 0.000591, 0.000465, 0.008351, 0.009408
{ignore 8235}, 2, 2, 32768, 262144, 0.000574, 0.000461, 0.008385, 0.009419
{ignore 8235}, 2, 1, 32768, 262144, 0.000553, 0.000441, 0.008379, 0.009372
{ignore 16449}, 1, 4, 32768, 262144, 0.001127, 0.000938, 0.002136, 0.004201
{ignore 16449}, 1, 2, 32768, 262144, 0.001110, 0.000885, 0.002139, 0.004134
{ignore 16449}, 1, 1, 32768, 262144, 0.001090, 0.000871, 0.002133, 0.004093
{ignore 4095}, 4, 4, 32768, 131072, 0.000226, 0.000189, 0.003871, 0.004286
{ignore 4095}, 4, 2, 32768, 131072, 0.000216, 0.000172, 0.003830, 0.004218
{ignore 4095}, 4, 1, 32768, 131072, 0.000210, 0.000162, 0.003697, 0.004069
{ignore 8197}, 2, 4, 32768, 131072, 0.000424, 0.000395, 0.006758, 0.007577
{ignore 8197}, 2, 2, 32768, 131072, 0.000408, 0.000386, 0.006033, 0.006827
{ignore 8197}, 2, 1, 32768, 131072, 0.000393, 0.000377, 0.005966, 0.006737
{ignore 16476}, 1, 4, 32768, 131072, 0.000831, 0.000763, 0.001064, 0.002658
{ignore 16476}, 1, 2, 32768, 131072, 0.000814, 0.000752, 0.001063, 0.002630
{ignore 16476}, 1, 1, 32768, 131072, 0.000796, 0.000722, 0.001062, 0.002580
{ignore 4076}, 4, 4, 32768, 65536, 0.000201, 0.000190, 0.001942, 0.002333
{ignore 4076}, 4, 2, 32768, 65536, 0.000187, 0.000195, 0.001936, 0.002318
{ignore 4076}, 4, 1, 32768, 65536, 0.000174, 0.000183, 0.001951, 0.002308
{ignore 8166}, 2, 4, 32768, 65536, 0.000343, 0.000357, 0.002275, 0.002976
{ignore 8166}, 2, 2, 32768, 65536, 0.000335, 0.000338, 0.002198, 0.002871
{ignore 8166}, 2, 1, 32768, 65536, 0.000323, 0.000328, 0.002233, 0.002884
{ignore 16447}, 1, 4, 32768, 65536, 0.000661, 0.000746, 0.000530, 0.001937
{ignore 16447}, 1, 2, 32768, 65536, 0.000644, 0.000730, 0.000529, 0.001903
{ignore 16447}, 1, 1, 32768, 65536, 0.000633, 0.000706, 0.000528, 0.001867
{ignore 16440}, 1, 4, 32768, 32768, 0.000573, 0.000816, 0.000264, 0.001653
{ignore 16440}, 1, 2, 32768, 32768, 0.000558, 0.000793, 0.000264, 0.001615
{ignore 16440}, 1, 1, 32768, 32768, 0.000542, 0.000797, 0.000261, 0.001601
{ignore 1021}, 4, 4, 8192, 2097152, 0.000994, 0.000077, 0.060191, 0.061263
{ignore 1021}, 4, 2, 8192, 2097152, 0.000973, 0.000065, 0.060215, 0.061253
{ignore 1021}, 4, 1, 8192, 2097152, 0.000957, 0.000056, 0.056696, 0.057708
{ignore 2042}, 2, 4, 8192, 2097152, 0.001987, 0.000189, 0.079649, 0.081824
{ignore 2042}, 2, 2, 8192, 2097152, 0.002660, 0.000833, 0.080502, 0.083994
{ignore 2042}, 2, 1, 8192, 2097152, 0.001883, 0.000135, 0.064250, 0.066268
{ignore 4132}, 1, 4, 8192, 2097152, 0.003818, 0.000599, 0.017129, 0.021546
{ignore 4132}, 1, 2, 8192, 2097152, 0.003791, 0.000602, 0.017137, 0.021530
{ignore 4132}, 1, 1, 8192, 2097152, 0.003778, 0.000562, 0.017139, 0.021479
{ignore 1049}, 4, 4, 8192, 1048576, 0.000549, 0.000086, 0.029705, 0.030340
{ignore 1049}, 4, 2, 8192, 1048576, 0.000523, 0.000079, 0.030158, 0.030760
{ignore 1049}, 4, 1, 8192, 1048576, 0.000500, 0.000062, 0.030079, 0.030641
{ignore 2085}, 2, 4, 8192, 1048576, 0.001030, 0.000157, 0.031738, 0.032925
{ignore 2085}, 2, 2, 8192, 1048576, 0.001009, 0.000143, 0.031871, 0.033023
{ignore 2085}, 2, 1, 8192, 1048576, 0.000989, 0.000130, 0.031852, 0.032971
{ignore 4135}, 1, 4, 8192, 1048576, 0.001991, 0.000294, 0.008604, 0.010889
{ignore 4135}, 1, 2, 8192, 1048576, 0.001972, 0.000261, 0.008577, 0.010810
{ignore 4135}, 1, 1, 8192, 1048576, 0.001946, 0.000287, 0.008546, 0.010778
{ignore 1008}, 4, 4, 8192, 524288, 0.000301, 0.000076, 0.013856, 0.014233
{ignore 1008}, 4, 2, 8192, 524288, 0.000278, 0.000066, 0.013716, 0.014061
{ignore 1008}, 4, 1, 8192, 524288, 0.000269, 0.000049, 0.013621, 0.013939
{ignore 1998}, 2, 4, 8192, 524288, 0.000570, 0.000123, 0.015551, 0.016244
{ignore 1998}, 2, 2, 8192, 524288, 0.000552, 0.000106, 0.015562, 0.016220
{ignore 1998}, 2, 1, 8192, 524288, 0.000528, 0.000097, 0.015446, 0.016070
{ignore 4060}, 1, 4, 8192, 524288, 0.001078, 0.000307, 0.004279, 0.005664
{ignore 4060}, 1, 2, 8192, 524288, 0.001061, 0.000284, 0.004273, 0.005618
{ignore 4060}, 1, 1, 8192, 524288, 0.001038, 0.000275, 0.004264, 0.005577
{ignore 1046}, 4, 4, 8192, 262144, 0.000182, 0.000067, 0.006767, 0.007016
{ignore 1046}, 4, 2, 8192, 262144, 0.000162, 0.000052, 0.006719, 0.006933
{ignore 1046}, 4, 1, 8192, 262144, 0.000164, 0.000044, 0.006777, 0.006986
{ignore 2089}, 2, 4, 8192, 262144, 0.000407, 0.000232, 0.008533, 0.009171
{ignore 2089}, 2, 2, 8192, 262144, 0.000390, 0.000210, 0.008567, 0.009168
{ignore 2089}, 2, 1, 8192, 262144, 0.000404, 0.000194, 0.009369, 0.009967
{ignore 4187}, 1, 4, 8192, 262144, 0.000611, 0.000360, 0.002148, 0.003119
{ignore 4187}, 1, 2, 8192, 262144, 0.001295, 0.001160, 0.002307, 0.004762
{ignore 4187}, 1, 1, 8192, 262144, 0.000573, 0.000259, 0.002148, 0.002979
{ignore 2036}, 2, 4, 8192, 131072, 0.000211, 0.000109, 0.006341, 0.006662
{ignore 2036}, 2, 2, 8192, 131072, 0.000198, 0.000094, 0.006452, 0.006745
{ignore 2036}, 2, 1, 8192, 131072, 0.000184, 0.000085, 0.006280, 0.006548
{ignore 4093}, 1, 4, 8192, 131072, 0.000364, 0.000204, 0.001046, 0.001613
{ignore 4093}, 1, 2, 8192, 131072, 0.000349, 0.000185, 0.001046, 0.001580
{ignore 4093}, 1, 1, 8192, 131072, 0.000337, 0.000175, 0.001046, 0.001559
{ignore 998}, 4, 4, 8192, 65536, 0.000101, 0.000068, 0.001965, 0.002133
{ignore 998}, 4, 2, 8192, 65536, 0.000956, 0.000884, 0.001990, 0.003830
{ignore 998}, 4, 1, 8192, 65536, 0.000071, 0.000044, 0.001980, 0.002095
{ignore 2003}, 2, 4, 8192, 65536, 0.000182, 0.000115, 0.002205, 0.002502
{ignore 2003}, 2, 2, 8192, 65536, 0.000169, 0.000101, 0.002203, 0.002473
{ignore 2003}, 2, 1, 8192, 65536, 0.000149, 0.000101, 0.002170, 0.002419
{ignore 4090}, 1, 4, 8192, 65536, 0.000294, 0.000193, 0.000519, 0.001006
{ignore 4090}, 1, 2, 8192, 65536, 0.000269, 0.000187, 0.000518, 0.000973
{ignore 4090}, 1, 1, 8192, 65536, 0.000275, 0.000181, 0.000533, 0.000989
{ignore 1070}, 4, 4, 8192, 32768, 0.000074, 0.000066, 0.001432, 0.001572
{ignore 1070}, 4, 2, 8192, 32768, 0.000074, 0.000053, 0.001508, 0.001635
{ignore 1070}, 4, 1, 8192, 32768, 0.000052, 0.000050, 0.001952, 0.002053
{ignore 2075}, 2, 4, 8192, 32768, 0.000141, 0.000124, 0.001320, 0.001585
{ignore 2075}, 2, 2, 8192, 32768, 0.000132, 0.000108, 0.001283, 0.001523
{ignore 2075}, 2, 1, 8192, 32768, 0.000114, 0.000094, 0.001235, 0.001442
{ignore 4077}, 1, 4, 8192, 32768, 0.000218, 0.000188, 0.000260, 0.000666
{ignore 4077}, 1, 2, 8192, 32768, 0.000206, 0.000173, 0.000264, 0.000643
{ignore 4077}, 1, 1, 8192, 32768, 0.000196, 0.000164, 0.000261, 0.000621
{ignore 534}, 4, 4, 4096, 2097152, 0.001091, 0.000061, 0.059012, 0.060165
{ignore 534}, 4, 2, 4096, 2097152, 0.001043, 0.000068, 0.059043, 0.060154
{ignore 534}, 4, 1, 4096, 2097152, 0.001013, 0.000034, 0.058830, 0.059878
{ignore 1024}, 2, 4, 4096, 2097152, 0.001928, 0.000097, 0.064195, 0.066220
{ignore 1024}, 2, 2, 4096, 2097152, 0.001903, 0.000082, 0.064476, 0.066460
{ignore 1024}, 2, 1, 4096, 2097152, 0.001878, 0.000090, 0.063962, 0.065930
{ignore 2057}, 1, 4, 4096, 2097152, 0.003748, 0.000222, 0.017142, 0.021112
{ignore 2057}, 1, 2, 4096, 2097152, 0.003730, 0.000179, 0.017181, 0.021090
{ignore 2057}, 1, 1, 4096, 2097152, 0.003703, 0.000189, 0.017142, 0.021034
{ignore 544}, 4, 4, 4096, 1048576, 0.000540, 0.000055, 0.030703, 0.031298
{ignore 544}, 4, 2, 4096, 1048576, 0.000520, 0.000042, 0.030678, 0.031240
{ignore 544}, 4, 1, 4096, 1048576, 0.000505, 0.000031, 0.030637, 0.031172
{ignore 1036}, 2, 4, 4096, 1048576, 0.001004, 0.000090, 0.031346, 0.032440
{ignore 1036}, 2, 2, 4096, 1048576, 0.000983, 0.000062, 0.031348, 0.032392
{ignore 1036}, 2, 1, 4096, 1048576, 0.000961, 0.000083, 0.031304, 0.032348
{ignore 2084}, 1, 4, 4096, 1048576, 0.001933, 0.000215, 0.008595, 0.010743
{ignore 2084}, 1, 2, 4096, 1048576, 0.001915, 0.000265, 0.008585, 0.010765
{ignore 2084}, 1, 1, 4096, 1048576, 0.001889, 0.000214, 0.008549, 0.010653
{ignore 510}, 4, 4, 4096, 524288, 0.000277, 0.000047, 0.014082, 0.014405
{ignore 510}, 4, 2, 4096, 524288, 0.000266, 0.000034, 0.014182, 0.014482
{ignore 510}, 4, 1, 4096, 524288, 0.000245, 0.000025, 0.013837, 0.014108
{ignore 1044}, 2, 4, 4096, 524288, 0.000539, 0.000071, 0.017105, 0.017715
{ignore 1044}, 2, 2, 4096, 524288, 0.000524, 0.000057, 0.015484, 0.016064
{ignore 1044}, 2, 1, 4096, 524288, 0.000501, 0.000045, 0.017019, 0.017565
{ignore 2025}, 1, 4, 4096, 524288, 0.001020, 0.000208, 0.004281, 0.005510
{ignore 2025}, 1, 2, 4096, 524288, 0.001003, 0.000180, 0.004280, 0.005463
{ignore 2025}, 1, 1, 4096, 524288, 0.000979, 0.000133, 0.004273, 0.005385
{ignore 497}, 4, 4, 4096, 262144, 0.000163, 0.000047, 0.006687, 0.006897
{ignore 497}, 4, 2, 4096, 262144, 0.000149, 0.000036, 0.006450, 0.006634
{ignore 497}, 4, 1, 4096, 262144, 0.000138, 0.000024, 0.006802, 0.006964
{ignore 999}, 2, 4, 4096, 262144, 0.000314, 0.000078, 0.006992, 0.007384
{ignore 999}, 2, 2, 4096, 262144, 0.000293, 0.000068, 0.006996, 0.007357
{ignore 999}, 2, 1, 4096, 262144, 0.000278, 0.000053, 0.006996, 0.007327
{ignore 2023}, 1, 4, 4096, 262144, 0.000552, 0.000142, 0.002123, 0.002818
{ignore 2023}, 1, 2, 4096, 262144, 0.000533, 0.000137, 0.002120, 0.002791
{ignore 2023}, 1, 1, 4096, 262144, 0.000521, 0.000087, 0.002119, 0.002727
{ignore 530}, 4, 4, 4096, 131072, 0.000100, 0.000045, 0.003761, 0.003907
{ignore 530}, 4, 2, 4096, 131072, 0.000087, 0.000031, 0.003659, 0.003777
{ignore 530}, 4, 1, 4096, 131072, 0.000076, 0.000023, 0.003721, 0.003819
{ignore 1028}, 2, 4, 4096, 131072, 0.000173, 0.000066, 0.006328, 0.006566
{ignore 1028}, 2, 2, 4096, 131072, 0.000159, 0.000052, 0.005940, 0.006151
{ignore 1028}, 2, 1, 4096, 131072, 0.000146, 0.000042, 0.005958, 0.006147
{ignore 2021}, 1, 4, 4096, 131072, 0.000312, 0.000110, 0.001044, 0.001465
{ignore 2021}, 1, 2, 4096, 131072, 0.000298, 0.000092, 0.001040, 0.001430
{ignore 2021}, 1, 1, 4096, 131072, 0.000286, 0.000085, 0.001038, 0.001410
{ignore 501}, 4, 4, 4096, 65536, 0.000075, 0.000068, 0.002008, 0.002151
{ignore 501}, 4, 2, 4096, 65536, 0.000926, 0.000862, 0.001974, 0.003761
{ignore 501}, 4, 1, 4096, 65536, 0.000045, 0.000022, 0.001930, 0.001996
{ignore 999}, 2, 4, 4096, 65536, 0.000110, 0.000065, 0.002233, 0.002409
{ignore 999}, 2, 2, 4096, 65536, 0.000097, 0.000051, 0.002245, 0.002393
{ignore 999}, 2, 1, 4096, 65536, 0.000086, 0.000053, 0.001777, 0.001916
{ignore 2002}, 1, 4, 4096, 65536, 0.000191, 0.000110, 0.000519, 0.000820
{ignore 2002}, 1, 2, 4096, 65536, 0.000178, 0.000099, 0.000518, 0.000794
{ignore 2002}, 1, 1, 4096, 65536, 0.000169, 0.000082, 0.000518, 0.000768
{ignore 497}, 4, 4, 4096, 32768, 0.000060, 0.000046, 0.001474, 0.001579
{ignore 497}, 4, 2, 4096, 32768, 0.000608, 0.000865, 0.001507, 0.002980
{ignore 497}, 4, 1, 4096, 32768, 0.000032, 0.000022, 0.001469, 0.001523
{ignore 1036}, 2, 4, 4096, 32768, 0.000101, 0.000080, 0.001310, 0.001491
{ignore 1036}, 2, 2, 4096, 32768, 0.000077, 0.000057, 0.001288, 0.001423
{ignore 1036}, 2, 1, 4096, 32768, 0.000061, 0.000045, 0.001300, 0.001406
{ignore 2055}, 1, 4, 4096, 32768, 0.000156, 0.000116, 0.000270, 0.000543
{ignore 2055}, 1, 2, 4096, 32768, 0.000142, 0.000097, 0.000269, 0.000508
{ignore 2055}, 1, 1, 4096, 32768, 0.000137, 0.000084, 0.000268, 0.000489
{ignore 482}, 4, 4, 4096, 8192, 0.000047, 0.000045, 0.003085, 0.003177
{ignore 482}, 4, 2, 4096, 8192, 0.000910, 0.000862, 0.001169, 0.002941
{ignore 482}, 4, 1, 4096, 8192, 0.000385, 0.000241, 0.004018, 0.004644
{ignore 955}, 2, 4, 4096, 8192, 0.000635, 0.000489, 0.002194, 0.003318
{ignore 955}, 2, 2, 4096, 8192, 0.000067, 0.000054, 0.000528, 0.000649
{ignore 955}, 2, 1, 4096, 8192, 0.000432, 0.000305, 0.002140, 0.002877
{ignore 1954}, 1, 4, 4096, 8192, 0.000100, 0.000107, 0.000065, 0.000271
{ignore 1954}, 1, 2, 4096, 8192, 0.000086, 0.000092, 0.000065, 0.000243
{ignore 1954}, 1, 1, 4096, 8192, 0.000078, 0.000082, 0.000065, 0.000225
{ignore 1979}, 1, 4, 4096, 4096, 0.000089, 0.000125, 0.000033, 0.000246
{ignore 1979}, 1, 2, 4096, 4096, 0.000076, 0.000110, 0.000033, 0.000218
{ignore 1979}, 1, 1, 4096, 4096, 0.000066, 0.000097, 0.000033, 0.000196
{ignore 266}, 4, 4, 2048, 2097152, 0.001022, 0.000038, 0.059507, 0.060567
{ignore 266}, 4, 2, 2048, 2097152, 0.001008, 0.000025, 0.059181, 0.060215
{ignore 266}, 4, 1, 2048, 2097152, 0.000977, 0.000014, 0.059559, 0.060551
{ignore 502}, 2, 4, 2048, 2097152, 0.001851, 0.000058, 0.063666, 0.065575
{ignore 502}, 2, 2, 2048, 2097152, 0.001831, 0.000045, 0.064597, 0.066474
{ignore 502}, 2, 1, 2048, 2097152, 0.001809, 0.000034, 0.064330, 0.066173
{ignore 1017}, 1, 4, 2048, 2097152, 0.003759, 0.000102, 0.017164, 0.021024
{ignore 1017}, 1, 2, 2048, 2097152, 0.003760, 0.000094, 0.017149, 0.021003
{ignore 1017}, 1, 1, 2048, 2097152, 0.003776, 0.000068, 0.017121, 0.020965
{ignore 271}, 4, 4, 2048, 1048576, 0.000520, 0.000039, 0.030302, 0.030860
{ignore 271}, 4, 2, 2048, 1048576, 0.000503, 0.000026, 0.030499, 0.031029
{ignore 271}, 4, 1, 2048, 1048576, 0.000478, 0.000017, 0.030032, 0.030528
{ignore 526}, 2, 4, 2048, 1048576, 0.000985, 0.000052, 0.031265, 0.032303
{ignore 526}, 2, 2, 2048, 1048576, 0.000968, 0.000052, 0.031191, 0.032211
{ignore 526}, 2, 1, 2048, 1048576, 0.000946, 0.000043, 0.031188, 0.032178
{ignore 1044}, 1, 4, 2048, 1048576, 0.001905, 0.000088, 0.008587, 0.010580
{ignore 1044}, 1, 2, 2048, 1048576, 0.001887, 0.000080, 0.008556, 0.010523
{ignore 1044}, 1, 1, 2048, 1048576, 0.001859, 0.000067, 0.008535, 0.010461
{ignore 266}, 4, 4, 2048, 524288, 0.000265, 0.000036, 0.015267, 0.015567
{ignore 266}, 4, 2, 2048, 524288, 0.000250, 0.000021, 0.014968, 0.015239
{ignore 266}, 4, 1, 2048, 524288, 0.000234, 0.000033, 0.014951, 0.015218
{ignore 518}, 2, 4, 2048, 524288, 0.000518, 0.000055, 0.015485, 0.016059
{ignore 518}, 2, 2, 2048, 524288, 0.000502, 0.000039, 0.016827, 0.017368
{ignore 518}, 2, 1, 2048, 524288, 0.000481, 0.000030, 0.015781, 0.016293
{ignore 1054}, 1, 4, 2048, 524288, 0.000992, 0.000086, 0.004290, 0.005368
{ignore 1054}, 1, 2, 2048, 524288, 0.000972, 0.000091, 0.004289, 0.005352
{ignore 1054}, 1, 1, 2048, 524288, 0.000949, 0.000077, 0.004271, 0.005297
{ignore 264}, 4, 4, 2048, 262144, 0.000155, 0.000035, 0.006454, 0.006643
{ignore 264}, 4, 2, 2048, 262144, 0.000146, 0.000021, 0.006794, 0.006961
{ignore 264}, 4, 1, 2048, 262144, 0.000130, 0.000012, 0.006456, 0.006598
{ignore 498}, 2, 4, 2048, 262144, 0.000300, 0.000050, 0.007075, 0.007425
{ignore 498}, 2, 2, 2048, 262144, 0.000283, 0.000040, 0.006982, 0.007305
{ignore 498}, 2, 1, 2048, 262144, 0.000264, 0.000028, 0.007062, 0.007353
{ignore 970}, 1, 4, 2048, 262144, 0.000524, 0.000082, 0.002112, 0.002718
{ignore 970}, 1, 2, 2048, 262144, 0.000503, 0.000064, 0.002114, 0.002681
{ignore 970}, 1, 1, 2048, 262144, 0.000487, 0.000047, 0.002110, 0.002644
{ignore 266}, 4, 4, 2048, 131072, 0.000093, 0.000035, 0.003794, 0.003922
{ignore 266}, 4, 2, 2048, 131072, 0.000081, 0.000021, 0.003721, 0.003822
{ignore 266}, 4, 1, 2048, 131072, 0.000069, 0.000012, 0.003908, 0.003988
{ignore 535}, 2, 4, 2048, 131072, 0.000165, 0.000046, 0.006349, 0.006560
{ignore 535}, 2, 2, 2048, 131072, 0.000152, 0.000032, 0.006262, 0.006446
{ignore 535}, 2, 1, 2048, 131072, 0.000139, 0.000024, 0.006379, 0.006542
{ignore 1022}, 1, 4, 2048, 131072, 0.000283, 0.000077, 0.001046, 0.001406
{ignore 1022}, 1, 2, 2048, 131072, 0.000269, 0.000058, 0.001043, 0.001370
{ignore 1022}, 1, 1, 2048, 131072, 0.000258, 0.000044, 0.001050, 0.001352
{ignore 240}, 4, 4, 2048, 65536, 0.000061, 0.000033, 0.001930, 0.002024
{ignore 240}, 4, 2, 2048, 65536, 0.000049, 0.000020, 0.001943, 0.002013
{ignore 240}, 4, 1, 2048, 65536, 0.000039, 0.000011, 0.001932, 0.001982
{ignore 483}, 2, 4, 2048, 65536, 0.000099, 0.000044, 0.002139, 0.002282
{ignore 483}, 2, 2, 2048, 65536, 0.000230, 0.000066, 0.003284, 0.003581
{ignore 483}, 2, 1, 2048, 65536, 0.000072, 0.000021, 0.001791, 0.001884
{ignore 1001}, 1, 4, 2048, 65536, 0.000165, 0.000084, 0.000520, 0.000769
{ignore 1001}, 1, 2, 2048, 65536, 0.000153, 0.000058, 0.000520, 0.000731
{ignore 1001}, 1, 1, 2048, 65536, 0.000151, 0.000067, 0.000542, 0.000760
{ignore 234}, 4, 4, 2048, 32768, 0.000047, 0.000033, 0.001432, 0.001512
{ignore 234}, 4, 2, 2048, 32768, 0.000038, 0.000021, 0.001486, 0.001545
{ignore 234}, 4, 1, 2048, 32768, 0.000024, 0.000013, 0.001923, 0.001960
{ignore 496}, 2, 4, 2048, 32768, 0.000074, 0.000046, 0.001311, 0.001431
{ignore 496}, 2, 2, 2048, 32768, 0.000061, 0.000034, 0.001412, 0.001507
{ignore 496}, 2, 1, 2048, 32768, 0.000048, 0.000023, 0.001331, 0.001402
{ignore 995}, 1, 4, 2048, 32768, 0.000108, 0.000073, 0.000262, 0.000444
{ignore 995}, 1, 2, 2048, 32768, 0.000095, 0.000054, 0.000259, 0.000408
{ignore 995}, 1, 1, 2048, 32768, 0.000085, 0.000059, 0.000259, 0.000402
{ignore 237}, 4, 4, 2048, 16384, 0.000044, 0.000037, 0.001585, 0.001666
{ignore 237}, 4, 2, 2048, 16384, 0.000770, 0.000852, 0.001374, 0.002997
{ignore 237}, 4, 1, 2048, 16384, 0.000017, 0.000012, 0.001200, 0.001229
{ignore 495}, 2, 4, 2048, 16384, 0.000058, 0.000046, 0.000724, 0.000827
{ignore 495}, 2, 2, 2048, 16384, 0.000423, 0.000230, 0.003788, 0.004440
{ignore 495}, 2, 1, 2048, 16384, 0.000354, 0.000161, 0.003836, 0.004351
{ignore 983}, 1, 4, 2048, 16384, 0.000079, 0.000065, 0.000129, 0.000273
{ignore 983}, 1, 2, 2048, 16384, 0.000067, 0.000055, 0.000130, 0.000252
{ignore 983}, 1, 1, 2048, 16384, 0.000057, 0.000042, 0.000129, 0.000228
{ignore 262}, 4, 4, 2048, 8192, 0.000043, 0.000034, 0.001238, 0.001314
{ignore 262}, 4, 2, 2048, 8192, 0.000902, 0.000852, 0.001162, 0.002916
{ignore 262}, 4, 1, 2048, 8192, 0.000380, 0.000129, 0.004169, 0.004678
{ignore 502}, 2, 4, 2048, 8192, 0.000770, 0.000565, 0.003611, 0.004946
{ignore 502}, 2, 2, 2048, 8192, 0.000630, 0.000346, 0.003538, 0.004513
{ignore 502}, 2, 1, 2048, 8192, 0.000328, 0.000162, 0.002221, 0.002711
{ignore 992}, 1, 4, 2048, 8192, 0.000071, 0.000064, 0.000065, 0.000200
{ignore 992}, 1, 2, 2048, 8192, 0.000059, 0.000053, 0.000065, 0.000176
{ignore 992}, 1, 1, 2048, 8192, 0.000050, 0.000041, 0.000065, 0.000156
{ignore 278}, 4, 4, 2048, 4096, 0.000651, 0.000375, 0.002672, 0.003698
{ignore 278}, 4, 2, 2048, 4096, 0.005368, 0.004637, 0.002717, 0.012721
{ignore 278}, 4, 1, 2048, 4096, 0.000284, 0.000135, 0.002672, 0.003092
{ignore 553}, 2, 4, 2048, 4096, 0.000707, 0.000527, 0.002299, 0.003533
{ignore 553}, 2, 2, 2048, 4096, 0.000906, 0.000864, 0.000442, 0.002212
{ignore 553}, 2, 1, 2048, 4096, 0.000287, 0.000167, 0.001417, 0.001871
{ignore 1002}, 1, 4, 2048, 4096, 0.000059, 0.000064, 0.000033, 0.000157
{ignore 1002}, 1, 2, 2048, 4096, 0.000048, 0.000051, 0.000033, 0.000132
{ignore 1002}, 1, 1, 2048, 4096, 0.000038, 0.000041, 0.000033, 0.000112
{ignore 1011}, 1, 4, 2048, 2048, 0.000662, 0.000800, 0.000188, 0.001649
{ignore 1011}, 1, 2, 2048, 2048, 0.000041, 0.000056, 0.000017, 0.000114
{ignore 1011}, 1, 1, 2048, 2048, 0.000033, 0.000041, 0.000017, 0.000091
{ignore 134}, 4, 4, 1024, 2097152, 0.001060, 0.000055, 0.060861, 0.061977
{ignore 134}, 4, 2, 1024, 2097152, 0.001542, 0.000854, 0.060974, 0.063370
{ignore 134}, 4, 1, 1024, 2097152, 0.001076, 0.000011, 0.060967, 0.062055
{ignore 261}, 2, 4, 1024, 2097152, 0.001911, 0.000064, 0.065371, 0.067346
{ignore 261}, 2, 2, 1024, 2097152, 0.001887, 0.000038, 0.065410, 0.067336
{ignore 261}, 2, 1, 1024, 2097152, 0.001881, 0.000018, 0.065342, 0.067241
{ignore 511}, 1, 4, 1024, 2097152, 0.003776, 0.000060, 0.017272, 0.021107
{ignore 511}, 1, 2, 1024, 2097152, 0.003740, 0.000059, 0.017187, 0.020985
{ignore 511}, 1, 1, 1024, 2097152, 0.003686, 0.000037, 0.017196, 0.020920
{ignore 135}, 4, 4, 1024, 1048576, 0.000561, 0.000032, 0.025187, 0.025779
{ignore 135}, 4, 2, 1024, 1048576, 0.001312, 0.000853, 0.030573, 0.032737
{ignore 135}, 4, 1, 1024, 1048576, 0.000524, 0.000010, 0.030502, 0.031036
{ignore 271}, 2, 4, 1024, 1048576, 0.001015, 0.000065, 0.031531, 0.032611
{ignore 271}, 2, 2, 1024, 1048576, 0.001017, 0.000029, 0.031562, 0.032608
{ignore 271}, 2, 1, 1024, 1048576, 0.000988, 0.000020, 0.031435, 0.032443
{ignore 514}, 1, 4, 1024, 1048576, 0.001893, 0.000059, 0.008559, 0.010511
{ignore 514}, 1, 2, 1024, 1048576, 0.001873, 0.000043, 0.008594, 0.010510
{ignore 514}, 1, 1, 1024, 1048576, 0.001849, 0.000033, 0.008543, 0.010425
{ignore 135}, 4, 4, 1024, 524288, 0.000262, 0.000029, 0.016179, 0.016469
{ignore 135}, 4, 2, 1024, 524288, 0.000242, 0.000016, 0.015852, 0.016110
{ignore 135}, 4, 1, 1024, 524288, 0.000226, 0.000007, 0.015687, 0.015920
{ignore 268}, 2, 4, 1024, 524288, 0.000496, 0.000039, 0.017200, 0.017735
{ignore 268}, 2, 2, 1024, 524288, 0.000479, 0.000026, 0.015468, 0.015973
{ignore 268}, 2, 1, 1024, 524288, 0.000463, 0.000017, 0.015428, 0.015907
{ignore 540}, 1, 4, 1024, 524288, 0.000978, 0.000055, 0.004276, 0.005309
{ignore 540}, 1, 2, 1024, 524288, 0.000957, 0.000041, 0.004286, 0.005284
{ignore 540}, 1, 1, 1024, 524288, 0.000936, 0.000031, 0.004269, 0.005236
{ignore 119}, 4, 4, 1024, 262144, 0.000139, 0.000027, 0.007167, 0.007332
{ignore 119}, 4, 2, 1024, 262144, 0.000124, 0.000015, 0.007215, 0.007354
{ignore 119}, 4, 1, 1024, 262144, 0.000113, 0.000006, 0.006647, 0.006766
{ignore 220}, 2, 4, 1024, 262144, 0.000258, 0.000035, 0.007001, 0.007295
{ignore 220}, 2, 2, 1024, 262144, 0.000242, 0.000021, 0.006967, 0.007230
{ignore 220}, 2, 1, 1024, 262144, 0.000224, 0.000012, 0.006977, 0.007214
{ignore 495}, 1, 4, 1024, 262144, 0.000505, 0.000048, 0.002116, 0.002670
{ignore 495}, 1, 2, 1024, 262144, 0.000490, 0.000058, 0.002122, 0.002669
{ignore 495}, 1, 1, 1024, 262144, 0.000472, 0.000047, 0.002118, 0.002637
{ignore 122}, 4, 4, 1024, 131072, 0.000090, 0.000028, 0.003888, 0.004005
{ignore 122}, 4, 2, 1024, 131072, 0.000076, 0.000015, 0.003856, 0.003948
{ignore 122}, 4, 1, 1024, 131072, 0.000066, 0.000007, 0.003912, 0.003985
{ignore 256}, 2, 4, 1024, 131072, 0.000171, 0.000037, 0.005858, 0.006067
{ignore 256}, 2, 2, 1024, 131072, 0.000157, 0.000023, 0.005913, 0.006094
{ignore 256}, 2, 1, 1024, 131072, 0.000133, 0.000025, 0.005918, 0.006076
{ignore 501}, 1, 4, 1024, 131072, 0.000267, 0.000049, 0.001045, 0.001361
{ignore 501}, 1, 2, 1024, 131072, 0.000253, 0.000033, 0.001040, 0.001327
{ignore 501}, 1, 1, 1024, 131072, 0.000244, 0.000022, 0.001042, 0.001308
{ignore 125}, 4, 4, 1024, 65536, 0.000058, 0.000027, 0.003403, 0.003487
{ignore 125}, 4, 2, 1024, 65536, 0.000045, 0.000015, 0.001995, 0.002056
{ignore 125}, 4, 1, 1024, 65536, 0.000035, 0.000006, 0.002026, 0.002067
{ignore 255}, 2, 4, 1024, 65536, 0.000094, 0.000034, 0.002195, 0.002322
{ignore 255}, 2, 2, 1024, 65536, 0.000082, 0.000022, 0.002189, 0.002293
{ignore 255}, 2, 1, 1024, 65536, 0.000070, 0.000012, 0.002158, 0.002240
{ignore 483}, 1, 4, 1024, 65536, 0.000152, 0.000046, 0.000518, 0.000716
{ignore 483}, 1, 2, 1024, 65536, 0.000138, 0.000031, 0.000518, 0.000688
{ignore 483}, 1, 1, 1024, 65536, 0.000129, 0.000024, 0.000518, 0.000670
{ignore 116}, 4, 4, 1024, 32768, 0.000046, 0.000030, 0.002249, 0.002325
{ignore 116}, 4, 2, 1024, 32768, 0.000580, 0.000849, 0.001549, 0.002978
{ignore 116}, 4, 1, 1024, 32768, 0.000022, 0.000006, 0.002040, 0.002067
{ignore 234}, 2, 4, 1024, 32768, 0.000071, 0.000036, 0.001332, 0.001438
{ignore 234}, 2, 2, 1024, 32768, 0.000052, 0.000022, 0.001476, 0.001550
{ignore 234}, 2, 1, 1024, 32768, 0.000053, 0.000014, 0.001324, 0.001392
{ignore 477}, 1, 4, 1024, 32768, 0.000094, 0.000046, 0.000258, 0.000399
{ignore 477}, 1, 2, 1024, 32768, 0.000082, 0.000031, 0.000258, 0.000371
{ignore 477}, 1, 1, 1024, 32768, 0.000072, 0.000022, 0.000258, 0.000352
{ignore 148}, 4, 4, 1024, 16384, 0.000041, 0.000030, 0.001304, 0.001375
{ignore 148}, 4, 2, 1024, 16384, 0.000625, 0.000848, 0.001500, 0.002974
{ignore 148}, 4, 1, 1024, 16384, 0.000017, 0.000007, 0.001297, 0.001321
{ignore 266}, 2, 4, 1024, 16384, 0.000065, 0.000035, 0.000700, 0.000801
{ignore 266}, 2, 2, 1024, 16384, 0.000053, 0.000023, 0.000699, 0.000775
{ignore 266}, 2, 1, 1024, 16384, 0.000312, 0.000089, 0.003802, 0.004204
{ignore 492}, 1, 4, 1024, 16384, 0.000065, 0.000047, 0.000129, 0.000241
{ignore 492}, 1, 2, 1024, 16384, 0.000053, 0.000037, 0.000130, 0.000221
{ignore 492}, 1, 1, 1024, 16384, 0.000043, 0.000024, 0.000129, 0.000197
{ignore 133}, 4, 4, 1024, 8192, 0.000508, 0.000322, 0.004613, 0.005443
{ignore 133}, 4, 2, 1024, 8192, 0.001753, 0.001824, 0.001457, 0.005033
{ignore 133}, 4, 1, 1024, 8192, 0.000159, 0.000087, 0.004042, 0.004289
{ignore 279}, 2, 4, 1024, 8192, 0.000058, 0.000059, 0.000559, 0.000676
{ignore 279}, 2, 2, 1024, 8192, 0.000332, 0.000147, 0.002122, 0.002602
{ignore 279}, 2, 1, 1024, 8192, 0.000341, 0.000132, 0.003395, 0.003868
{ignore 504}, 1, 4, 1024, 8192, 0.000052, 0.000052, 0.000065, 0.000169
{ignore 504}, 1, 2, 1024, 8192, 0.000040, 0.000036, 0.000065, 0.000141
{ignore 504}, 1, 1, 1024, 8192, 0.000035, 0.000022, 0.000065, 0.000122
{ignore 147}, 4, 4, 1024, 4096, 0.000615, 0.000308, 0.002802, 0.003724
{ignore 147}, 4, 2, 1024, 4096, 0.000912, 0.000847, 0.001831, 0.003590
{ignore 147}, 4, 1, 1024, 4096, 0.000099, 0.000081, 0.002792, 0.002971
{ignore 264}, 2, 4, 1024, 4096, 0.000582, 0.000369, 0.002380, 0.003332
{ignore 264}, 2, 2, 1024, 4096, 0.000276, 0.000228, 0.002424, 0.002928
{ignore 264}, 2, 1, 1024, 4096, 0.000156, 0.000126, 0.002475, 0.002757
{ignore 532}, 1, 4, 1024, 4096, 0.000047, 0.000045, 0.000033, 0.000124
{ignore 532}, 1, 2, 1024, 4096, 0.000034, 0.000031, 0.000033, 0.000097
{ignore 532}, 1, 1, 1024, 4096, 0.000026, 0.000021, 0.000032, 0.000079
{ignore 122}, 4, 4, 1024, 2048, 0.000520, 0.000305, 0.002640, 0.003465
{ignore 122}, 4, 2, 1024, 2048, 0.001873, 0.001824, 0.002505, 0.006202
{ignore 122}, 4, 1, 1024, 2048, 0.000026, 0.000025, 0.001209, 0.001259
{ignore 246}, 2, 4, 1024, 2048, 0.000580, 0.000356, 0.001716, 0.002652
{ignore 246}, 2, 2, 1024, 2048, 0.000235, 0.000219, 0.001941, 0.002395
{ignore 246}, 2, 1, 1024, 2048, 0.000114, 0.000120, 0.001887, 0.002121
{ignore 514}, 1, 4, 1024, 2048, 0.000467, 0.000495, 0.000182, 0.001144
{ignore 514}, 1, 2, 1024, 2048, 0.000027, 0.000030, 0.000016, 0.000074
{ignore 514}, 1, 1, 1024, 2048, 0.000019, 0.000022, 0.000017, 0.000057
{ignore 521}, 1, 4, 1024, 1024, 0.000032, 0.000038, 0.000008, 0.000078
{ignore 521}, 1, 2, 1024, 1024, 0.000008, 0.000014, 0.000008, 0.000031
{ignore 521}, 1, 1, 1024, 1024, 0.000017, 0.000027, 0.000009, 0.000053
