{ignore 524441}, 1, 8, 1048576, 2097152, 0.003506, 0.003678, 0.005131, 0.012314
{ignore 524441}, 1, 4, 1048576, 2097152, 0.006998, 0.007215, 0.005139, 0.019352
{ignore 524441}, 1, 2, 1048576, 2097152, 0.013811, 0.014217, 0.005138, 0.033165
{ignore 524441}, 1, 1, 1048576, 2097152, 0.013762, 0.014110, 0.005134, 0.033007
{ignore 524699}, 1, 8, 1048576, 1048576, 0.002850, 0.003653, 0.002725, 0.009227
{ignore 524699}, 1, 4, 1048576, 1048576, 0.005756, 0.007162, 0.002725, 0.015644
{ignore 524699}, 1, 2, 1048576, 1048576, 0.011389, 0.014090, 0.004472, 0.029951
{ignore 524699}, 1, 1, 1048576, 1048576, 0.011410, 0.014111, 0.002720, 0.028241
{ignore 262346}, 1, 8, 524288, 2097152, 0.002172, 0.001752, 0.005138, 0.009062
{ignore 262346}, 1, 4, 524288, 2097152, 0.004324, 0.003460, 0.005127, 0.012911
{ignore 262346}, 1, 2, 524288, 2097152, 0.008464, 0.006965, 0.005134, 0.020563
{ignore 262346}, 1, 1, 524288, 2097152, 0.008469, 0.007037, 0.005148, 0.020655
{ignore 262592}, 1, 8, 524288, 1048576, 0.001705, 0.001840, 0.002562, 0.006108
{ignore 262592}, 1, 4, 524288, 1048576, 0.003392, 0.003610, 0.002550, 0.009552
{ignore 262592}, 1, 2, 524288, 1048576, 0.006837, 0.007352, 0.002553, 0.016742
{ignore 262592}, 1, 1, 524288, 1048576, 0.006896, 0.007454, 0.002566, 0.016915
{ignore 262816}, 1, 8, 524288, 524288, 0.001421, 0.001831, 0.001292, 0.004545
{ignore 262816}, 1, 4, 524288, 524288, 0.002829, 0.003625, 0.001288, 0.007742
{ignore 262816}, 1, 2, 524288, 524288, 0.005694, 0.007367, 0.001287, 0.014348
{ignore 262816}, 1, 1, 524288, 524288, 0.005709, 0.007460, 0.001296, 0.014466
{ignore 131435}, 1, 8, 262144, 2097152, 0.002043, 0.000860, 0.005079, 0.007982
{ignore 131435}, 1, 4, 262144, 2097152, 0.004026, 0.001719, 0.005072, 0.010817
{ignore 131435}, 1, 2, 262144, 2097152, 0.008015, 0.003424, 0.005072, 0.016511
{ignore 131435}, 1, 1, 262144, 2097152, 0.007913, 0.003532, 0.005101, 0.016546
{ignore 131527}, 1, 8, 262144, 1048576, 0.001045, 0.000854, 0.002623, 0.004522
{ignore 131527}, 1, 4, 262144, 1048576, 0.002094, 0.001693, 0.002594, 0.006382
{ignore 131527}, 1, 2, 262144, 1048576, 0.004175, 0.003373, 0.002620, 0.010168
{ignore 131527}, 1, 1, 262144, 1048576, 0.004233, 0.003517, 0.002634, 0.010384
{ignore 131551}, 1, 8, 262144, 524288, 0.000849, 0.000886, 0.001244, 0.002980
{ignore 131551}, 1, 4, 262144, 524288, 0.001694, 0.001765, 0.001277, 0.004736
{ignore 131551}, 1, 2, 262144, 524288, 0.003385, 0.003515, 0.001257, 0.008156
{ignore 131551}, 1, 1, 262144, 524288, 0.003451, 0.003622, 0.001294, 0.008367
{ignore 131546}, 1, 8, 262144, 262144, 0.000712, 0.001061, 0.000666, 0.002439
{ignore 131546}, 1, 4, 262144, 262144, 0.001424, 0.002150, 0.000621, 0.004195
{ignore 131546}, 1, 2, 262144, 262144, 0.002815, 0.004215, 0.000664, 0.007694
{ignore 131546}, 1, 1, 262144, 262144, 0.002855, 0.004254, 0.000638, 0.007747
{ignore 65468}, 1, 8, 131072, 2097152, 0.002045, 0.000559, 0.005022, 0.007627
{ignore 65468}, 1, 4, 131072, 2097152, 0.004025, 0.001097, 0.005013, 0.010135
{ignore 65468}, 1, 2, 131072, 2097152, 0.008010, 0.002206, 0.005055, 0.015271
{ignore 65468}, 1, 1, 131072, 2097152, 0.007889, 0.002219, 0.005066, 0.015174
{ignore 65917}, 1, 8, 131072, 1048576, 0.000993, 0.000400, 0.002523, 0.003917
{ignore 65917}, 1, 4, 131072, 1048576, 0.001972, 0.000788, 0.002531, 0.005291
{ignore 65917}, 1, 2, 131072, 1048576, 0.003925, 0.001574, 0.002506, 0.008004
{ignore 65917}, 1, 1, 131072, 1048576, 0.003962, 0.001617, 0.002557, 0.008136
{ignore 65753}, 1, 8, 131072, 524288, 0.000523, 0.000427, 0.001207, 0.002156
{ignore 65753}, 1, 4, 131072, 524288, 0.001045, 0.000846, 0.001216, 0.003107
{ignore 65753}, 1, 2, 131072, 524288, 0.002075, 0.001676, 0.001171, 0.004922
{ignore 65753}, 1, 1, 131072, 524288, 0.002083, 0.001684, 0.001197, 0.004964
{ignore 65814}, 1, 8, 131072, 262144, 0.000423, 0.000447, 0.000594, 0.001464
{ignore 65814}, 1, 4, 131072, 262144, 0.000847, 0.000889, 0.000589, 0.002324
{ignore 65814}, 1, 2, 131072, 262144, 0.001689, 0.001771, 0.000590, 0.004050
{ignore 65814}, 1, 1, 131072, 262144, 0.001730, 0.001811, 0.000633, 0.004174
{ignore 65764}, 1, 8, 131072, 131072, 0.000351, 0.000423, 0.000290, 0.001065
{ignore 65764}, 1, 4, 131072, 131072, 0.000710, 0.000843, 0.000536, 0.002089
{ignore 65764}, 1, 2, 131072, 131072, 0.001413, 0.001670, 0.000291, 0.003373
{ignore 65764}, 1, 1, 131072, 131072, 0.001411, 0.001665, 0.000291, 0.003368
{ignore 32755}, 1, 8, 65536, 2097152, 0.002049, 0.000204, 0.005030, 0.007282
{ignore 32755}, 1, 4, 65536, 2097152, 0.004025, 0.000396, 0.005044, 0.009466
{ignore 32755}, 1, 2, 65536, 2097152, 0.008013, 0.000794, 0.005037, 0.013844
{ignore 32755}, 1, 1, 65536, 2097152, 0.007889, 0.000794, 0.005030, 0.013712
{ignore 32838}, 1, 8, 65536, 1048576, 0.000990, 0.000203, 0.002393, 0.003586
{ignore 32838}, 1, 4, 65536, 1048576, 0.001979, 0.000403, 0.002426, 0.004808
{ignore 32838}, 1, 2, 65536, 1048576, 0.003930, 0.000791, 0.002405, 0.007125
{ignore 32838}, 1, 1, 65536, 1048576, 0.003951, 0.000869, 0.002446, 0.007265
{ignore 32850}, 1, 8, 65536, 524288, 0.000495, 0.000204, 0.001191, 0.001890
{ignore 32850}, 1, 4, 65536, 524288, 0.000986, 0.000400, 0.001190, 0.002577
{ignore 32850}, 1, 2, 65536, 524288, 0.001963, 0.000800, 0.001200, 0.003962
{ignore 32850}, 1, 1, 65536, 524288, 0.001976, 0.000813, 0.001238, 0.004028
{ignore 32735}, 1, 8, 65536, 262144, 0.000263, 0.000203, 0.001066, 0.001532
{ignore 32735}, 1, 4, 65536, 262144, 0.000521, 0.000430, 0.000926, 0.001877
{ignore 32735}, 1, 2, 65536, 262144, 0.001045, 0.000778, 0.000577, 0.002401
{ignore 32735}, 1, 1, 65536, 262144, 0.001037, 0.000779, 0.000577, 0.002393
{ignore 32858}, 1, 8, 65536, 131072, 0.000217, 0.000205, 0.000577, 0.000999
{ignore 32858}, 1, 4, 65536, 131072, 0.000422, 0.000401, 0.000288, 0.001111
{ignore 32858}, 1, 2, 65536, 131072, 0.000849, 0.000793, 0.000495, 0.002137
{ignore 32858}, 1, 1, 65536, 131072, 0.001694, 0.001583, 0.000579, 0.003856
{ignore 32924}, 1, 8, 65536, 65536, 0.000178, 0.000218, 0.000299, 0.000695
{ignore 32924}, 1, 4, 65536, 65536, 0.000352, 0.000421, 0.000299, 0.001073
{ignore 32924}, 1, 2, 65536, 65536, 0.000705, 0.000825, 0.000241, 0.001770
{ignore 32924}, 1, 1, 65536, 65536, 0.001121, 0.001311, 0.000241, 0.002673
{ignore 16541}, 1, 8, 32768, 2097152, 0.002057, 0.000117, 0.005077, 0.007251
{ignore 16541}, 1, 4, 32768, 2097152, 0.004034, 0.000218, 0.005064, 0.009316
{ignore 16541}, 1, 2, 32768, 2097152, 0.008027, 0.000442, 0.005081, 0.013549
{ignore 16541}, 1, 1, 32768, 2097152, 0.007909, 0.000429, 0.005029, 0.013367
{ignore 16464}, 1, 8, 32768, 1048576, 0.000988, 0.000105, 0.002409, 0.003501
{ignore 16464}, 1, 4, 32768, 1048576, 0.001978, 0.000203, 0.002420, 0.004602
{ignore 16464}, 1, 2, 32768, 1048576, 0.003936, 0.000400, 0.002394, 0.006730
{ignore 16464}, 1, 1, 32768, 1048576, 0.003943, 0.000405, 0.002432, 0.006780
{ignore 16369}, 1, 8, 32768, 524288, 0.000498, 0.000101, 0.001193, 0.001792
{ignore 16369}, 1, 4, 32768, 524288, 0.000983, 0.000197, 0.001194, 0.002374
{ignore 16369}, 1, 2, 32768, 524288, 0.001979, 0.000390, 0.001255, 0.003624
{ignore 16369}, 1, 1, 32768, 524288, 0.001962, 0.000389, 0.001194, 0.003545
{ignore 16449}, 1, 8, 32768, 262144, 0.000255, 0.000106, 0.000585, 0.000946
{ignore 16449}, 1, 4, 32768, 262144, 0.000501, 0.000205, 0.000586, 0.001291
{ignore 16449}, 1, 2, 32768, 262144, 0.000992, 0.000409, 0.001172, 0.002573
{ignore 16449}, 1, 1, 32768, 262144, 0.000981, 0.000403, 0.000586, 0.001970
{ignore 16476}, 1, 8, 32768, 131072, 0.000133, 0.000101, 0.000287, 0.000521
{ignore 16476}, 1, 4, 32768, 131072, 0.000263, 0.000203, 0.000575, 0.001041
{ignore 16476}, 1, 2, 32768, 131072, 0.000526, 0.000395, 0.000575, 0.001496
{ignore 16476}, 1, 1, 32768, 131072, 0.001043, 0.000782, 0.000576, 0.002400
{ignore 16447}, 1, 8, 32768, 65536, 0.000109, 0.000102, 0.000296, 0.000507
{ignore 16447}, 1, 4, 32768, 65536, 0.000211, 0.000198, 0.000296, 0.000705
{ignore 16447}, 1, 2, 32768, 65536, 0.000419, 0.000391, 0.000297, 0.001108
{ignore 16447}, 1, 1, 32768, 65536, 0.000846, 0.000774, 0.000297, 0.001917
{ignore 16440}, 1, 8, 32768, 32768, 0.000091, 0.000114, 0.000145, 0.000350
{ignore 16440}, 1, 4, 32768, 32768, 0.000175, 0.000217, 0.000145, 0.000537
{ignore 16440}, 1, 2, 32768, 32768, 0.000349, 0.000429, 0.000124, 0.000902
{ignore 16440}, 1, 1, 32768, 32768, 0.000595, 0.000713, 0.000125, 0.001433
{ignore 8314}, 1, 8, 16384, 2097152, 0.002049, 0.000057, 0.004925, 0.007031
{ignore 8314}, 1, 4, 16384, 2097152, 0.004026, 0.000105, 0.004965, 0.009096
{ignore 8314}, 1, 2, 16384, 2097152, 0.007978, 0.000207, 0.004932, 0.013117
{ignore 8314}, 1, 1, 16384, 2097152, 0.007887, 0.000205, 0.004983, 0.013075
{ignore 8290}, 1, 8, 16384, 1048576, 0.000991, 0.000051, 0.002481, 0.003523
{ignore 8290}, 1, 4, 16384, 1048576, 0.001973, 0.000100, 0.002436, 0.004509
{ignore 8290}, 1, 2, 16384, 1048576, 0.003937, 0.000200, 0.002451, 0.006587
{ignore 8290}, 1, 1, 16384, 1048576, 0.003959, 0.000199, 0.002508, 0.006666
{ignore 8266}, 1, 8, 16384, 524288, 0.000498, 0.000052, 0.001160, 0.001709
{ignore 8266}, 1, 4, 16384, 524288, 0.000982, 0.000104, 0.001160, 0.002246
{ignore 8266}, 1, 2, 16384, 524288, 0.001962, 0.000201, 0.001161, 0.003324
{ignore 8266}, 1, 1, 16384, 524288, 0.001981, 0.000203, 0.001214, 0.003398
{ignore 8306}, 1, 8, 16384, 262144, 0.000252, 0.000053, 0.000923, 0.001228
{ignore 8306}, 1, 4, 16384, 262144, 0.000493, 0.000100, 0.000769, 0.001362
{ignore 8306}, 1, 2, 16384, 262144, 0.000988, 0.000196, 0.000630, 0.001814
{ignore 8306}, 1, 1, 16384, 262144, 0.001963, 0.000388, 0.001159, 0.003510
{ignore 8146}, 1, 8, 16384, 131072, 0.000129, 0.000056, 0.000591, 0.000776
{ignore 8146}, 1, 4, 16384, 131072, 0.000250, 0.000102, 0.000507, 0.000858
{ignore 8146}, 1, 2, 16384, 131072, 0.000495, 0.000202, 0.000417, 0.001114
{ignore 8146}, 1, 1, 16384, 131072, 0.000693, 0.000277, 0.000417, 0.001387
{ignore 8191}, 1, 8, 16384, 65536, 0.000069, 0.000058, 0.000178, 0.000305
{ignore 8191}, 1, 4, 16384, 65536, 0.000131, 0.000109, 0.000178, 0.000418
{ignore 8191}, 1, 2, 16384, 65536, 0.000259, 0.000214, 0.000178, 0.000651
{ignore 8191}, 1, 1, 16384, 65536, 0.000310, 0.000251, 0.000178, 0.000739
{ignore 8132}, 1, 8, 16384, 32768, 0.000054, 0.000058, 0.000125, 0.000238
{ignore 8132}, 1, 4, 16384, 32768, 0.000107, 0.000106, 0.000126, 0.000339
{ignore 8132}, 1, 2, 16384, 32768, 0.000209, 0.000204, 0.000130, 0.000543
{ignore 8132}, 1, 1, 16384, 32768, 0.000312, 0.000305, 0.000110, 0.000728
{ignore 8177}, 1, 8, 16384, 16384, 0.000044, 0.000058, 0.000054, 0.000157
{ignore 8177}, 1, 4, 16384, 16384, 0.000088, 0.000113, 0.000055, 0.000255
{ignore 8177}, 1, 2, 16384, 16384, 0.000174, 0.000218, 0.000055, 0.000447
{ignore 8177}, 1, 1, 16384, 16384, 0.000348, 0.000426, 0.000073, 0.000846
{ignore 4132}, 1, 8, 8192, 2097152, 0.002055, 0.000034, 0.005292, 0.007381
{ignore 4132}, 1, 4, 8192, 2097152, 0.004032, 0.000056, 0.005296, 0.009384
{ignore 4132}, 1, 2, 8192, 2097152, 0.008029, 0.000109, 0.005296, 0.013434
{ignore 4132}, 1, 1, 8192, 2097152, 0.007890, 0.000102, 0.005314, 0.013307
{ignore 4135}, 1, 8, 8192, 1048576, 0.000989, 0.000025, 0.002523, 0.003537
{ignore 4135}, 1, 4, 8192, 1048576, 0.001972, 0.000048, 0.002419, 0.004440
{ignore 4135}, 1, 2, 8192, 1048576, 0.003944, 0.000098, 0.002435, 0.006477
{ignore 4135}, 1, 1, 8192, 1048576, 0.003935, 0.000099, 0.002411, 0.006446
{ignore 4060}, 1, 8, 8192, 524288, 0.000497, 0.000025, 0.001214, 0.001737
{ignore 4060}, 1, 4, 8192, 524288, 0.000989, 0.000048, 0.001237, 0.002274
{ignore 4060}, 1, 2, 8192, 524288, 0.001969, 0.000099, 0.001194, 0.003262
{ignore 4060}, 1, 1, 8192, 524288, 0.001968, 0.000097, 0.001205, 0.003270
{ignore 4187}, 1, 8, 8192, 262144, 0.000252, 0.000026, 0.000593, 0.000872
{ignore 4187}, 1, 4, 8192, 262144, 0.000423, 0.000042, 0.000594, 0.001059
{ignore 4187}, 1, 2, 8192, 262144, 0.000850, 0.000086, 0.000595, 0.001531
{ignore 4187}, 1, 1, 8192, 262144, 0.000981, 0.000097, 0.000595, 0.001673
{ignore 4093}, 1, 8, 8192, 131072, 0.000130, 0.000031, 0.000574, 0.000736
{ignore 4093}, 1, 4, 8192, 131072, 0.000251, 0.000051, 0.000460, 0.000762
{ignore 4093}, 1, 2, 8192, 131072, 0.000493, 0.000098, 0.000459, 0.001051
{ignore 4093}, 1, 1, 8192, 131072, 0.000982, 0.000192, 0.000574, 0.001748
{ignore 4090}, 1, 8, 8192, 65536, 0.000067, 0.000031, 0.000288, 0.000386
{ignore 4090}, 1, 4, 8192, 65536, 0.000128, 0.000054, 0.000287, 0.000470
{ignore 4090}, 1, 2, 8192, 65536, 0.000249, 0.000102, 0.000288, 0.000639
{ignore 4090}, 1, 1, 8192, 65536, 0.000491, 0.000197, 0.000288, 0.000976
{ignore 4077}, 1, 8, 8192, 32768, 0.000038, 0.000030, 0.000146, 0.000215
{ignore 4077}, 1, 4, 8192, 32768, 0.000069, 0.000054, 0.000146, 0.000269
{ignore 4077}, 1, 2, 8192, 32768, 0.000133, 0.000102, 0.000146, 0.000381
{ignore 4077}, 1, 1, 8192, 32768, 0.000258, 0.000194, 0.000146, 0.000599
{ignore 4046}, 1, 8, 8192, 16384, 0.000024, 0.000030, 0.000075, 0.000130
{ignore 4046}, 1, 4, 8192, 16384, 0.000053, 0.000053, 0.000075, 0.000182
{ignore 4046}, 1, 2, 8192, 16384, 0.000107, 0.000102, 0.000075, 0.000284
{ignore 4046}, 1, 1, 8192, 16384, 0.000207, 0.000195, 0.000076, 0.000478
{ignore 4047}, 1, 8, 8192, 8192, 0.000021, 0.000029, 0.000037, 0.000087
{ignore 4047}, 1, 4, 8192, 8192, 0.000044, 0.000051, 0.000037, 0.000133
{ignore 4047}, 1, 2, 8192, 8192, 0.000089, 0.000100, 0.000037, 0.000227
{ignore 4047}, 1, 1, 8192, 8192, 0.000173, 0.000193, 0.000037, 0.000403
{ignore 2057}, 1, 8, 4096, 2097152, 0.002062, 0.000019, 0.005178, 0.007259
{ignore 2057}, 1, 4, 4096, 2097152, 0.004040, 0.000030, 0.005172, 0.009243
{ignore 2057}, 1, 2, 4096, 2097152, 0.008045, 0.000064, 0.005183, 0.013291
{ignore 2057}, 1, 1, 4096, 2097152, 0.007909, 0.000049, 0.005153, 0.013111
{ignore 2084}, 1, 8, 4096, 1048576, 0.000991, 0.000015, 0.002348, 0.003354
{ignore 2084}, 1, 4, 4096, 1048576, 0.001976, 0.000024, 0.002389, 0.004389
{ignore 2084}, 1, 2, 4096, 1048576, 0.003949, 0.000048, 0.002395, 0.006392
{ignore 2084}, 1, 1, 4096, 1048576, 0.003941, 0.000047, 0.002325, 0.006313
{ignore 2025}, 1, 8, 4096, 524288, 0.000500, 0.000016, 0.001196, 0.001712
{ignore 2025}, 1, 4, 4096, 524288, 0.000986, 0.000023, 0.001160, 0.002169
{ignore 2025}, 1, 2, 4096, 524288, 0.001978, 0.000047, 0.001231, 0.003256
{ignore 2025}, 1, 1, 4096, 524288, 0.001967, 0.000047, 0.001160, 0.003174
{ignore 2023}, 1, 8, 4096, 262144, 0.000259, 0.000017, 0.001187, 0.001464
{ignore 2023}, 1, 4, 4096, 262144, 0.000499, 0.000026, 0.001189, 0.001713
{ignore 2023}, 1, 2, 4096, 262144, 0.000992, 0.000049, 0.000950, 0.001992
{ignore 2023}, 1, 1, 4096, 262144, 0.001310, 0.000063, 0.000792, 0.002165
{ignore 2021}, 1, 8, 4096, 131072, 0.000136, 0.000016, 0.000581, 0.000734
{ignore 2021}, 1, 4, 4096, 131072, 0.000256, 0.000026, 0.000582, 0.000864
{ignore 2021}, 1, 2, 4096, 131072, 0.000496, 0.000050, 0.000582, 0.001128
{ignore 2021}, 1, 1, 4096, 131072, 0.000842, 0.000080, 0.000498, 0.001421
{ignore 2002}, 1, 8, 4096, 65536, 0.000067, 0.000016, 0.000253, 0.000337
{ignore 2002}, 1, 4, 4096, 65536, 0.000127, 0.000027, 0.000253, 0.000408
{ignore 2002}, 1, 2, 4096, 65536, 0.000250, 0.000052, 0.000295, 0.000597
{ignore 2002}, 1, 1, 4096, 65536, 0.000492, 0.000097, 0.000295, 0.000884
{ignore 2055}, 1, 8, 4096, 32768, 0.000037, 0.000017, 0.000144, 0.000197
{ignore 2055}, 1, 4, 4096, 32768, 0.000066, 0.000028, 0.000144, 0.000238
{ignore 2055}, 1, 2, 4096, 32768, 0.000127, 0.000053, 0.000144, 0.000324
{ignore 2055}, 1, 1, 4096, 32768, 0.000246, 0.000095, 0.000144, 0.000485
{ignore 2008}, 1, 8, 4096, 16384, 0.000022, 0.000017, 0.000072, 0.000111
{ignore 2008}, 1, 4, 4096, 16384, 0.000036, 0.000029, 0.000072, 0.000137
{ignore 2008}, 1, 2, 4096, 16384, 0.000067, 0.000052, 0.000072, 0.000191
{ignore 2008}, 1, 1, 4096, 16384, 0.000128, 0.000095, 0.000072, 0.000295
{ignore 1954}, 1, 8, 4096, 8192, 0.000015, 0.000017, 0.000036, 0.000068
{ignore 1954}, 1, 4, 4096, 8192, 0.000023, 0.000027, 0.000036, 0.000086
{ignore 1954}, 1, 2, 4096, 8192, 0.000052, 0.000051, 0.000036, 0.000140
{ignore 1954}, 1, 1, 4096, 8192, 0.000104, 0.000094, 0.000036, 0.000234
{ignore 1979}, 1, 8, 4096, 4096, 0.000012, 0.000018, 0.000019, 0.000048
{ignore 1979}, 1, 4, 4096, 4096, 0.000020, 0.000028, 0.000019, 0.000066
{ignore 1979}, 1, 2, 4096, 4096, 0.000043, 0.000050, 0.000019, 0.000112
{ignore 1979}, 1, 1, 4096, 4096, 0.000085, 0.000094, 0.000019, 0.000198
{ignore 1017}, 1, 8, 2048, 2097152, 0.002058, 0.000014, 0.005135, 0.007207
{ignore 1017}, 1, 4, 2048, 2097152, 0.004042, 0.000018, 0.005133, 0.009194
{ignore 1017}, 1, 2, 2048, 2097152, 0.008044, 0.000040, 0.005144, 0.013227
{ignore 1017}, 1, 1, 2048, 2097152, 0.007915, 0.000023, 0.005147, 0.013086
{ignore 1044}, 1, 8, 2048, 1048576, 0.000992, 0.000011, 0.002439, 0.003442
{ignore 1044}, 1, 4, 2048, 1048576, 0.001974, 0.000013, 0.002430, 0.004417
{ignore 1044}, 1, 2, 2048, 1048576, 0.003949, 0.000023, 0.002470, 0.006442
{ignore 1044}, 1, 1, 2048, 1048576, 0.003944, 0.000023, 0.002403, 0.006371
{ignore 1054}, 1, 8, 2048, 524288, 0.000498, 0.000011, 0.001192, 0.001701
{ignore 1054}, 1, 4, 2048, 524288, 0.000995, 0.000015, 0.002391, 0.003401
{ignore 1054}, 1, 2, 2048, 524288, 0.001971, 0.000023, 0.001192, 0.003187
{ignore 1054}, 1, 1, 2048, 524288, 0.001970, 0.000022, 0.001192, 0.003184
{ignore 970}, 1, 8, 2048, 262144, 0.000251, 0.000011, 0.000592, 0.000853
{ignore 970}, 1, 4, 2048, 262144, 0.000497, 0.000014, 0.001184, 0.001696
{ignore 970}, 1, 2, 2048, 262144, 0.000986, 0.000024, 0.000948, 0.001958
{ignore 970}, 1, 1, 2048, 262144, 0.001967, 0.000043, 0.001184, 0.003194
{ignore 1022}, 1, 8, 2048, 131072, 0.000136, 0.000013, 0.000590, 0.000739
{ignore 1022}, 1, 4, 2048, 131072, 0.000250, 0.000016, 0.000590, 0.000856
{ignore 1022}, 1, 2, 2048, 131072, 0.000495, 0.000026, 0.000590, 0.001112
{ignore 1022}, 1, 1, 2048, 131072, 0.000963, 0.000035, 0.000491, 0.001488
{ignore 1001}, 1, 8, 2048, 65536, 0.000067, 0.000013, 0.000237, 0.000317
{ignore 1001}, 1, 4, 2048, 65536, 0.000128, 0.000015, 0.000236, 0.000378
{ignore 1001}, 1, 2, 2048, 65536, 0.000249, 0.000024, 0.000236, 0.000509
{ignore 1001}, 1, 1, 2048, 65536, 0.000369, 0.000034, 0.000221, 0.000623
{ignore 995}, 1, 8, 2048, 32768, 0.000037, 0.000013, 0.000144, 0.000194
{ignore 995}, 1, 4, 2048, 32768, 0.000065, 0.000015, 0.000108, 0.000188
{ignore 995}, 1, 2, 2048, 32768, 0.000126, 0.000027, 0.000108, 0.000260
{ignore 995}, 1, 1, 2048, 32768, 0.000185, 0.000035, 0.000108, 0.000328
{ignore 983}, 1, 8, 2048, 16384, 0.000020, 0.000011, 0.000054, 0.000086
{ignore 983}, 1, 4, 2048, 16384, 0.000036, 0.000016, 0.000054, 0.000105
{ignore 983}, 1, 2, 2048, 16384, 0.000064, 0.000028, 0.000054, 0.000146
{ignore 983}, 1, 1, 2048, 16384, 0.000124, 0.000047, 0.000072, 0.000243
{ignore 992}, 1, 8, 2048, 8192, 0.000014, 0.000012, 0.000036, 0.000062
{ignore 992}, 1, 4, 2048, 8192, 0.000020, 0.000016, 0.000036, 0.000072
{ignore 992}, 1, 2, 2048, 8192, 0.000035, 0.000028, 0.000036, 0.000099
{ignore 992}, 1, 1, 2048, 8192, 0.000064, 0.000046, 0.000036, 0.000146
{ignore 1002}, 1, 8, 2048, 4096, 0.000010, 0.000013, 0.000018, 0.000042
{ignore 1002}, 1, 4, 2048, 4096, 0.000012, 0.000015, 0.000018, 0.000045
{ignore 1002}, 1, 2, 2048, 4096, 0.000024, 0.000027, 0.000019, 0.000070
{ignore 1002}, 1, 1, 2048, 4096, 0.000050, 0.000048, 0.000018, 0.000116
{ignore 1011}, 1, 8, 2048, 2048, 0.000009, 0.000012, 0.000009, 0.000030
{ignore 1011}, 1, 4, 2048, 2048, 0.000010, 0.000015, 0.000009, 0.000035
{ignore 1011}, 1, 2, 2048, 2048, 0.000020, 0.000026, 0.000009, 0.000055
{ignore 1011}, 1, 1, 2048, 2048, 0.000040, 0.000046, 0.000009, 0.000096
{ignore 511}, 1, 8, 1024, 2097152, 0.002053, 0.000010, 0.005038, 0.007101
{ignore 511}, 1, 4, 1024, 2097152, 0.004033, 0.000012, 0.005026, 0.009071
{ignore 511}, 1, 2, 1024, 2097152, 0.008029, 0.000027, 0.005045, 0.013102
{ignore 511}, 1, 1, 1024, 2097152, 0.007894, 0.000011, 0.005047, 0.012952
{ignore 514}, 1, 8, 1024, 1048576, 0.000990, 0.000010, 0.002327, 0.003326
{ignore 514}, 1, 4, 1024, 1048576, 0.001976, 0.000010, 0.002444, 0.004430
{ignore 514}, 1, 2, 1024, 1048576, 0.003940, 0.000012, 0.002331, 0.006283
{ignore 514}, 1, 1, 1024, 1048576, 0.003946, 0.000010, 0.002328, 0.006284
{ignore 540}, 1, 8, 1024, 524288, 0.000497, 0.000010, 0.001160, 0.001667
{ignore 540}, 1, 4, 1024, 524288, 0.000990, 0.000010, 0.001161, 0.002161
{ignore 540}, 1, 2, 1024, 524288, 0.001975, 0.000014, 0.002029, 0.004018
{ignore 540}, 1, 1, 1024, 524288, 0.003375, 0.000017, 0.001990, 0.005382
{ignore 495}, 1, 8, 1024, 262144, 0.000250, 0.000010, 0.000592, 0.000852
{ignore 495}, 1, 4, 1024, 262144, 0.000494, 0.000011, 0.000592, 0.001097
{ignore 495}, 1, 2, 1024, 262144, 0.000985, 0.000015, 0.000592, 0.001591
{ignore 495}, 1, 1, 1024, 262144, 0.001968, 0.000020, 0.001185, 0.003173
{ignore 501}, 1, 8, 1024, 131072, 0.000129, 0.000011, 0.000573, 0.000713
{ignore 501}, 1, 4, 1024, 131072, 0.000252, 0.000011, 0.000573, 0.000837
{ignore 501}, 1, 2, 1024, 131072, 0.000494, 0.000013, 0.000529, 0.001036
{ignore 501}, 1, 1, 1024, 131072, 0.000908, 0.000018, 0.000529, 0.001455
{ignore 483}, 1, 8, 1024, 65536, 0.000068, 0.000012, 0.000287, 0.000366
{ignore 483}, 1, 4, 1024, 65536, 0.000128, 0.000011, 0.000287, 0.000426
{ignore 483}, 1, 2, 1024, 65536, 0.000250, 0.000015, 0.000287, 0.000552
{ignore 483}, 1, 1, 1024, 65536, 0.000422, 0.000016, 0.000246, 0.000684
{ignore 477}, 1, 8, 1024, 32768, 0.000036, 0.000011, 0.000125, 0.000171
{ignore 477}, 1, 4, 1024, 32768, 0.000065, 0.000011, 0.000125, 0.000201
{ignore 477}, 1, 2, 1024, 32768, 0.000126, 0.000014, 0.000125, 0.000264
{ignore 477}, 1, 1, 1024, 32768, 0.000211, 0.000017, 0.000124, 0.000353
{ignore 492}, 1, 8, 1024, 16384, 0.000021, 0.000012, 0.000062, 0.000095
{ignore 492}, 1, 4, 1024, 16384, 0.000035, 0.000010, 0.000062, 0.000107
{ignore 492}, 1, 2, 1024, 16384, 0.000065, 0.000014, 0.000063, 0.000142
{ignore 492}, 1, 1, 1024, 16384, 0.000123, 0.000023, 0.000073, 0.000219
{ignore 504}, 1, 8, 1024, 8192, 0.000014, 0.000012, 0.000037, 0.000064
{ignore 504}, 1, 4, 1024, 8192, 0.000019, 0.000010, 0.000037, 0.000067
{ignore 504}, 1, 2, 1024, 8192, 0.000034, 0.000015, 0.000037, 0.000086
{ignore 504}, 1, 1, 1024, 8192, 0.000062, 0.000023, 0.000037, 0.000122
{ignore 532}, 1, 8, 1024, 4096, 0.000012, 0.000011, 0.000018, 0.000041
{ignore 532}, 1, 4, 1024, 4096, 0.000013, 0.000012, 0.000018, 0.000043
{ignore 532}, 1, 2, 1024, 4096, 0.000019, 0.000014, 0.000018, 0.000051
{ignore 532}, 1, 1, 1024, 4096, 0.000032, 0.000023, 0.000018, 0.000073
{ignore 514}, 1, 8, 1024, 2048, 0.000009, 0.000012, 0.000009, 0.000030
{ignore 514}, 1, 4, 1024, 2048, 0.000009, 0.000011, 0.000009, 0.000030
{ignore 514}, 1, 2, 1024, 2048, 0.000012, 0.000014, 0.000009, 0.000035
{ignore 514}, 1, 1, 1024, 2048, 0.000021, 0.000023, 0.000009, 0.000053
{ignore 521}, 1, 8, 1024, 1024, 0.000009, 0.000010, 0.000005, 0.000024
{ignore 521}, 1, 4, 1024, 1024, 0.000008, 0.000012, 0.000005, 0.000024
{ignore 521}, 1, 2, 1024, 1024, 0.000009, 0.000014, 0.000005, 0.000028
{ignore 521}, 1, 1, 1024, 1024, 0.000017, 0.000022, 0.000005, 0.000044
