band, 4 Bytes, Write 0.055 ms 0.069 MB/s, Read 0.018 ms 0.207 MB/s
band, 52 Bytes, Write 0.055 ms 0.897 MB/s, Read 0.018 ms 2.690 MB/s
band, 104 Bytes, Write 0.055 ms 1.794 MB/s, Read 0.018 ms 5.381 MB/s
band, 156 Bytes, Write 0.055 ms 2.690 MB/s, Read 0.018 ms 8.071 MB/s
band, 208 Bytes, Write 0.055 ms 3.587 MB/s, Read 0.018 ms 10.762 MB/s
band, 256 Bytes, Write 0.037 ms 6.623 MB/s, Read 0.018 ms 13.245 MB/s
band, 308 Bytes, Write 0.055 ms 5.312 MB/s, Read 0.018 ms 15.936 MB/s
band, 360 Bytes, Write 0.055 ms 6.209 MB/s, Read 0.018 ms 18.626 MB/s
band, 412 Bytes, Write 0.055 ms 7.106 MB/s, Read 0.018 ms 21.317 MB/s
band, 460 Bytes, Write 0.055 ms 7.933 MB/s, Read 0.018 ms 23.800 MB/s
band, 512 Bytes, Write 0.055 ms 8.830 MB/s, Read 0.037 ms 13.245 MB/s
band, 564 Bytes, Write 0.055 ms 9.727 MB/s, Read 0.037 ms 14.591 MB/s
band, 616 Bytes, Write 0.055 ms 10.624 MB/s, Read 0.037 ms 15.936 MB/s
band, 664 Bytes, Write 0.055 ms 11.452 MB/s, Read 0.037 ms 17.178 MB/s
band, 716 Bytes, Write 0.055 ms 12.349 MB/s, Read 0.037 ms 18.523 MB/s
band, 768 Bytes, Write 0.055 ms 13.245 MB/s, Read 0.037 ms 19.868 MB/s
band, 820 Bytes, Write 0.055 ms 14.142 MB/s, Read 0.037 ms 21.213 MB/s
band, 868 Bytes, Write 0.055 ms 14.970 MB/s, Read 0.037 ms 22.455 MB/s
band, 920 Bytes, Write 0.055 ms 15.867 MB/s, Read 0.037 ms 23.800 MB/s
band, 972 Bytes, Write 0.055 ms 16.764 MB/s, Read 0.037 ms 25.146 MB/s
band, 1024 Bytes, Write 0.055 ms 17.661 MB/s, Read 0.037 ms 26.491 MB/s
band, 53400 Bytes, Write 0.092 ms 552.579 MB/s, Read 0.221 ms 230.243 MB/s
band, 105776 Bytes, Write 0.147 ms 684.104 MB/s, Read 0.424 ms 237.948 MB/s
band, 158152 Bytes, Write 0.332 ms 454.596 MB/s, Read 0.571 ms 263.959 MB/s
band, 210532 Bytes, Write 0.442 ms 453.869 MB/s, Read 0.756 ms 265.679 MB/s
band, 262908 Bytes, Write 0.664 ms 377.855 MB/s, Read 0.903 ms 277.608 MB/s
band, 315284 Bytes, Write 0.793 ms 379.365 MB/s, Read 0.903 ms 332.912 MB/s
band, 367660 Bytes, Write 0.940 ms 372.993 MB/s, Read 1.032 ms 339.690 MB/s
band, 420040 Bytes, Write 1.161 ms 344.964 MB/s, Read 1.087 ms 368.352 MB/s
band, 472416 Bytes, Write 1.327 ms 339.481 MB/s, Read 1.180 ms 381.917 MB/s
band, 524792 Bytes, Write 1.530 ms 327.140 MB/s, Read 1.309 ms 382.431 MB/s
band, 577168 Bytes, Write 1.677 ms 328.159 MB/s, Read 1.438 ms 382.852 MB/s
band, 629548 Bytes, Write 1.825 ms 329.016 MB/s, Read 1.548 ms 387.769 MB/s
band, 681924 Bytes, Write 2.046 ms 317.861 MB/s, Read 1.677 ms 387.720 MB/s
band, 734300 Bytes, Write 2.157 ms 324.722 MB/s, Read 1.825 ms 383.762 MB/s
band, 786676 Bytes, Write 2.396 ms 313.095 MB/s, Read 1.954 ms 383.985 MB/s
band, 839056 Bytes, Write 2.525 ms 316.880 MB/s, Read 2.064 ms 387.612 MB/s
band, 891432 Bytes, Write 2.673 ms 318.086 MB/s, Read 2.175 ms 390.868 MB/s
band, 943808 Bytes, Write 2.894 ms 311.034 MB/s, Read 2.304 ms 390.659 MB/s
band, 996184 Bytes, Write 3.023 ms 314.282 MB/s, Read 2.433 ms 390.472 MB/s
band, 1048564 Bytes, Write 3.152 ms 317.265 MB/s, Read 2.544 ms 393.133 MB/s
band, 1048576 Bytes, Write 3.023 ms 330.811 MB/s, Read 2.581 ms 387.521 MB/s
band, 1835008 Bytes, Write 5.382 ms 325.146 MB/s, Read 4.571 ms 382.834 MB/s
band, 2621440 Bytes, Write 7.649 ms 326.825 MB/s, Read 6.285 ms 397.749 MB/s
band, 3407872 Bytes, Write 9.972 ms 325.919 MB/s, Read 8.368 ms 388.375 MB/s
band, 4194304 Bytes, Write 12.294 ms 325.355 MB/s, Read 10.728 ms 372.873 MB/s
band, 4980736 Bytes, Write 14.525 ms 327.033 MB/s, Read 11.926 ms 398.303 MB/s
band, 5767168 Bytes, Write 16.792 ms 327.543 MB/s, Read 13.806 ms 398.387 MB/s
band, 6553600 Bytes, Write 19.096 ms 327.298 MB/s, Read 15.723 ms 397.516 MB/s
band, 7340032 Bytes, Write 21.400 ms 327.107 MB/s, Read 17.566 ms 398.501 MB/s
band, 8126464 Bytes, Write 23.630 ms 327.973 MB/s, Read 19.557 ms 396.287 MB/s
band, 8912896 Bytes, Write 26.211 ms 324.297 MB/s, Read 21.695 ms 391.802 MB/s
band, 9699328 Bytes, Write 28.183 ms 328.215 MB/s, Read 23.206 ms 398.602 MB/s
band, 10485760 Bytes, Write 30.800 ms 324.674 MB/s, Read 28.607 ms 349.568 MB/s
band, 11272192 Bytes, Write 34.247 ms 313.897 MB/s, Read 26.634 ms 403.612 MB/s
band, 12058624 Bytes, Write 36.993 ms 310.867 MB/s, Read 32.772 ms 350.905 MB/s
band, 12845056 Bytes, Write 37.473 ms 326.906 MB/s, Read 30.819 ms 397.488 MB/s
band, 13631488 Bytes, Write 39.684 ms 327.584 MB/s, Read 32.772 ms 396.675 MB/s
band, 14417920 Bytes, Write 42.984 ms 319.888 MB/s, Read 34.450 ms 399.133 MB/s
band, 15204352 Bytes, Write 46.117 ms 314.416 MB/s, Read 35.961 ms 403.213 MB/s
band, 15990784 Bytes, Write 46.412 ms 328.578 MB/s, Read 38.210 ms 399.112 MB/s
