Tband, 4 Bytes, Write 0.055 ms 0.069 MB/s, Read 0.018 ms 0.207 MB/s
Tband, 52 Bytes, Write 0.055 ms 0.897 MB/s, Read 0.018 ms 2.690 MB/s
Tband, 104 Bytes, Write 0.055 ms 1.794 MB/s, Read 0.018 ms 5.381 MB/s
Tband, 156 Bytes, Write 0.055 ms 2.690 MB/s, Read 0.018 ms 8.071 MB/s
Tband, 208 Bytes, Write 0.055 ms 3.587 MB/s, Read 0.018 ms 10.762 MB/s
Tband, 256 Bytes, Write 0.055 ms 4.415 MB/s, Read 0.018 ms 13.245 MB/s
Tband, 308 Bytes, Write 0.055 ms 5.312 MB/s, Read 0.018 ms 15.936 MB/s
Tband, 360 Bytes, Write 0.055 ms 6.209 MB/s, Read 0.018 ms 18.626 MB/s
Tband, 412 Bytes, Write 0.055 ms 7.106 MB/s, Read 0.018 ms 21.317 MB/s
Tband, 460 Bytes, Write 0.055 ms 7.933 MB/s, Read 0.018 ms 23.800 MB/s
Tband, 512 Bytes, Write 0.055 ms 8.830 MB/s, Read 0.018 ms 26.491 MB/s
Tband, 564 Bytes, Write 0.055 ms 9.727 MB/s, Read 0.018 ms 29.181 MB/s
Tband, 616 Bytes, Write 0.055 ms 10.624 MB/s, Read 0.018 ms 31.872 MB/s
Tband, 664 Bytes, Write 0.055 ms 11.452 MB/s, Read 0.018 ms 34.355 MB/s
Tband, 716 Bytes, Write 0.055 ms 12.348 MB/s, Read 0.018 ms 37.046 MB/s
Tband, 768 Bytes, Write 0.055 ms 13.245 MB/s, Read 0.018 ms 39.736 MB/s
Tband, 820 Bytes, Write 0.055 ms 14.142 MB/s, Read 0.018 ms 42.427 MB/s
Tband, 868 Bytes, Write 0.055 ms 14.970 MB/s, Read 0.018 ms 44.910 MB/s
Tband, 920 Bytes, Write 0.055 ms 15.867 MB/s, Read 0.018 ms 47.601 MB/s
Tband, 972 Bytes, Write 0.055 ms 16.764 MB/s, Read 0.018 ms 50.291 MB/s
Tband, 1024 Bytes, Write 0.055 ms 17.661 MB/s, Read 0.018 ms 52.982 MB/s
Tband, 53400 Bytes, Write 0.111 ms 460.483 MB/s, Read 0.147 ms 345.363 MB/s
Tband, 105776 Bytes, Write 0.184 ms 547.281 MB/s, Read 0.442 ms 228.034 MB/s
Tband, 158152 Bytes, Write 0.369 ms 409.137 MB/s, Read 0.811 ms 185.971 MB/s
Tband, 210532 Bytes, Write 0.479 ms 418.956 MB/s, Read 1.087 ms 184.625 MB/s
Tband, 367660 Bytes, Write 0.958 ms 365.820 MB/s, Read 1.880 ms 186.496 MB/s
Tband, 472416 Bytes, Write 1.401 ms 321.614 MB/s, Read 2.415 ms 186.585 MB/s
Tband, 524792 Bytes, Write 1.640 ms 305.085 MB/s, Read 2.765 ms 181.017 MB/s
Tband, 577168 Bytes, Write 1.788 ms 307.861 MB/s, Read 2.968 ms 185.481 MB/s
Tband, 629548 Bytes, Write 1.935 ms 310.215 MB/s, Read 3.189 ms 188.281 MB/s
Tband, 681924 Bytes, Write 2.175 ms 299.005 MB/s, Read 3.484 ms 186.680 MB/s
Tband, 786676 Bytes, Write 2.636 ms 284.632 MB/s, Read 4.074 ms 184.174 MB/s
Tband, 943808 Bytes, Write 3.281 ms 274.339 MB/s, Read 4.848 ms 185.674 MB/s
Tband, 1048564 Bytes, Write 3.576 ms 279.651 MB/s, Read 5.290 ms 189.033 MB/s
