async, 1, 0.00KB, x 1, 0, 0.166000 ms, 0.01 MB/s
async, 1, 0.00KB, x 10, 0, 0.203000 ms, 0.05 MB/s
async, 1, 0.00KB, x 100, 0, 0.406000 ms, 0.23 MB/s
async, 1, 0.00KB, x 1000, 0, 1.880000 ms, 0.51 MB/s
async, 11, 0.01KB, x 1, 0, 0.166000 ms, 0.06 MB/s
async, 11, 0.01KB, x 10, 0, 0.203000 ms, 0.52 MB/s
async, 11, 0.01KB, x 100, 0, 0.424000 ms, 2.47 MB/s
async, 11, 0.01KB, x 1000, 0, 2.009000 ms, 5.22 MB/s
async, 21, 0.02KB, x 1, 0, 0.166000 ms, 0.12 MB/s
async, 21, 0.02KB, x 10, 0, 0.203000 ms, 0.99 MB/s
async, 21, 0.02KB, x 100, 0, 0.461000 ms, 4.34 MB/s
async, 21, 0.02KB, x 1000, 0, 2.175000 ms, 9.21 MB/s
async, 31, 0.03KB, x 1, 0, 0.166000 ms, 0.18 MB/s
async, 31, 0.03KB, x 10, 0, 0.203000 ms, 1.46 MB/s
async, 31, 0.03KB, x 100, 0, 0.480000 ms, 6.16 MB/s
async, 31, 0.03KB, x 1000, 0, 2.285000 ms, 12.94 MB/s
async, 41, 0.04KB, x 1, 0, 0.166000 ms, 0.24 MB/s
async, 41, 0.04KB, x 10, 0, 0.221000 ms, 1.77 MB/s
async, 41, 0.04KB, x 100, 0, 0.516000 ms, 7.58 MB/s
async, 41, 0.04KB, x 1000, 0, 2.415000 ms, 16.19 MB/s
async, 51, 0.05KB, x 1, 0, 0.184000 ms, 0.26 MB/s
async, 51, 0.05KB, x 10, 0, 0.203000 ms, 2.40 MB/s
async, 51, 0.05KB, x 100, 0, 0.553000 ms, 8.80 MB/s
async, 51, 0.05KB, x 1000, 0, 2.636000 ms, 18.45 MB/s
async, 61, 0.06KB, x 1, 0, 0.166000 ms, 0.35 MB/s
async, 61, 0.06KB, x 10, 0, 0.221000 ms, 2.63 MB/s
async, 61, 0.06KB, x 100, 0, 0.572000 ms, 10.17 MB/s
async, 61, 0.06KB, x 1000, 0, 2.746000 ms, 21.19 MB/s
async, 71, 0.07KB, x 1, 0, 0.184000 ms, 0.37 MB/s
async, 71, 0.07KB, x 10, 0, 0.221000 ms, 3.06 MB/s
async, 71, 0.07KB, x 100, 0, 0.572000 ms, 11.84 MB/s
async, 71, 0.07KB, x 1000, 0, 2.839000 ms, 23.85 MB/s
async, 81, 0.08KB, x 1, 0, 0.166000 ms, 0.47 MB/s
async, 81, 0.08KB, x 10, 0, 0.239000 ms, 3.23 MB/s
async, 81, 0.08KB, x 100, 0, 0.608000 ms, 12.71 MB/s
async, 81, 0.08KB, x 1000, 0, 3.152000 ms, 24.51 MB/s
async, 91, 0.09KB, x 1, 0, 0.184000 ms, 0.47 MB/s
async, 91, 0.09KB, x 10, 0, 0.222000 ms, 3.91 MB/s
async, 91, 0.09KB, x 100, 0, 0.608000 ms, 14.27 MB/s
async, 91, 0.09KB, x 1000, 0, 3.263000 ms, 26.60 MB/s
async, 101, 0.10KB, x 1, 0, 0.184000 ms, 0.52 MB/s
async, 101, 0.10KB, x 10, 0, 0.239000 ms, 4.03 MB/s
async, 101, 0.10KB, x 100, 0, 0.608000 ms, 15.84 MB/s
async, 101, 0.10KB, x 1000, 0, 3.428000 ms, 28.10 MB/s
async, 111, 0.11KB, x 1, 0, 0.184000 ms, 0.58 MB/s
async, 111, 0.11KB, x 10, 0, 0.258000 ms, 4.10 MB/s
async, 111, 0.11KB, x 100, 0, 0.645000 ms, 16.41 MB/s
async, 111, 0.11KB, x 1000, 0, 3.521000 ms, 30.06 MB/s
async, 121, 0.12KB, x 1, 0, 0.184000 ms, 0.63 MB/s
async, 121, 0.12KB, x 10, 0, 0.276000 ms, 4.18 MB/s
async, 121, 0.12KB, x 100, 0, 0.645000 ms, 17.89 MB/s
async, 121, 0.12KB, x 1000, 0, 3.889000 ms, 29.67 MB/s
async, 131, 0.13KB, x 1, 0, 0.184000 ms, 0.68 MB/s
async, 131, 0.13KB, x 10, 0, 0.258000 ms, 4.84 MB/s
async, 131, 0.13KB, x 100, 0, 0.646000 ms, 19.34 MB/s
async, 131, 0.13KB, x 1000, 0, 4.018000 ms, 31.09 MB/s
async, 141, 0.14KB, x 1, 0, 0.184000 ms, 0.73 MB/s
async, 141, 0.14KB, x 10, 0, 0.258000 ms, 5.21 MB/s
async, 141, 0.14KB, x 100, 0, 0.682000 ms, 19.72 MB/s
async, 141, 0.14KB, x 1000, 0, 4.202000 ms, 32.00 MB/s
async, 151, 0.15KB, x 1, 0, 0.166000 ms, 0.87 MB/s
async, 151, 0.15KB, x 10, 0, 0.258000 ms, 5.58 MB/s
async, 151, 0.15KB, x 100, 0, 0.682000 ms, 21.12 MB/s
async, 151, 0.15KB, x 1000, 0, 4.406000 ms, 32.68 MB/s
async, 161, 0.16KB, x 1, 0, 0.184000 ms, 0.83 MB/s
async, 161, 0.16KB, x 10, 0, 0.259000 ms, 5.93 MB/s
async, 161, 0.16KB, x 100, 0, 0.701000 ms, 21.90 MB/s
async, 161, 0.16KB, x 1000, 0, 4.700000 ms, 32.67 MB/s
async, 171, 0.17KB, x 1, 0, 0.184000 ms, 0.89 MB/s
async, 171, 0.17KB, x 10, 0, 0.276000 ms, 5.91 MB/s
async, 171, 0.17KB, x 100, 0, 0.719000 ms, 22.68 MB/s
async, 171, 0.17KB, x 1000, 0, 4.811000 ms, 33.90 MB/s
async, 181, 0.18KB, x 1, 0, 0.184000 ms, 0.94 MB/s
async, 181, 0.18KB, x 10, 0, 0.276000 ms, 6.25 MB/s
async, 181, 0.18KB, x 100, 0, 0.737000 ms, 23.42 MB/s
async, 181, 0.18KB, x 1000, 0, 5.143000 ms, 33.56 MB/s
async, 191, 0.19KB, x 1, 0, 0.184000 ms, 0.99 MB/s
async, 191, 0.19KB, x 10, 0, 0.276000 ms, 6.60 MB/s
async, 191, 0.19KB, x 100, 0, 0.737000 ms, 24.72 MB/s
async, 191, 0.19KB, x 1000, 0, 5.217000 ms, 34.92 MB/s
async, 201, 0.20KB, x 1, 0, 0.184000 ms, 1.04 MB/s
async, 201, 0.20KB, x 10, 0, 0.276000 ms, 6.95 MB/s
async, 201, 0.20KB, x 100, 0, 0.756000 ms, 25.36 MB/s
async, 201, 0.20KB, x 1000, 0, 5.438000 ms, 35.25 MB/s
async, 211, 0.21KB, x 1, 0, 0.184000 ms, 1.09 MB/s
async, 211, 0.21KB, x 10, 0, 0.276000 ms, 7.29 MB/s
async, 211, 0.21KB, x 100, 0, 0.792000 ms, 25.41 MB/s
async, 211, 0.21KB, x 1000, 0, 5.714000 ms, 35.22 MB/s
async, 221, 0.22KB, x 1, 0, 0.184000 ms, 1.15 MB/s
async, 221, 0.22KB, x 10, 0, 0.276000 ms, 7.64 MB/s
async, 221, 0.22KB, x 100, 0, 0.793000 ms, 26.58 MB/s
async, 221, 0.22KB, x 1000, 0, 5.824000 ms, 36.19 MB/s
async, 231, 0.23KB, x 1, 0, 0.184000 ms, 1.20 MB/s
async, 231, 0.23KB, x 10, 0, 0.277000 ms, 7.95 MB/s
async, 231, 0.23KB, x 100, 0, 0.811000 ms, 27.16 MB/s
async, 231, 0.23KB, x 1000, 0, 6.009000 ms, 36.66 MB/s
async, 241, 0.24KB, x 1, 0, 0.184000 ms, 1.25 MB/s
async, 241, 0.24KB, x 10, 0, 0.276000 ms, 8.33 MB/s
async, 241, 0.24KB, x 100, 0, 0.830000 ms, 27.69 MB/s
async, 241, 0.24KB, x 1000, 0, 6.341000 ms, 36.25 MB/s
async, 251, 0.25KB, x 1, 0, 0.184000 ms, 1.30 MB/s
async, 251, 0.25KB, x 10, 0, 0.313000 ms, 7.65 MB/s
async, 251, 0.25KB, x 100, 0, 0.848000 ms, 28.23 MB/s
async, 251, 0.25KB, x 1000, 0, 6.562000 ms, 36.48 MB/s
async, 261, 0.25KB, x 1, 0, 0.184000 ms, 1.35 MB/s
async, 261, 0.25KB, x 10, 0, 0.313000 ms, 7.95 MB/s
async, 261, 0.25KB, x 100, 0, 0.866000 ms, 28.74 MB/s
async, 261, 0.25KB, x 1000, 0, 6.765000 ms, 36.79 MB/s
async, 271, 0.26KB, x 1, 0, 0.184000 ms, 1.40 MB/s
async, 271, 0.26KB, x 10, 0, 0.313000 ms, 8.26 MB/s
async, 271, 0.26KB, x 100, 0, 0.866000 ms, 29.84 MB/s
async, 271, 0.26KB, x 1000, 0, 6.968000 ms, 37.09 MB/s
async, 281, 0.27KB, x 1, 0, 0.184000 ms, 1.46 MB/s
async, 281, 0.27KB, x 10, 0, 0.313000 ms, 8.56 MB/s
async, 281, 0.27KB, x 100, 0, 0.885000 ms, 30.28 MB/s
async, 281, 0.27KB, x 1000, 0, 7.189000 ms, 37.28 MB/s
async, 291, 0.28KB, x 1, 0, 0.184000 ms, 1.51 MB/s
async, 291, 0.28KB, x 10, 0, 0.313000 ms, 8.87 MB/s
async, 291, 0.28KB, x 100, 0, 0.903000 ms, 30.73 MB/s
async, 291, 0.28KB, x 1000, 0, 7.446000 ms, 37.27 MB/s
async, 301, 0.29KB, x 1, 0, 0.184000 ms, 1.56 MB/s
async, 301, 0.29KB, x 10, 0, 0.313000 ms, 9.17 MB/s
async, 301, 0.29KB, x 100, 0, 0.922000 ms, 31.13 MB/s
async, 301, 0.29KB, x 1000, 0, 7.575000 ms, 37.90 MB/s
async, 311, 0.30KB, x 1, 0, 0.184000 ms, 1.61 MB/s
async, 311, 0.30KB, x 10, 0, 0.314000 ms, 9.45 MB/s
async, 311, 0.30KB, x 100, 0, 0.940000 ms, 31.55 MB/s
async, 311, 0.30KB, x 1000, 0, 7.760000 ms, 38.22 MB/s
async, 321, 0.31KB, x 1, 0, 0.184000 ms, 1.66 MB/s
async, 321, 0.31KB, x 10, 0, 0.314000 ms, 9.75 MB/s
async, 321, 0.31KB, x 100, 0, 0.977000 ms, 31.33 MB/s
async, 321, 0.31KB, x 1000, 0, 8.110000 ms, 37.75 MB/s
async, 331, 0.32KB, x 1, 0, 0.184000 ms, 1.72 MB/s
async, 331, 0.32KB, x 10, 0, 0.313000 ms, 10.09 MB/s
async, 331, 0.32KB, x 100, 0, 0.995000 ms, 31.73 MB/s
async, 331, 0.32KB, x 1000, 0, 8.165000 ms, 38.66 MB/s
async, 341, 0.33KB, x 1, 0, 0.185000 ms, 1.76 MB/s
async, 341, 0.33KB, x 10, 0, 0.313000 ms, 10.39 MB/s
async, 341, 0.33KB, x 100, 0, 0.995000 ms, 32.68 MB/s
async, 341, 0.33KB, x 1000, 0, 8.516000 ms, 38.19 MB/s
async, 351, 0.34KB, x 1, 0, 0.184000 ms, 1.82 MB/s
async, 351, 0.34KB, x 10, 0, 0.313000 ms, 10.69 MB/s
async, 351, 0.34KB, x 100, 0, 1.032000 ms, 32.44 MB/s
async, 351, 0.34KB, x 1000, 0, 8.608000 ms, 38.89 MB/s
async, 361, 0.35KB, x 1, 0, 0.185000 ms, 1.86 MB/s
async, 361, 0.35KB, x 10, 0, 0.313000 ms, 11.00 MB/s
async, 361, 0.35KB, x 100, 0, 1.014000 ms, 33.95 MB/s
async, 361, 0.35KB, x 1000, 0, 8.939000 ms, 38.51 MB/s
async, 371, 0.36KB, x 1, 0, 0.184000 ms, 1.92 MB/s
async, 371, 0.36KB, x 10, 0, 0.314000 ms, 11.27 MB/s
async, 371, 0.36KB, x 100, 0, 1.051000 ms, 33.66 MB/s
async, 371, 0.36KB, x 1000, 0, 9.068000 ms, 39.02 MB/s
async, 381, 0.37KB, x 1, 0, 0.184000 ms, 1.97 MB/s
async, 381, 0.37KB, x 10, 0, 0.313000 ms, 11.61 MB/s
async, 381, 0.37KB, x 100, 0, 1.069000 ms, 33.99 MB/s
async, 381, 0.37KB, x 1000, 0, 9.382000 ms, 38.73 MB/s
async, 391, 0.38KB, x 1, 0, 0.184000 ms, 2.03 MB/s
async, 391, 0.38KB, x 10, 0, 0.314000 ms, 11.88 MB/s
async, 391, 0.38KB, x 100, 0, 1.106000 ms, 33.71 MB/s
async, 391, 0.38KB, x 1000, 0, 9.400000 ms, 39.67 MB/s
async, 401, 0.39KB, x 1, 0, 0.184000 ms, 2.08 MB/s
async, 401, 0.39KB, x 10, 0, 0.332000 ms, 11.52 MB/s
async, 401, 0.39KB, x 100, 0, 1.124000 ms, 34.02 MB/s
async, 401, 0.39KB, x 1000, 0, 9.843000 ms, 38.85 MB/s
async, 411, 0.40KB, x 1, 0, 0.184000 ms, 2.13 MB/s
async, 411, 0.40KB, x 10, 0, 0.350000 ms, 11.20 MB/s
async, 411, 0.40KB, x 100, 0, 1.143000 ms, 34.29 MB/s
async, 411, 0.40KB, x 1000, 0, 9.880000 ms, 39.67 MB/s
async, 421, 0.41KB, x 1, 0, 0.185000 ms, 2.17 MB/s
async, 421, 0.41KB, x 10, 0, 0.350000 ms, 11.47 MB/s
async, 421, 0.41KB, x 100, 0, 1.143000 ms, 35.13 MB/s
async, 421, 0.41KB, x 1000, 0, 10.266000 ms, 39.11 MB/s
async, 431, 0.42KB, x 1, 0, 0.184000 ms, 2.23 MB/s
async, 431, 0.42KB, x 10, 0, 0.350000 ms, 11.74 MB/s
async, 431, 0.42KB, x 100, 0, 1.143000 ms, 35.96 MB/s
async, 431, 0.42KB, x 1000, 0, 10.359000 ms, 39.68 MB/s
async, 441, 0.43KB, x 1, 0, 0.185000 ms, 2.27 MB/s
async, 441, 0.43KB, x 10, 0, 0.332000 ms, 12.67 MB/s
async, 441, 0.43KB, x 100, 0, 1.180000 ms, 35.64 MB/s
async, 441, 0.43KB, x 1000, 0, 10.562000 ms, 39.82 MB/s
async, 451, 0.44KB, x 1, 0, 0.185000 ms, 2.32 MB/s
async, 451, 0.44KB, x 10, 0, 0.350000 ms, 12.29 MB/s
async, 451, 0.44KB, x 100, 0, 1.217000 ms, 35.34 MB/s
async, 451, 0.44KB, x 1000, 0, 10.912000 ms, 39.42 MB/s
async, 461, 0.45KB, x 1, 0, 0.185000 ms, 2.38 MB/s
async, 461, 0.45KB, x 10, 0, 0.332000 ms, 13.24 MB/s
async, 461, 0.45KB, x 100, 0, 1.235000 ms, 35.60 MB/s
async, 461, 0.45KB, x 1000, 0, 10.985000 ms, 40.02 MB/s
async, 471, 0.46KB, x 1, 0, 0.184000 ms, 2.44 MB/s
async, 471, 0.46KB, x 10, 0, 0.350000 ms, 12.83 MB/s
async, 471, 0.46KB, x 100, 0, 1.253000 ms, 35.85 MB/s
async, 471, 0.46KB, x 1000, 0, 11.115000 ms, 40.41 MB/s
async, 481, 0.47KB, x 1, 0, 0.184000 ms, 2.49 MB/s
async, 481, 0.47KB, x 10, 0, 0.332000 ms, 13.82 MB/s
async, 481, 0.47KB, x 100, 0, 1.272000 ms, 36.06 MB/s
async, 481, 0.47KB, x 1000, 0, 11.539000 ms, 39.75 MB/s
async, 491, 0.48KB, x 1, 0, 0.202000 ms, 2.32 MB/s
async, 491, 0.48KB, x 10, 0, 0.350000 ms, 13.38 MB/s
async, 491, 0.48KB, x 100, 0, 1.272000 ms, 36.81 MB/s
async, 491, 0.48KB, x 1000, 0, 11.649000 ms, 40.20 MB/s
async, 501, 0.49KB, x 1, 0, 0.185000 ms, 2.58 MB/s
async, 501, 0.49KB, x 10, 0, 0.350000 ms, 13.65 MB/s
async, 501, 0.49KB, x 100, 0, 1.291000 ms, 37.01 MB/s
async, 501, 0.49KB, x 1000, 0, 11.833000 ms, 40.38 MB/s
async, 511, 0.50KB, x 1, 0, 0.184000 ms, 2.65 MB/s
async, 511, 0.50KB, x 10, 0, 0.350000 ms, 13.92 MB/s
async, 511, 0.50KB, x 100, 0, 1.290000 ms, 37.78 MB/s
async, 511, 0.50KB, x 1000, 0, 11.944000 ms, 40.80 MB/s
async, 521, 0.51KB, x 1, 0, 0.185000 ms, 2.69 MB/s
async, 521, 0.51KB, x 10, 0, 0.350000 ms, 14.20 MB/s
async, 521, 0.51KB, x 100, 0, 1.346000 ms, 36.91 MB/s
async, 521, 0.51KB, x 1000, 0, 12.441000 ms, 39.94 MB/s
async, 531, 0.52KB, x 1, 0, 0.184000 ms, 2.75 MB/s
async, 531, 0.52KB, x 10, 0, 0.350000 ms, 14.47 MB/s
async, 531, 0.52KB, x 100, 0, 1.346000 ms, 37.62 MB/s
async, 531, 0.52KB, x 1000, 0, 12.570000 ms, 40.29 MB/s
async, 541, 0.53KB, x 1, 0, 0.185000 ms, 2.79 MB/s
async, 541, 0.53KB, x 10, 0, 0.369000 ms, 13.98 MB/s
async, 541, 0.53KB, x 100, 0, 1.364000 ms, 37.83 MB/s
async, 541, 0.53KB, x 1000, 0, 12.681000 ms, 40.69 MB/s
async, 551, 0.54KB, x 1, 0, 0.184000 ms, 2.86 MB/s
async, 551, 0.54KB, x 10, 0, 0.369000 ms, 14.24 MB/s
async, 551, 0.54KB, x 100, 0, 1.364000 ms, 38.52 MB/s
async, 551, 0.54KB, x 1000, 0, 12.755000 ms, 41.20 MB/s
async, 561, 0.55KB, x 1, 0, 0.185000 ms, 2.89 MB/s
async, 561, 0.55KB, x 10, 0, 0.369000 ms, 14.50 MB/s
async, 561, 0.55KB, x 100, 0, 1.401000 ms, 38.19 MB/s
async, 561, 0.55KB, x 1000, 0, 13.345000 ms, 40.09 MB/s
async, 571, 0.56KB, x 1, 0, 0.185000 ms, 2.94 MB/s
async, 571, 0.56KB, x 10, 0, 0.369000 ms, 14.76 MB/s
async, 571, 0.56KB, x 100, 0, 1.420000 ms, 38.35 MB/s
async, 571, 0.56KB, x 1000, 0, 13.344000 ms, 40.81 MB/s
async, 581, 0.57KB, x 1, 0, 0.184000 ms, 3.01 MB/s
async, 581, 0.57KB, x 10, 0, 0.369000 ms, 15.02 MB/s
async, 581, 0.57KB, x 100, 0, 1.420000 ms, 39.02 MB/s
async, 581, 0.57KB, x 1000, 0, 13.547000 ms, 40.90 MB/s
async, 591, 0.58KB, x 1, 0, 0.185000 ms, 3.05 MB/s
async, 591, 0.58KB, x 10, 0, 0.369000 ms, 15.27 MB/s
async, 591, 0.58KB, x 100, 0, 1.438000 ms, 39.19 MB/s
async, 591, 0.58KB, x 1000, 0, 13.658000 ms, 41.27 MB/s
async, 601, 0.59KB, x 1, 0, 0.202000 ms, 2.84 MB/s
async, 601, 0.59KB, x 10, 0, 0.387000 ms, 14.81 MB/s
async, 601, 0.59KB, x 100, 0, 1.511000 ms, 37.93 MB/s
async, 601, 0.59KB, x 1000, 0, 14.285000 ms, 40.12 MB/s
async, 611, 0.60KB, x 1, 0, 0.203000 ms, 2.87 MB/s
async, 611, 0.60KB, x 10, 0, 0.369000 ms, 15.79 MB/s
async, 611, 0.60KB, x 100, 0, 1.512000 ms, 38.54 MB/s
async, 611, 0.60KB, x 1000, 0, 14.285000 ms, 40.79 MB/s
async, 621, 0.61KB, x 1, 0, 0.202000 ms, 2.93 MB/s
async, 621, 0.61KB, x 10, 0, 0.369000 ms, 16.05 MB/s
async, 621, 0.61KB, x 100, 0, 1.530000 ms, 38.71 MB/s
async, 621, 0.61KB, x 1000, 0, 14.469000 ms, 40.93 MB/s
async, 631, 0.62KB, x 1, 0, 0.185000 ms, 3.25 MB/s
async, 631, 0.62KB, x 10, 0, 0.369000 ms, 16.31 MB/s
async, 631, 0.62KB, x 100, 0, 1.548000 ms, 38.87 MB/s
async, 631, 0.62KB, x 1000, 0, 14.635000 ms, 41.12 MB/s
async, 641, 0.63KB, x 1, 0, 0.202000 ms, 3.03 MB/s
async, 641, 0.63KB, x 10, 0, 0.387000 ms, 15.80 MB/s
async, 641, 0.63KB, x 100, 0, 1.549000 ms, 39.46 MB/s
async, 641, 0.63KB, x 1000, 0, 14.672000 ms, 41.66 MB/s
async, 651, 0.64KB, x 1, 0, 0.203000 ms, 3.06 MB/s
async, 651, 0.64KB, x 10, 0, 0.387000 ms, 16.04 MB/s
async, 651, 0.64KB, x 100, 0, 1.640000 ms, 37.86 MB/s
async, 651, 0.64KB, x 1000, 0, 15.336000 ms, 40.48 MB/s
async, 661, 0.65KB, x 1, 0, 0.202000 ms, 3.12 MB/s
async, 661, 0.65KB, x 10, 0, 0.369000 ms, 17.08 MB/s
async, 661, 0.65KB, x 100, 0, 1.658000 ms, 38.02 MB/s
async, 661, 0.65KB, x 1000, 0, 15.593000 ms, 40.43 MB/s
async, 671, 0.66KB, x 1, 0, 0.203000 ms, 3.15 MB/s
async, 671, 0.66KB, x 10, 0, 0.387000 ms, 16.54 MB/s
async, 671, 0.66KB, x 100, 0, 1.641000 ms, 39.00 MB/s
async, 671, 0.66KB, x 1000, 0, 15.649000 ms, 40.89 MB/s
async, 681, 0.67KB, x 1, 0, 0.203000 ms, 3.20 MB/s
async, 681, 0.67KB, x 10, 0, 0.406000 ms, 16.00 MB/s
async, 681, 0.67KB, x 100, 0, 1.659000 ms, 39.15 MB/s
async, 681, 0.67KB, x 1000, 0, 15.796000 ms, 41.11 MB/s
async, 691, 0.67KB, x 1, 0, 0.203000 ms, 3.25 MB/s
async, 691, 0.67KB, x 10, 0, 0.406000 ms, 16.23 MB/s
async, 691, 0.67KB, x 100, 0, 1.677000 ms, 39.30 MB/s
async, 691, 0.67KB, x 1000, 0, 15.869999 ms, 41.52 MB/s
async, 701, 0.68KB, x 1, 0, 0.202000 ms, 3.31 MB/s
async, 701, 0.68KB, x 10, 0, 0.406000 ms, 16.47 MB/s
async, 701, 0.68KB, x 100, 0, 1.677000 ms, 39.86 MB/s
async, 701, 0.68KB, x 1000, 0, 15.999001 ms, 41.79 MB/s
async, 711, 0.69KB, x 1, 0, 0.203000 ms, 3.34 MB/s
async, 711, 0.69KB, x 10, 0, 0.424000 ms, 15.99 MB/s
async, 711, 0.69KB, x 100, 0, 1.659000 ms, 40.87 MB/s
async, 711, 0.69KB, x 1000, 0, 16.054999 ms, 42.23 MB/s
async, 721, 0.70KB, x 1, 0, 0.202000 ms, 3.40 MB/s
async, 721, 0.70KB, x 10, 0, 0.406000 ms, 16.94 MB/s
async, 721, 0.70KB, x 100, 0, 1.769000 ms, 38.87 MB/s
async, 721, 0.70KB, x 1000, 0, 17.013000 ms, 40.42 MB/s
async, 731, 0.71KB, x 1, 0, 0.185000 ms, 3.77 MB/s
async, 731, 0.71KB, x 10, 0, 0.406000 ms, 17.17 MB/s
async, 731, 0.71KB, x 100, 0, 1.752000 ms, 39.79 MB/s
async, 731, 0.71KB, x 1000, 0, 17.069001 ms, 40.84 MB/s
async, 741, 0.72KB, x 1, 0, 0.185000 ms, 3.82 MB/s
async, 741, 0.72KB, x 10, 0, 0.406000 ms, 17.41 MB/s
async, 741, 0.72KB, x 100, 0, 1.770000 ms, 39.93 MB/s
async, 741, 0.72KB, x 1000, 0, 17.123999 ms, 41.27 MB/s
async, 751, 0.73KB, x 1, 0, 0.203000 ms, 3.53 MB/s
async, 751, 0.73KB, x 10, 0, 0.406000 ms, 17.64 MB/s
async, 751, 0.73KB, x 100, 0, 1.751000 ms, 40.90 MB/s
async, 751, 0.73KB, x 1000, 0, 17.178999 ms, 41.69 MB/s
async, 761, 0.74KB, x 1, 0, 0.203000 ms, 3.58 MB/s
async, 761, 0.74KB, x 10, 0, 0.406000 ms, 17.88 MB/s
async, 761, 0.74KB, x 100, 0, 1.769000 ms, 41.03 MB/s
async, 761, 0.74KB, x 1000, 0, 17.382000 ms, 41.75 MB/s
async, 771, 0.75KB, x 1, 0, 0.202000 ms, 3.64 MB/s
async, 771, 0.75KB, x 10, 0, 0.406000 ms, 18.11 MB/s
async, 771, 0.75KB, x 100, 0, 1.807000 ms, 40.69 MB/s
async, 771, 0.75KB, x 1000, 0, 17.380999 ms, 42.30 MB/s
async, 781, 0.76KB, x 1, 0, 0.203000 ms, 3.67 MB/s
async, 781, 0.76KB, x 10, 0, 0.406000 ms, 18.35 MB/s
async, 781, 0.76KB, x 100, 0, 1.824000 ms, 40.83 MB/s
async, 781, 0.76KB, x 1000, 0, 17.602000 ms, 42.31 MB/s
async, 791, 0.77KB, x 1, 0, 0.203000 ms, 3.72 MB/s
async, 791, 0.77KB, x 10, 0, 0.442000 ms, 17.07 MB/s
async, 791, 0.77KB, x 100, 0, 1.917000 ms, 39.35 MB/s
async, 791, 0.77KB, x 1000, 0, 18.598000 ms, 40.56 MB/s
async, 801, 0.78KB, x 1, 0, 0.203000 ms, 3.76 MB/s
async, 801, 0.78KB, x 10, 0, 0.442000 ms, 17.28 MB/s
async, 801, 0.78KB, x 100, 0, 1.954000 ms, 39.09 MB/s
async, 801, 0.78KB, x 1000, 0, 18.672001 ms, 40.91 MB/s
async, 811, 0.79KB, x 1, 0, 0.203000 ms, 3.81 MB/s
async, 811, 0.79KB, x 10, 0, 0.442000 ms, 17.50 MB/s
async, 811, 0.79KB, x 100, 0, 1.972000 ms, 39.22 MB/s
async, 811, 0.79KB, x 1000, 0, 18.672001 ms, 41.42 MB/s
async, 821, 0.80KB, x 1, 0, 0.203000 ms, 3.86 MB/s
async, 821, 0.80KB, x 10, 0, 0.424000 ms, 18.47 MB/s
async, 821, 0.80KB, x 100, 0, 1.990000 ms, 39.35 MB/s
async, 821, 0.80KB, x 1000, 0, 18.856000 ms, 41.52 MB/s
async, 831, 0.81KB, x 1, 0, 0.203000 ms, 3.90 MB/s
async, 831, 0.81KB, x 10, 0, 0.443000 ms, 17.89 MB/s
async, 831, 0.81KB, x 100, 0, 1.972000 ms, 40.19 MB/s
async, 831, 0.81KB, x 1000, 0, 18.856000 ms, 42.03 MB/s
async, 841, 0.82KB, x 1, 0, 0.203000 ms, 3.95 MB/s
async, 841, 0.82KB, x 10, 0, 0.442000 ms, 18.15 MB/s
async, 841, 0.82KB, x 100, 0, 1.954000 ms, 41.05 MB/s
async, 841, 0.82KB, x 1000, 0, 19.021999 ms, 42.16 MB/s
async, 851, 0.83KB, x 1, 0, 0.203000 ms, 4.00 MB/s
async, 851, 0.83KB, x 10, 0, 0.443000 ms, 18.32 MB/s
async, 851, 0.83KB, x 100, 0, 2.027000 ms, 40.04 MB/s
async, 851, 0.83KB, x 1000, 0, 19.262001 ms, 42.13 MB/s
async, 861, 0.84KB, x 1, 0, 0.203000 ms, 4.04 MB/s
async, 861, 0.84KB, x 10, 0, 0.443000 ms, 18.54 MB/s
async, 861, 0.84KB, x 100, 0, 1.991000 ms, 41.24 MB/s
async, 861, 0.84KB, x 1000, 0, 19.336000 ms, 42.47 MB/s
async, 871, 0.85KB, x 1, 0, 0.203000 ms, 4.09 MB/s
async, 871, 0.85KB, x 10, 0, 0.443000 ms, 18.75 MB/s
async, 871, 0.85KB, x 100, 0, 1.991000 ms, 41.72 MB/s
async, 871, 0.85KB, x 1000, 0, 19.409001 ms, 42.80 MB/s
async, 881, 0.86KB, x 1, 0, 0.203000 ms, 4.14 MB/s
async, 881, 0.86KB, x 10, 0, 0.461000 ms, 18.23 MB/s
async, 881, 0.86KB, x 100, 0, 2.138000 ms, 39.30 MB/s
async, 881, 0.86KB, x 1000, 0, 20.680999 ms, 40.63 MB/s
async, 891, 0.87KB, x 1, 0, 0.203000 ms, 4.19 MB/s
async, 891, 0.87KB, x 10, 0, 0.479000 ms, 17.74 MB/s
async, 891, 0.87KB, x 100, 0, 2.139000 ms, 39.73 MB/s
async, 891, 0.87KB, x 1000, 0, 20.772999 ms, 40.91 MB/s
async, 901, 0.88KB, x 1, 0, 0.203000 ms, 4.23 MB/s
async, 901, 0.88KB, x 10, 0, 0.461000 ms, 18.64 MB/s
async, 901, 0.88KB, x 100, 0, 2.175000 ms, 39.51 MB/s
async, 901, 0.88KB, x 1000, 0, 20.902000 ms, 41.11 MB/s
async, 911, 0.89KB, x 1, 0, 0.203000 ms, 4.28 MB/s
async, 911, 0.89KB, x 10, 0, 0.461000 ms, 18.85 MB/s
async, 911, 0.89KB, x 100, 0, 2.175000 ms, 39.94 MB/s
async, 911, 0.89KB, x 1000, 0, 21.012999 ms, 41.35 MB/s
async, 921, 0.90KB, x 1, 0, 0.203000 ms, 4.33 MB/s
async, 921, 0.90KB, x 10, 0, 0.461000 ms, 19.05 MB/s
async, 921, 0.90KB, x 100, 0, 2.157000 ms, 40.72 MB/s
async, 921, 0.90KB, x 1000, 0, 21.141000 ms, 41.55 MB/s
async, 931, 0.91KB, x 1, 0, 0.203000 ms, 4.37 MB/s
async, 931, 0.91KB, x 10, 0, 0.461000 ms, 19.26 MB/s
async, 931, 0.91KB, x 100, 0, 2.156000 ms, 41.18 MB/s
async, 931, 0.91KB, x 1000, 0, 21.031000 ms, 42.22 MB/s
async, 941, 0.92KB, x 1, 0, 0.203000 ms, 4.42 MB/s
async, 941, 0.92KB, x 10, 0, 0.461000 ms, 19.47 MB/s
async, 941, 0.92KB, x 100, 0, 2.175000 ms, 41.26 MB/s
async, 941, 0.92KB, x 1000, 0, 21.214999 ms, 42.30 MB/s
async, 951, 0.93KB, x 1, 0, 0.203000 ms, 4.47 MB/s
async, 951, 0.93KB, x 10, 0, 0.461000 ms, 19.67 MB/s
async, 951, 0.93KB, x 100, 0, 2.156000 ms, 42.07 MB/s
async, 951, 0.93KB, x 1000, 0, 21.362999 ms, 42.45 MB/s
async, 961, 0.94KB, x 1, 0, 0.203000 ms, 4.51 MB/s
async, 961, 0.94KB, x 10, 0, 0.461000 ms, 19.88 MB/s
async, 961, 0.94KB, x 100, 0, 2.194000 ms, 41.77 MB/s
async, 961, 0.94KB, x 1000, 0, 21.474000 ms, 42.68 MB/s
async, 971, 0.95KB, x 1, 0, 0.203000 ms, 4.56 MB/s
async, 971, 0.95KB, x 10, 0, 0.461000 ms, 20.09 MB/s
async, 971, 0.95KB, x 100, 0, 2.175000 ms, 42.58 MB/s
async, 971, 0.95KB, x 1000, 0, 21.584000 ms, 42.90 MB/s
async, 981, 0.96KB, x 1, 0, 0.203000 ms, 4.61 MB/s
async, 981, 0.96KB, x 10, 0, 0.461000 ms, 20.29 MB/s
async, 981, 0.96KB, x 100, 0, 2.230000 ms, 41.95 MB/s
async, 981, 0.96KB, x 1000, 0, 21.640001 ms, 43.23 MB/s
async, 991, 0.97KB, x 1, 0, 0.203000 ms, 4.66 MB/s
async, 991, 0.97KB, x 10, 0, 0.461000 ms, 20.50 MB/s
async, 991, 0.97KB, x 100, 0, 2.230000 ms, 42.38 MB/s
async, 991, 0.97KB, x 1000, 0, 21.768000 ms, 43.42 MB/s
async, 1001, 0.98KB, x 1, 0, 0.203000 ms, 4.70 MB/s
async, 1001, 0.98KB, x 10, 0, 0.479000 ms, 19.93 MB/s
async, 1001, 0.98KB, x 100, 0, 2.378000 ms, 40.14 MB/s
async, 1011, 0.99KB, x 1, 0, 0.203000 ms, 4.75 MB/s
async, 1011, 0.99KB, x 10, 0, 0.479000 ms, 20.13 MB/s
async, 1011, 0.99KB, x 100, 0, 2.415000 ms, 39.92 MB/s
async, 1021, 1.00KB, x 1, 0, 0.203000 ms, 4.80 MB/s
async, 1021, 1.00KB, x 10, 0, 0.479000 ms, 20.33 MB/s
async, 1021, 1.00KB, x 100, 0, 2.433000 ms, 40.02 MB/s
async, 1024, 1.00KB, x 1, 0, 0.203000 ms, 4.81 MB/s
async, 1024, 1.00KB, x 10, 0, 0.479000 ms, 20.39 MB/s
async, 1024, 1.00KB, x 100, 0, 2.397000 ms, 40.74 MB/s
async, 11499, 11.23KB, x 1, 0, 0.479000 ms, 22.89 MB/s
async, 11499, 11.23KB, x 10, 0, 2.286000 ms, 47.97 MB/s
async, 21974, 21.46KB, x 1, 0, 0.718000 ms, 29.19 MB/s
async, 21974, 21.46KB, x 10, 0, 3.797000 ms, 55.19 MB/s
async, 32449, 31.69KB, x 1, 0, 0.884000 ms, 35.01 MB/s
async, 32449, 31.69KB, x 10, 0, 5.529000 ms, 55.97 MB/s
async, 42924, 41.92KB, x 1, 0, 1.070000 ms, 38.26 MB/s
async, 42924, 41.92KB, x 10, 0, 7.336000 ms, 55.80 MB/s
async, 53399, 52.15KB, x 1, 0, 1.235000 ms, 41.24 MB/s
async, 53399, 52.15KB, x 10, 0, 8.958000 ms, 56.85 MB/s
async, 63874, 62.38KB, x 1, 0, 1.437000 ms, 42.39 MB/s
async, 63874, 62.38KB, x 10, 0, 10.930000 ms, 55.73 MB/s
async, 74349, 72.61KB, x 1, 0, 1.640000 ms, 43.23 MB/s
async, 74349, 72.61KB, x 10, 0, 11.152000 ms, 63.58 MB/s
async, 84824, 82.84KB, x 1, 0, 1.807000 ms, 44.77 MB/s
async, 84824, 82.84KB, x 10, 0, 12.184000 ms, 66.39 MB/s
async, 95299, 93.07KB, x 1, 0, 1.935000 ms, 46.97 MB/s
async, 95299, 93.07KB, x 10, 0, 13.805000 ms, 65.83 MB/s
async, 105774, 103.29KB, x 1, 0, 2.083000 ms, 48.43 MB/s
async, 105774, 103.29KB, x 10, 0, 15.132000 ms, 66.66 MB/s
async, 116249, 113.52KB, x 1, 0, 2.249000 ms, 49.29 MB/s
async, 116249, 113.52KB, x 10, 0, 16.643999 ms, 66.61 MB/s
async, 126724, 123.75KB, x 1, 0, 2.396000 ms, 50.44 MB/s
async, 126724, 123.75KB, x 10, 0, 17.584000 ms, 68.73 MB/s
async, 137199, 133.98KB, x 1, 0, 2.526000 ms, 51.80 MB/s
async, 137199, 133.98KB, x 10, 0, 19.594001 ms, 66.78 MB/s
async, 147674, 144.21KB, x 1, 0, 2.691000 ms, 52.33 MB/s
async, 147674, 144.21KB, x 10, 0, 20.883000 ms, 67.44 MB/s
async, 158149, 154.44KB, x 1, 0, 2.839000 ms, 53.13 MB/s
async, 158149, 154.44KB, x 10, 0, 22.450000 ms, 67.18 MB/s
async, 168624, 164.67KB, x 1, 0, 2.949000 ms, 54.53 MB/s
async, 168624, 164.67KB, x 10, 0, 23.316000 ms, 68.97 MB/s
async, 179099, 174.90KB, x 1, 0, 3.133000 ms, 54.52 MB/s
async, 179099, 174.90KB, x 10, 0, 25.510000 ms, 66.95 MB/s
async, 189574, 185.13KB, x 1, 0, 3.245000 ms, 55.71 MB/s
async, 189574, 185.13KB, x 10, 0, 26.874000 ms, 67.27 MB/s
async, 200049, 195.36KB, x 1, 0, 3.392000 ms, 56.24 MB/s
async, 200049, 195.36KB, x 10, 0, 28.845999 ms, 66.14 MB/s
async, 210524, 205.59KB, x 1, 0, 3.576000 ms, 56.14 MB/s
async, 210524, 205.59KB, x 10, 0, 29.472999 ms, 68.12 MB/s
async, 220999, 215.82KB, x 1, 0, 3.668000 ms, 57.46 MB/s
async, 220999, 215.82KB, x 10, 0, 31.739999 ms, 66.40 MB/s
async, 231474, 226.05KB, x 1, 0, 3.834000 ms, 57.58 MB/s
async, 231474, 226.05KB, x 10, 0, 32.974999 ms, 66.94 MB/s
async, 241949, 236.28KB, x 1, 0, 4.000000 ms, 57.69 MB/s
async, 241949, 236.28KB, x 10, 0, 34.892000 ms, 66.13 MB/s
async, 252424, 246.51KB, x 1, 0, 4.202000 ms, 57.29 MB/s
async, 252424, 246.51KB, x 10, 0, 35.629001 ms, 67.57 MB/s
async, 262899, 256.74KB, x 1, 0, 4.313000 ms, 58.13 MB/s
async, 262899, 256.74KB, x 10, 0, 38.394999 ms, 65.30 MB/s
async, 273374, 266.97KB, x 1, 0, 4.515000 ms, 57.74 MB/s
async, 273374, 266.97KB, x 10, 0, 39.593000 ms, 65.85 MB/s
async, 283849, 277.20KB, x 1, 0, 4.663000 ms, 58.05 MB/s
async, 283849, 277.20KB, x 10, 0, 41.324999 ms, 65.51 MB/s
async, 294324, 287.43KB, x 1, 0, 4.866000 ms, 57.68 MB/s
async, 294324, 287.43KB, x 10, 0, 41.712001 ms, 67.29 MB/s
async, 304799, 297.66KB, x 1, 0, 4.995000 ms, 58.19 MB/s
async, 304799, 297.66KB, x 10, 0, 44.089999 ms, 65.93 MB/s
async, 315274, 307.88KB, x 1, 0, 5.161000 ms, 58.26 MB/s
async, 315274, 307.88KB, x 10, 0, 45.139998 ms, 66.61 MB/s
async, 325749, 318.11KB, x 1, 0, 5.290000 ms, 58.73 MB/s
async, 325749, 318.11KB, x 10, 0, 47.260001 ms, 65.73 MB/s
async, 336224, 328.34KB, x 1, 0, 5.419000 ms, 59.17 MB/s
async, 336224, 328.34KB, x 10, 0, 47.499999 ms, 67.50 MB/s
async, 346699, 338.57KB, x 1, 0, 5.603000 ms, 59.01 MB/s
async, 346699, 338.57KB, x 10, 0, 49.933001 ms, 66.22 MB/s
async, 357174, 348.80KB, x 1, 0, 5.788000 ms, 58.85 MB/s
async, 357174, 348.80KB, x 10, 0, 50.873000 ms, 66.96 MB/s
async, 367649, 359.03KB, x 1, 0, 5.843000 ms, 60.01 MB/s
async, 367649, 359.03KB, x 10, 0, 52.845001 ms, 66.35 MB/s
async, 378124, 369.26KB, x 1, 0, 6.046000 ms, 59.64 MB/s
async, 378124, 369.26KB, x 10, 0, 53.029001 ms, 68.00 MB/s
async, 388599, 379.49KB, x 1, 0, 6.157000 ms, 60.19 MB/s
async, 388599, 379.49KB, x 10, 0, 55.941999 ms, 66.25 MB/s
async, 399074, 389.72KB, x 1, 0, 6.303000 ms, 60.38 MB/s
async, 399074, 389.72KB, x 10, 0, 57.066001 ms, 66.69 MB/s
async, 409549, 399.95KB, x 1, 0, 6.415000 ms, 60.88 MB/s
async, 409549, 399.95KB, x 10, 0, 58.596000 ms, 66.66 MB/s
async, 420024, 410.18KB, x 1, 0, 6.617000 ms, 60.54 MB/s
async, 420024, 410.18KB, x 10, 0, 58.816999 ms, 68.10 MB/s
async, 430499, 420.41KB, x 1, 0, 6.765000 ms, 60.69 MB/s
async, 430499, 420.41KB, x 10, 0, 61.840001 ms, 66.39 MB/s
async, 440974, 430.64KB, x 1, 0, 6.930000 ms, 60.68 MB/s
async, 440974, 430.64KB, x 10, 0, 62.725000 ms, 67.05 MB/s
async, 451449, 440.87KB, x 1, 0, 7.023000 ms, 61.30 MB/s
async, 451449, 440.87KB, x 10, 0, 64.808004 ms, 66.43 MB/s
async, 461924, 451.10KB, x 1, 0, 7.207000 ms, 61.12 MB/s
async, 461924, 451.10KB, x 10, 0, 64.955004 ms, 67.82 MB/s
async, 472399, 461.33KB, x 1, 0, 7.373000 ms, 61.10 MB/s
async, 472399, 461.33KB, x 10, 0, 67.904003 ms, 66.35 MB/s
async, 482874, 471.56KB, x 1, 0, 7.484000 ms, 61.53 MB/s
async, 482874, 471.56KB, x 10, 0, 69.084004 ms, 66.66 MB/s
async, 493349, 481.79KB, x 1, 0, 7.631000 ms, 61.66 MB/s
async, 493349, 481.79KB, x 10, 0, 70.853002 ms, 66.40 MB/s
async, 503824, 492.02KB, x 1, 0, 7.778000 ms, 61.77 MB/s
async, 503824, 492.02KB, x 10, 0, 70.761003 ms, 67.90 MB/s
async, 514299, 502.25KB, x 1, 0, 7.962000 ms, 61.60 MB/s
async, 514299, 502.25KB, x 10, 0, 74.724004 ms, 65.64 MB/s
async, 524774, 512.47KB, x 1, 0, 8.092000 ms, 61.85 MB/s
async, 524774, 512.47KB, x 10, 0, 75.387001 ms, 66.39 MB/s
async, 535249, 522.70KB, x 1, 0, 8.220000 ms, 62.10 MB/s
async, 535249, 522.70KB, x 10, 0, 77.193998 ms, 66.13 MB/s
async, 545724, 532.93KB, x 1, 0, 8.405000 ms, 61.92 MB/s
async, 545724, 532.93KB, x 10, 0, 76.899000 ms, 67.68 MB/s
async, 556199, 543.16KB, x 1, 0, 8.553000 ms, 62.02 MB/s
async, 556199, 543.16KB, x 10, 0, 79.774998 ms, 66.49 MB/s
async, 566674, 553.39KB, x 1, 0, 8.736000 ms, 61.86 MB/s
async, 566674, 553.39KB, x 10, 0, 80.954000 ms, 66.76 MB/s
async, 577149, 563.62KB, x 1, 0, 8.903000 ms, 61.82 MB/s
async, 577149, 563.62KB, x 10, 0, 83.460003 ms, 65.95 MB/s
async, 587624, 573.85KB, x 1, 0, 9.031000 ms, 62.05 MB/s
async, 587624, 573.85KB, x 10, 0, 84.751002 ms, 66.12 MB/s
async, 598099, 584.08KB, x 1, 0, 9.161000 ms, 62.26 MB/s
async, 598099, 584.08KB, x 10, 0, 85.782997 ms, 66.49 MB/s
async, 608574, 594.31KB, x 1, 0, 9.271000 ms, 62.60 MB/s
async, 608574, 594.31KB, x 10, 0, 86.704001 ms, 66.94 MB/s
async, 619049, 604.54KB, x 1, 0, 9.419000 ms, 62.68 MB/s
async, 619049, 604.54KB, x 10, 0, 88.215999 ms, 66.92 MB/s
async, 629524, 614.77KB, x 1, 0, 9.548000 ms, 62.88 MB/s
async, 629524, 614.77KB, x 10, 0, 88.418998 ms, 67.90 MB/s
async, 639999, 625.00KB, x 1, 0, 9.695000 ms, 62.96 MB/s
async, 639999, 625.00KB, x 10, 0, 91.903001 ms, 66.41 MB/s
async, 650474, 635.23KB, x 1, 0, 9.861000 ms, 62.91 MB/s
async, 650474, 635.23KB, x 10, 0, 92.878997 ms, 66.79 MB/s
async, 660949, 645.46KB, x 1, 0, 9.990000 ms, 63.10 MB/s
async, 660949, 645.46KB, x 10, 0, 94.778001 ms, 66.51 MB/s
async, 671424, 655.69KB, x 1, 0, 10.137000 ms, 63.17 MB/s
async, 671424, 655.69KB, x 10, 0, 94.113998 ms, 68.04 MB/s
async, 681899, 665.92KB, x 1, 0, 10.267000 ms, 63.34 MB/s
async, 681899, 665.92KB, x 10, 0, 97.285002 ms, 66.85 MB/s
async, 692374, 676.15KB, x 1, 0, 10.414000 ms, 63.40 MB/s
async, 692374, 676.15KB, x 10, 0, 98.944001 ms, 66.73 MB/s
async, 702849, 686.38KB, x 1, 0, 10.544000 ms, 63.57 MB/s
async, 702849, 686.38KB, x 10, 0, 100.105003 ms, 66.96 MB/s
async, 713324, 696.61KB, x 1, 0, 10.746000 ms, 63.31 MB/s
async, 713324, 696.61KB, x 10, 0, 99.884003 ms, 68.11 MB/s
async, 723799, 706.83KB, x 1, 0, 10.838000 ms, 63.69 MB/s
async, 723799, 706.83KB, x 10, 0, 103.901997 ms, 66.43 MB/s
async, 734274, 717.06KB, x 1, 0, 10.985000 ms, 63.75 MB/s
async, 734274, 717.06KB, x 10, 0, 109.154999 ms, 64.15 MB/s
async, 744749, 727.29KB, x 1, 0, 11.188000 ms, 63.48 MB/s
async, 744749, 727.29KB, x 10, 0, 112.453997 ms, 63.16 MB/s
async, 755224, 737.52KB, x 1, 0, 11.262000 ms, 63.95 MB/s
async, 755224, 737.52KB, x 10, 0, 106.003001 ms, 67.95 MB/s
async, 765699, 747.75KB, x 1, 0, 11.428000 ms, 63.90 MB/s
async, 765699, 747.75KB, x 10, 0, 110.500999 ms, 66.08 MB/s
async, 776174, 757.98KB, x 1, 0, 11.612000 ms, 63.75 MB/s
async, 776174, 757.98KB, x 10, 0, 110.924996 ms, 66.73 MB/s
async, 786649, 768.21KB, x 1, 0, 11.705000 ms, 64.09 MB/s
async, 786649, 768.21KB, x 10, 0, 112.842001 ms, 66.48 MB/s
async, 797124, 778.44KB, x 1, 0, 11.889000 ms, 63.94 MB/s
async, 797124, 778.44KB, x 10, 0, 112.269998 ms, 67.71 MB/s
async, 807599, 788.67KB, x 1, 0, 12.017000 ms, 64.09 MB/s
async, 807599, 788.67KB, x 10, 0, 119.496003 ms, 64.45 MB/s
async, 818074, 798.90KB, x 1, 0, 12.220000 ms, 63.84 MB/s
async, 818074, 798.90KB, x 10, 0, 118.500002 ms, 65.84 MB/s
async, 828549, 809.13KB, x 1, 0, 12.441000 ms, 63.51 MB/s
async, 828549, 809.13KB, x 10, 0, 120.141000 ms, 65.77 MB/s
async, 839024, 819.36KB, x 1, 0, 12.534000 ms, 63.84 MB/s
async, 839024, 819.36KB, x 10, 0, 118.169002 ms, 67.71 MB/s
async, 849499, 829.59KB, x 1, 0, 12.681000 ms, 63.89 MB/s
async, 849499, 829.59KB, x 10, 0, 125.284001 ms, 64.66 MB/s
async, 859974, 839.82KB, x 1, 0, 12.773000 ms, 64.21 MB/s
async, 859974, 839.82KB, x 10, 0, 126.075998 ms, 65.05 MB/s
async, 870449, 850.05KB, x 1, 0, 12.976000 ms, 63.97 MB/s
async, 870449, 850.05KB, x 10, 0, 132.563993 ms, 62.62 MB/s
async, 880924, 860.28KB, x 1, 0, 13.105000 ms, 64.11 MB/s
async, 880924, 860.28KB, x 10, 0, 123.384997 ms, 68.09 MB/s
async, 891399, 870.51KB, x 1, 0, 13.161000 ms, 64.59 MB/s
async, 891399, 870.51KB, x 10, 0, 127.569005 ms, 66.64 MB/s
async, 901874, 880.74KB, x 1, 0, 13.382000 ms, 64.27 MB/s
async, 901874, 880.74KB, x 10, 0, 131.881997 ms, 65.22 MB/s
async, 912349, 890.97KB, x 1, 0, 13.511000 ms, 64.40 MB/s
async, 912349, 890.97KB, x 10, 0, 134.149000 ms, 64.86 MB/s
async, 922824, 901.20KB, x 1, 0, 14.027000 ms, 62.74 MB/s
async, 922824, 901.20KB, x 10, 0, 139.513999 ms, 63.08 MB/s
async, 933299, 911.42KB, x 1, 0, 13.806000 ms, 64.47 MB/s
async, 933299, 911.42KB, x 10, 0, 142.701000 ms, 62.37 MB/s
async, 943774, 921.65KB, x 1, 0, 14.764000 ms, 60.96 MB/s
async, 943774, 921.65KB, x 10, 0, 138.517007 ms, 64.98 MB/s
async, 954249, 931.88KB, x 1, 0, 14.101000 ms, 64.54 MB/s
async, 954249, 931.88KB, x 10, 0, 140.673995 ms, 64.69 MB/s
async, 964724, 942.11KB, x 1, 0, 14.801000 ms, 62.16 MB/s
async, 964724, 942.11KB, x 10, 0, 141.670004 ms, 64.94 MB/s
async, 975199, 952.34KB, x 1, 0, 14.451000 ms, 64.36 MB/s
async, 975199, 952.34KB, x 10, 0, 143.125996 ms, 64.98 MB/s
async, 985674, 962.57KB, x 1, 0, 14.543000 ms, 64.64 MB/s
async, 985674, 962.57KB, x 10, 0, 156.286001 ms, 60.15 MB/s
async, 996149, 972.80KB, x 1, 0, 14.893000 ms, 63.79 MB/s
async, 996149, 972.80KB, x 10, 0, 145.890996 ms, 65.12 MB/s
async, 1006624, 983.03KB, x 1, 0, 15.023000 ms, 63.90 MB/s
async, 1006624, 983.03KB, x 10, 0, 145.080000 ms, 66.17 MB/s
async, 1017099, 993.26KB, x 1, 0, 15.096000 ms, 64.25 MB/s
async, 1017099, 993.26KB, x 10, 0, 154.424995 ms, 62.81 MB/s
async, 1027574, 1003.49KB, x 1, 0, 15.096000 ms, 64.92 MB/s
async, 1027574, 1003.49KB, x 10, 0, 157.743007 ms, 62.12 MB/s
async, 1038049, 1013.72KB, x 1, 0, 17.971000 ms, 55.09 MB/s
async, 1038049, 1013.72KB, x 10, 0, 152.508005 ms, 64.91 MB/s
async, 1048524, 1023.95KB, x 1, 0, 16.092001 ms, 62.14 MB/s
async, 1048524, 1023.95KB, x 10, 0, 153.024003 ms, 65.35 MB/s
async, 1048576, 1024.00KB, x 1, 0, 16.791999 ms, 59.55 MB/s
async, 1048576, 1024.00KB, x 10, 0, 152.452007 ms, 65.59 MB/s
async, 1132462, 1105.92KB, x 1, 0, 18.302999 ms, 59.01 MB/s
async, 1132462, 1105.92KB, x 10, 0, 174.551994 ms, 61.87 MB/s
async, 1216348, 1187.84KB, x 1, 0, 23.592999 ms, 49.17 MB/s
async, 1216348, 1187.84KB, x 10, 0, 185.888007 ms, 62.40 MB/s
async, 1300234, 1269.76KB, x 1, 0, 22.340000 ms, 55.51 MB/s
async, 1300234, 1269.76KB, x 10, 0, 205.630004 ms, 60.30 MB/s
async, 1384120, 1351.68KB, x 1, 0, 26.635000 ms, 49.56 MB/s
async, 1384120, 1351.68KB, x 10, 0, 216.245994 ms, 61.04 MB/s
async, 1468006, 1433.60KB, x 1, 0, 28.403999 ms, 49.29 MB/s
async, 1468006, 1433.60KB, x 10, 0, 245.774999 ms, 56.96 MB/s
async, 1551892, 1515.52KB, x 1, 0, 48.882000 ms, 30.28 MB/s
async, 1551892, 1515.52KB, x 10, 0, 256.206989 ms, 57.77 MB/s
async, 1635778, 1597.44KB, x 1, 0, 51.461998 ms, 30.31 MB/s
async, 1635778, 1597.44KB, x 10, 0, 262.270987 ms, 59.48 MB/s
async, 1719664, 1679.36KB, x 1, 0, 54.025002 ms, 30.36 MB/s
async, 1719664, 1679.36KB, x 10, 0, 269.699007 ms, 60.81 MB/s
async, 1803550, 1761.28KB, x 1, 0, 56.419998 ms, 30.49 MB/s
async, 1803550, 1761.28KB, x 10, 0, 296.979010 ms, 57.92 MB/s
async, 1887436, 1843.20KB, x 1, 0, 59.535000 ms, 30.23 MB/s
async, 1887436, 1843.20KB, x 10, 0, 309.623986 ms, 58.14 MB/s
async, 1971322, 1925.12KB, x 1, 0, 61.802998 ms, 30.42 MB/s
async, 1971322, 1925.12KB, x 10, 0, 310.526997 ms, 60.54 MB/s
async, 2055208, 2007.04KB, x 1, 0, 39.554998 ms, 49.55 MB/s
async, 2055208, 2007.04KB, x 10, 0, 337.437987 ms, 58.08 MB/s
async, 2139094, 2088.96KB, x 1, 0, 41.103002 ms, 49.63 MB/s
async, 2139094, 2088.96KB, x 10, 0, 344.496995 ms, 59.22 MB/s
async, 2222980, 2170.88KB, x 1, 0, 43.168001 ms, 49.11 MB/s
async, 2222980, 2170.88KB, x 10, 0, 357.012987 ms, 59.38 MB/s
async, 2306866, 2252.80KB, x 1, 0, 44.256002 ms, 49.71 MB/s
async, 2306866, 2252.80KB, x 10, 0, 367.556006 ms, 59.85 MB/s
async, 2390752, 2334.72KB, x 1, 0, 45.859002 ms, 49.72 MB/s
async, 2390752, 2334.72KB, x 10, 0, 376.643002 ms, 60.53 MB/s
async, 2474638, 2416.64KB, x 1, 0, 47.407001 ms, 49.78 MB/s
async, 2474638, 2416.64KB, x 10, 0, 395.074993 ms, 59.74 MB/s
async, 2558524, 2498.56KB, x 1, 0, 49.176998 ms, 49.62 MB/s
async, 2558524, 2498.56KB, x 10, 0, 394.486010 ms, 61.85 MB/s
async, 2642410, 2580.48KB, x 1, 0, 50.503999 ms, 49.90 MB/s
async, 2642410, 2580.48KB, x 10, 0, 423.756003 ms, 59.47 MB/s
async, 2726296, 2662.40KB, x 1, 0, 52.182000 ms, 49.83 MB/s
async, 2726296, 2662.40KB, x 10, 0, 438.852012 ms, 59.25 MB/s
async, 2810182, 2744.32KB, x 1, 0, 53.970002 ms, 49.66 MB/s
async, 2810182, 2744.32KB, x 10, 0, 452.232987 ms, 59.26 MB/s
async, 2894068, 2826.24KB, x 1, 0, 55.204999 ms, 50.00 MB/s
async, 2894068, 2826.24KB, x 10, 0, 458.076000 ms, 60.25 MB/s
async, 2977954, 2908.16KB, x 1, 0, 57.213999 ms, 49.64 MB/s
async, 2977954, 2908.16KB, x 10, 0, 473.872006 ms, 59.93 MB/s
async, 3061840, 2990.08KB, x 1, 0, 58.430001 ms, 49.97 MB/s
async, 3061840, 2990.08KB, x 10, 0, 471.475989 ms, 61.93 MB/s
async, 3145726, 3072.00KB, x 1, 0, 60.015000 ms, 49.99 MB/s
async, 3145726, 3072.00KB, x 10, 0, 492.673993 ms, 60.89 MB/s
async, 3229612, 3153.92KB, x 1, 0, 61.250001 ms, 50.29 MB/s
async, 3229612, 3153.92KB, x 10, 0, 496.746987 ms, 62.00 MB/s
async, 3313498, 3235.84KB, x 1, 0, 63.056998 ms, 50.11 MB/s
async, 3313498, 3235.84KB, x 10, 0, 506.976008 ms, 62.33 MB/s
async, 3397384, 3317.76KB, x 1, 0, 64.622998 ms, 50.14 MB/s
async, 3397384, 3317.76KB, x 10, 0, 523.234010 ms, 61.92 MB/s
async, 3481270, 3399.68KB, x 1, 0, 66.375002 ms, 50.02 MB/s
async, 3481270, 3399.68KB, x 10, 0, 543.048024 ms, 61.14 MB/s
async, 3565156, 3481.60KB, x 1, 0, 67.626998 ms, 50.28 MB/s
async, 3565156, 3481.60KB, x 10, 0, 555.122018 ms, 61.25 MB/s
async, 3649042, 3563.52KB, x 1, 0, 69.710001 ms, 49.92 MB/s
async, 3649042, 3563.52KB, x 10, 0, 567.378998 ms, 61.33 MB/s
async, 3732928, 3645.44KB, x 1, 0, 71.203001 ms, 50.00 MB/s
async, 3732928, 3645.44KB, x 10, 0, 575.213015 ms, 61.89 MB/s
async, 3816814, 3727.36KB, x 1, 0, 65.342002 ms, 55.71 MB/s
async, 3816814, 3727.36KB, x 10, 0, 594.658971 ms, 61.21 MB/s
async, 3900700, 3809.28KB, x 1, 0, 74.005000 ms, 50.27 MB/s
async, 3900700, 3809.28KB, x 10, 0, 596.132994 ms, 62.40 MB/s
async, 3984586, 3891.20KB, x 1, 0, 75.829998 ms, 50.11 MB/s
async, 3984586, 3891.20KB, x 10, 0, 615.063012 ms, 61.78 MB/s
async, 4068472, 3973.12KB, x 1, 0, 77.120997 ms, 50.31 MB/s
async, 4068472, 3973.12KB, x 10, 0, 630.786002 ms, 61.51 MB/s
async, 4152358, 4055.04KB, x 1, 0, 78.907996 ms, 50.18 MB/s
async, 4152358, 4055.04KB, x 10, 0, 634.361982 ms, 62.42 MB/s
async, 4236244, 4136.96KB, x 1, 0, 81.046999 ms, 49.85 MB/s
async, 4236244, 4136.96KB, x 10, 0, 652.239978 ms, 61.94 MB/s
async, 4320130, 4218.88KB, x 1, 0, 82.134001 ms, 50.16 MB/s
async, 4320130, 4218.88KB, x 10, 0, 665.455997 ms, 61.91 MB/s
async, 4404016, 4300.80KB, x 1, 0, 83.534002 ms, 50.28 MB/s
async, 4404016, 4300.80KB, x 10, 0, 677.290022 ms, 62.01 MB/s
async, 4487902, 4382.72KB, x 1, 0, 85.120000 ms, 50.28 MB/s
async, 4487902, 4382.72KB, x 10, 0, 692.551017 ms, 61.80 MB/s
async, 4571788, 4464.64KB, x 1, 0, 86.889997 ms, 50.18 MB/s
async, 4571788, 4464.64KB, x 10, 0, 689.859986 ms, 63.20 MB/s
async, 4655674, 4546.56KB, x 1, 0, 83.295003 ms, 53.30 MB/s
async, 4655674, 4546.56KB, x 10, 0, 720.144987 ms, 61.65 MB/s
async, 4739560, 4628.48KB, x 1, 0, 90.021998 ms, 50.21 MB/s
async, 4739560, 4628.48KB, x 10, 0, 718.522012 ms, 62.91 MB/s
async, 4823446, 4710.40KB, x 1, 0, 91.848001 ms, 50.08 MB/s
async, 4823446, 4710.40KB, x 10, 0, 737.545013 ms, 62.37 MB/s
async, 4907332, 4792.32KB, x 1, 0, 88.455997 ms, 52.91 MB/s
async, 4907332, 4792.32KB, x 10, 0, 749.655008 ms, 62.43 MB/s
async, 4991218, 4874.24KB, x 1, 0, 84.677003 ms, 56.21 MB/s
async, 4991218, 4874.24KB, x 10, 0, 762.465000 ms, 62.43 MB/s
async, 5075104, 4956.16KB, x 1, 0, 82.465000 ms, 58.69 MB/s
async, 5075104, 4956.16KB, x 10, 0, 767.902970 ms, 63.03 MB/s
async, 5158990, 5038.08KB, x 1, 0, 97.893998 ms, 50.26 MB/s
async, 5158990, 5038.08KB, x 10, 0, 794.112980 ms, 61.96 MB/s
async, 5242876, 5120.00KB, x 1, 0, 92.565998 ms, 54.02 MB/s
async, 5242876, 5120.00KB, x 10, 0, 799.937010 ms, 62.50 MB/s
async, 5326762, 5201.92KB, x 1, 0, 96.087001 ms, 52.87 MB/s
async, 5326762, 5201.92KB, x 10, 0, 815.069973 ms, 62.33 MB/s
async, 5410648, 5283.84KB, x 1, 0, 102.353998 ms, 50.41 MB/s
async, 5410648, 5283.84KB, x 10, 0, 819.513023 ms, 62.96 MB/s
async, 5494534, 5365.76KB, x 1, 0, 103.735998 ms, 50.51 MB/s
async, 5494534, 5365.76KB, x 10, 0, 841.630995 ms, 62.26 MB/s
async, 5578420, 5447.68KB, x 1, 0, 105.985001 ms, 50.20 MB/s
async, 5578420, 5447.68KB, x 10, 0, 847.750008 ms, 62.75 MB/s
async, 5662306, 5529.60KB, x 1, 0, 96.418999 ms, 56.01 MB/s
async, 5662306, 5529.60KB, x 10, 0, 868.210018 ms, 62.20 MB/s
async, 5746192, 5611.52KB, x 1, 0, 108.824000 ms, 50.36 MB/s
async, 5746192, 5611.52KB, x 10, 0, 871.325016 ms, 62.89 MB/s
async, 5830078, 5693.44KB, x 1, 0, 110.923998 ms, 50.12 MB/s
async, 5830078, 5693.44KB, x 10, 0, 894.438982 ms, 62.16 MB/s
async, 5913964, 5775.36KB, x 1, 0, 103.938997 ms, 54.26 MB/s
async, 5913964, 5775.36KB, x 10, 0, 896.209002 ms, 62.93 MB/s
async, 5997850, 5857.28KB, x 1, 0, 114.390001 ms, 50.00 MB/s
async, 5997850, 5857.28KB, x 10, 0, 919.119000 ms, 62.23 MB/s
async, 6081736, 5939.20KB, x 1, 0, 107.864998 ms, 53.77 MB/s
async, 6081736, 5939.20KB, x 10, 0, 914.659023 ms, 63.41 MB/s
async, 6165622, 6021.12KB, x 1, 0, 116.952002 ms, 50.28 MB/s
async, 6165622, 6021.12KB, x 10, 0, 943.615973 ms, 62.31 MB/s
async, 6249508, 6103.04KB, x 1, 0, 118.205003 ms, 50.42 MB/s
async, 6249508, 6103.04KB, x 10, 0, 946.932971 ms, 62.94 MB/s
async, 6333394, 6184.96KB, x 1, 0, 119.551003 ms, 50.52 MB/s
async, 6333394, 6184.96KB, x 10, 0, 967.559993 ms, 62.43 MB/s
async, 6417280, 6266.88KB, x 1, 0, 121.743999 ms, 50.27 MB/s
async, 6417280, 6266.88KB, x 10, 0, 971.412003 ms, 63.00 MB/s
async, 6501166, 6348.79KB, x 1, 0, 118.850999 ms, 52.17 MB/s
async, 6501166, 6348.79KB, x 10, 0, 987.226009 ms, 62.80 MB/s
async, 6585052, 6430.71KB, x 1, 0, 114.850000 ms, 54.68 MB/s
async, 6585052, 6430.71KB, x 10, 0, 996.424973 ms, 63.03 MB/s
async, 6668938, 6512.63KB, x 1, 0, 120.288998 ms, 52.87 MB/s
async, 6668938, 6512.63KB, x 10, 0, 1017.197013 ms, 62.52 MB/s
async, 6752824, 6594.55KB, x 1, 0, 126.333997 ms, 50.98 MB/s
async, 6752824, 6594.55KB, x 10, 0, 1021.693945 ms, 63.03 MB/s
async, 6836710, 6676.47KB, x 1, 0, 123.717003 ms, 52.70 MB/s
async, 6836710, 6676.47KB, x 10, 0, 1040.107965 ms, 62.69 MB/s
async, 6920596, 6758.39KB, x 1, 0, 126.001999 ms, 52.38 MB/s
async, 6920596, 6758.39KB, x 10, 0, 1044.144988 ms, 63.21 MB/s
async, 7004482, 6840.31KB, x 1, 0, 130.647004 ms, 51.13 MB/s
async, 7004482, 6840.31KB, x 10, 0, 1070.778966 ms, 62.38 MB/s
async, 7088368, 6922.23KB, x 1, 0, 132.563993 ms, 50.99 MB/s
async, 7088368, 6922.23KB, x 10, 0, 1069.766045 ms, 63.19 MB/s
async, 7172254, 7004.15KB, x 1, 0, 130.019993 ms, 52.61 MB/s
async, 7172254, 7004.15KB, x 10, 0, 1093.855977 ms, 62.53 MB/s
async, 7256140, 7086.07KB, x 1, 0, 127.145007 ms, 54.43 MB/s
async, 7256140, 7086.07KB, x 10, 0, 1084.751010 ms, 63.79 MB/s
async, 7340026, 7167.99KB, x 1, 0, 133.080006 ms, 52.60 MB/s
async, 7340026, 7167.99KB, x 10, 0, 1121.302009 ms, 62.43 MB/s
async, 7423912, 7249.91KB, x 1, 0, 135.070994 ms, 52.42 MB/s
async, 7423912, 7249.91KB, x 10, 0, 1119.624972 ms, 63.24 MB/s
async, 7507798, 7331.83KB, x 1, 0, 132.176995 ms, 54.17 MB/s
async, 7507798, 7331.83KB, x 10, 0, 1149.152994 ms, 62.31 MB/s
async, 7591684, 7413.75KB, x 1, 0, 141.209006 ms, 51.27 MB/s
async, 7591684, 7413.75KB, x 10, 0, 1143.568039 ms, 63.31 MB/s
async, 7675570, 7495.67KB, x 1, 0, 138.665006 ms, 52.79 MB/s
async, 7675570, 7495.67KB, x 10, 0, 1169.152021 ms, 62.61 MB/s
async, 7759456, 7577.59KB, x 1, 0, 130.112007 ms, 56.87 MB/s
async, 7759456, 7577.59KB, x 10, 0, 1169.446945 ms, 63.28 MB/s
async, 7843342, 7659.51KB, x 1, 0, 141.577005 ms, 52.83 MB/s
async, 7843342, 7659.51KB, x 10, 0, 1195.878983 ms, 62.55 MB/s
async, 7927228, 7741.43KB, x 1, 0, 139.568001 ms, 54.17 MB/s
async, 7927228, 7741.43KB, x 10, 0, 1195.232987 ms, 63.25 MB/s
async, 8011114, 7823.35KB, x 1, 0, 139.513001 ms, 54.76 MB/s
async, 8011114, 7823.35KB, x 10, 0, 1221.277952 ms, 62.56 MB/s
async, 8095000, 7905.27KB, x 1, 0, 149.504006 ms, 51.64 MB/s
async, 8095000, 7905.27KB, x 10, 0, 1220.190048 ms, 63.27 MB/s
async, 8178886, 7987.19KB, x 1, 0, 137.061000 ms, 56.91 MB/s
async, 8178886, 7987.19KB, x 10, 0, 1234.696984 ms, 63.17 MB/s
async, 8262772, 8069.11KB, x 1, 0, 152.397007 ms, 51.71 MB/s
async, 8262772, 8069.11KB, x 10, 0, 1241.884947 ms, 63.45 MB/s
async, 8346658, 8151.03KB, x 1, 0, 158.940002 ms, 50.08 MB/s
async, 8346658, 8151.03KB, x 10, 0, 1267.321944 ms, 62.81 MB/s
async, 8430544, 8232.95KB, x 1, 0, 152.064994 ms, 52.87 MB/s
async, 8430544, 8232.95KB, x 10, 0, 1267.671943 ms, 63.42 MB/s
async, 8514430, 8314.87KB, x 1, 0, 147.955000 ms, 54.88 MB/s
async, 8514430, 8314.87KB, x 10, 0, 1292.111993 ms, 62.84 MB/s
async, 8598316, 8396.79KB, x 1, 0, 146.553993 ms, 55.95 MB/s
async, 8598316, 8396.79KB, x 10, 0, 1289.625049 ms, 63.58 MB/s
async, 8682202, 8478.71KB, x 1, 0, 150.756001 ms, 54.92 MB/s
async, 8682202, 8478.71KB, x 10, 0, 1314.322948 ms, 63.00 MB/s
async, 8766088, 8560.63KB, x 1, 0, 151.161999 ms, 55.30 MB/s
async, 8766088, 8560.63KB, x 10, 0, 1315.559030 ms, 63.55 MB/s
async, 8849974, 8642.55KB, x 1, 0, 147.420004 ms, 57.25 MB/s
async, 8849974, 8642.55KB, x 10, 0, 1343.225956 ms, 62.83 MB/s
async, 8933860, 8724.47KB, x 1, 0, 159.806997 ms, 53.31 MB/s
async, 8933860, 8724.47KB, x 10, 0, 1341.050029 ms, 63.53 MB/s
async, 9017746, 8806.39KB, x 1, 0, 286.251009 ms, 30.04 MB/s
async, 9017746, 8806.39KB, x 10, 0, 1367.519021 ms, 62.89 MB/s
async, 9101632, 8888.31KB, x 1, 0, 158.516005 ms, 54.76 MB/s
async, 9101632, 8888.31KB, x 10, 0, 1365.731001 ms, 63.56 MB/s
async, 9185518, 8970.23KB, x 1, 0, 144.637004 ms, 60.57 MB/s
async, 9185518, 8970.23KB, x 10, 0, 1396.070957 ms, 62.75 MB/s
async, 9269404, 9052.15KB, x 1, 0, 161.632001 ms, 54.69 MB/s
async, 9269404, 9052.15KB, x 10, 0, 1389.194965 ms, 63.63 MB/s
async, 9353290, 9134.07KB, x 1, 0, 166.369006 ms, 53.62 MB/s
async, 9353290, 9134.07KB, x 10, 0, 1404.106975 ms, 63.53 MB/s
async, 9437176, 9215.99KB, x 1, 0, 163.696006 ms, 54.98 MB/s
async, 9437176, 9215.99KB, x 10, 0, 1413.894057 ms, 63.65 MB/s
